<?xml version="1.0" encoding="utf-8" standalone="no"?>
<!DOCTYPE svg PUBLIC "-//W3C//DTD SVG 1.1//EN"
  "http://www.w3.org/Graphics/SVG/1.1/DTD/svg11.dtd">
<svg xmlns:xlink="http://www.w3.org/1999/xlink" width="460.8pt" height="345.6pt" viewBox="0 0 460.8 345.6" xmlns="http://www.w3.org/2000/svg" version="1.1">
 <metadata>
  <rdf:RDF xmlns:dc="http://purl.org/dc/elements/1.1/" xmlns:cc="http://creativecommons.org/ns#" xmlns:rdf="http://www.w3.org/1999/02/22-rdf-syntax-ns#">
   <cc:Work>
    <dc:type rdf:resource="http://purl.org/dc/dcmitype/StillImage"/>
    <dc:date>2024-09-19T15:33:53.940203</dc:date>
    <dc:format>image/svg+xml</dc:format>
    <dc:creator>
     <cc:Agent>
      <dc:title>Matplotlib v3.9.2, https://matplotlib.org/</dc:title>
     </cc:Agent>
    </dc:creator>
   </cc:Work>
  </rdf:RDF>
 </metadata>
 <defs>
  <style type="text/css">*{stroke-linejoin: round; stroke-linecap: butt}</style>
 </defs>
 <g id="figure_1">
  <g id="patch_1">
   <path d="M 0 345.6 
L 460.8 345.6 
L 460.8 0 
L 0 0 
z
" style="fill: #ffffff"/>
  </g>
  <g id="axes_1">
   <g id="patch_2">
    <path d="M 57.6 307.584 
L 414.72 307.584 
L 414.72 41.472 
L 57.6 41.472 
z
" style="fill: #ffffff"/>
   </g>
   <g id="matplotlib.axis_1">
    <g id="xtick_1">
     <g id="line2d_1">
      <defs>
       <path id="m9badd3cce3" d="M 0 0 
L 0 3.5 
" style="stroke: #000000; stroke-width: 0.8"/>
      </defs>
      <g>
       <use xlink:href="#m9badd3cce3" x="73.832727" y="307.584" style="stroke: #000000; stroke-width: 0.8"/>
      </g>
     </g>
     <g id="text_1">
      <!-- 0 -->
      <g transform="translate(70.651477 322.182437) scale(0.1 -0.1)">
       <defs>
        <path id="DejaVuSans-30" d="M 2034 4250 
Q 1547 4250 1301 3770 
Q 1056 3291 1056 2328 
Q 1056 1369 1301 889 
Q 1547 409 2034 409 
Q 2525 409 2770 889 
Q 3016 1369 3016 2328 
Q 3016 3291 2770 3770 
Q 2525 4250 2034 4250 
z
M 2034 4750 
Q 2819 4750 3233 4129 
Q 3647 3509 3647 2328 
Q 3647 1150 3233 529 
Q 2819 -91 2034 -91 
Q 1250 -91 836 529 
Q 422 1150 422 2328 
Q 422 3509 836 4129 
Q 1250 4750 2034 4750 
z
" transform="scale(0.015625)"/>
       </defs>
       <use xlink:href="#DejaVuSans-30"/>
      </g>
     </g>
    </g>
    <g id="xtick_2">
     <g id="line2d_2">
      <g>
       <use xlink:href="#m9badd3cce3" x="117.085398" y="307.584" style="stroke: #000000; stroke-width: 0.8"/>
      </g>
     </g>
     <g id="text_2">
      <!-- 500 -->
      <g transform="translate(107.541648 322.182437) scale(0.1 -0.1)">
       <defs>
        <path id="DejaVuSans-35" d="M 691 4666 
L 3169 4666 
L 3169 4134 
L 1269 4134 
L 1269 2991 
Q 1406 3038 1543 3061 
Q 1681 3084 1819 3084 
Q 2600 3084 3056 2656 
Q 3513 2228 3513 1497 
Q 3513 744 3044 326 
Q 2575 -91 1722 -91 
Q 1428 -91 1123 -41 
Q 819 9 494 109 
L 494 744 
Q 775 591 1075 516 
Q 1375 441 1709 441 
Q 2250 441 2565 725 
Q 2881 1009 2881 1497 
Q 2881 1984 2565 2268 
Q 2250 2553 1709 2553 
Q 1456 2553 1204 2497 
Q 953 2441 691 2322 
L 691 4666 
z
" transform="scale(0.015625)"/>
       </defs>
       <use xlink:href="#DejaVuSans-35"/>
       <use xlink:href="#DejaVuSans-30" x="63.623047"/>
       <use xlink:href="#DejaVuSans-30" x="127.246094"/>
      </g>
     </g>
    </g>
    <g id="xtick_3">
     <g id="line2d_3">
      <g>
       <use xlink:href="#m9badd3cce3" x="160.338068" y="307.584" style="stroke: #000000; stroke-width: 0.8"/>
      </g>
     </g>
     <g id="text_3">
      <!-- 1000 -->
      <g transform="translate(147.613068 322.182437) scale(0.1 -0.1)">
       <defs>
        <path id="DejaVuSans-31" d="M 794 531 
L 1825 531 
L 1825 4091 
L 703 3866 
L 703 4441 
L 1819 4666 
L 2450 4666 
L 2450 531 
L 3481 531 
L 3481 0 
L 794 0 
L 794 531 
z
" transform="scale(0.015625)"/>
       </defs>
       <use xlink:href="#DejaVuSans-31"/>
       <use xlink:href="#DejaVuSans-30" x="63.623047"/>
       <use xlink:href="#DejaVuSans-30" x="127.246094"/>
       <use xlink:href="#DejaVuSans-30" x="190.869141"/>
      </g>
     </g>
    </g>
    <g id="xtick_4">
     <g id="line2d_4">
      <g>
       <use xlink:href="#m9badd3cce3" x="203.590739" y="307.584" style="stroke: #000000; stroke-width: 0.8"/>
      </g>
     </g>
     <g id="text_4">
      <!-- 1500 -->
      <g transform="translate(190.865739 322.182437) scale(0.1 -0.1)">
       <use xlink:href="#DejaVuSans-31"/>
       <use xlink:href="#DejaVuSans-35" x="63.623047"/>
       <use xlink:href="#DejaVuSans-30" x="127.246094"/>
       <use xlink:href="#DejaVuSans-30" x="190.869141"/>
      </g>
     </g>
    </g>
    <g id="xtick_5">
     <g id="line2d_5">
      <g>
       <use xlink:href="#m9badd3cce3" x="246.84341" y="307.584" style="stroke: #000000; stroke-width: 0.8"/>
      </g>
     </g>
     <g id="text_5">
      <!-- 2000 -->
      <g transform="translate(234.11841 322.182437) scale(0.1 -0.1)">
       <defs>
        <path id="DejaVuSans-32" d="M 1228 531 
L 3431 531 
L 3431 0 
L 469 0 
L 469 531 
Q 828 903 1448 1529 
Q 2069 2156 2228 2338 
Q 2531 2678 2651 2914 
Q 2772 3150 2772 3378 
Q 2772 3750 2511 3984 
Q 2250 4219 1831 4219 
Q 1534 4219 1204 4116 
Q 875 4013 500 3803 
L 500 4441 
Q 881 4594 1212 4672 
Q 1544 4750 1819 4750 
Q 2544 4750 2975 4387 
Q 3406 4025 3406 3419 
Q 3406 3131 3298 2873 
Q 3191 2616 2906 2266 
Q 2828 2175 2409 1742 
Q 1991 1309 1228 531 
z
" transform="scale(0.015625)"/>
       </defs>
       <use xlink:href="#DejaVuSans-32"/>
       <use xlink:href="#DejaVuSans-30" x="63.623047"/>
       <use xlink:href="#DejaVuSans-30" x="127.246094"/>
       <use xlink:href="#DejaVuSans-30" x="190.869141"/>
      </g>
     </g>
    </g>
    <g id="xtick_6">
     <g id="line2d_6">
      <g>
       <use xlink:href="#m9badd3cce3" x="290.09608" y="307.584" style="stroke: #000000; stroke-width: 0.8"/>
      </g>
     </g>
     <g id="text_6">
      <!-- 2500 -->
      <g transform="translate(277.37108 322.182437) scale(0.1 -0.1)">
       <use xlink:href="#DejaVuSans-32"/>
       <use xlink:href="#DejaVuSans-35" x="63.623047"/>
       <use xlink:href="#DejaVuSans-30" x="127.246094"/>
       <use xlink:href="#DejaVuSans-30" x="190.869141"/>
      </g>
     </g>
    </g>
    <g id="xtick_7">
     <g id="line2d_7">
      <g>
       <use xlink:href="#m9badd3cce3" x="333.348751" y="307.584" style="stroke: #000000; stroke-width: 0.8"/>
      </g>
     </g>
     <g id="text_7">
      <!-- 3000 -->
      <g transform="translate(320.623751 322.182437) scale(0.1 -0.1)">
       <defs>
        <path id="DejaVuSans-33" d="M 2597 2516 
Q 3050 2419 3304 2112 
Q 3559 1806 3559 1356 
Q 3559 666 3084 287 
Q 2609 -91 1734 -91 
Q 1441 -91 1130 -33 
Q 819 25 488 141 
L 488 750 
Q 750 597 1062 519 
Q 1375 441 1716 441 
Q 2309 441 2620 675 
Q 2931 909 2931 1356 
Q 2931 1769 2642 2001 
Q 2353 2234 1838 2234 
L 1294 2234 
L 1294 2753 
L 1863 2753 
Q 2328 2753 2575 2939 
Q 2822 3125 2822 3475 
Q 2822 3834 2567 4026 
Q 2313 4219 1838 4219 
Q 1578 4219 1281 4162 
Q 984 4106 628 3988 
L 628 4550 
Q 988 4650 1302 4700 
Q 1616 4750 1894 4750 
Q 2613 4750 3031 4423 
Q 3450 4097 3450 3541 
Q 3450 3153 3228 2886 
Q 3006 2619 2597 2516 
z
" transform="scale(0.015625)"/>
       </defs>
       <use xlink:href="#DejaVuSans-33"/>
       <use xlink:href="#DejaVuSans-30" x="63.623047"/>
       <use xlink:href="#DejaVuSans-30" x="127.246094"/>
       <use xlink:href="#DejaVuSans-30" x="190.869141"/>
      </g>
     </g>
    </g>
    <g id="xtick_8">
     <g id="line2d_8">
      <g>
       <use xlink:href="#m9badd3cce3" x="376.601421" y="307.584" style="stroke: #000000; stroke-width: 0.8"/>
      </g>
     </g>
     <g id="text_8">
      <!-- 3500 -->
      <g transform="translate(363.876421 322.182437) scale(0.1 -0.1)">
       <use xlink:href="#DejaVuSans-33"/>
       <use xlink:href="#DejaVuSans-35" x="63.623047"/>
       <use xlink:href="#DejaVuSans-30" x="127.246094"/>
       <use xlink:href="#DejaVuSans-30" x="190.869141"/>
      </g>
     </g>
    </g>
   </g>
   <g id="matplotlib.axis_2">
    <g id="ytick_1">
     <g id="line2d_9">
      <defs>
       <path id="m082ad4d23b" d="M 0 0 
L -3.5 0 
" style="stroke: #000000; stroke-width: 0.8"/>
      </defs>
      <g>
       <use xlink:href="#m082ad4d23b" x="57.6" y="295.488" style="stroke: #000000; stroke-width: 0.8"/>
      </g>
     </g>
     <g id="text_9">
      <!-- −10.0 -->
      <g transform="translate(19.954687 299.287219) scale(0.1 -0.1)">
       <defs>
        <path id="DejaVuSans-2212" d="M 678 2272 
L 4684 2272 
L 4684 1741 
L 678 1741 
L 678 2272 
z
" transform="scale(0.015625)"/>
        <path id="DejaVuSans-2e" d="M 684 794 
L 1344 794 
L 1344 0 
L 684 0 
L 684 794 
z
" transform="scale(0.015625)"/>
       </defs>
       <use xlink:href="#DejaVuSans-2212"/>
       <use xlink:href="#DejaVuSans-31" x="83.789062"/>
       <use xlink:href="#DejaVuSans-30" x="147.412109"/>
       <use xlink:href="#DejaVuSans-2e" x="211.035156"/>
       <use xlink:href="#DejaVuSans-30" x="242.822266"/>
      </g>
     </g>
    </g>
    <g id="ytick_2">
     <g id="line2d_10">
      <g>
       <use xlink:href="#m082ad4d23b" x="57.6" y="265.248" style="stroke: #000000; stroke-width: 0.8"/>
      </g>
     </g>
     <g id="text_10">
      <!-- −7.5 -->
      <g transform="translate(26.317187 269.047219) scale(0.1 -0.1)">
       <defs>
        <path id="DejaVuSans-37" d="M 525 4666 
L 3525 4666 
L 3525 4397 
L 1831 0 
L 1172 0 
L 2766 4134 
L 525 4134 
L 525 4666 
z
" transform="scale(0.015625)"/>
       </defs>
       <use xlink:href="#DejaVuSans-2212"/>
       <use xlink:href="#DejaVuSans-37" x="83.789062"/>
       <use xlink:href="#DejaVuSans-2e" x="147.412109"/>
       <use xlink:href="#DejaVuSans-35" x="179.199219"/>
      </g>
     </g>
    </g>
    <g id="ytick_3">
     <g id="line2d_11">
      <g>
       <use xlink:href="#m082ad4d23b" x="57.6" y="235.008" style="stroke: #000000; stroke-width: 0.8"/>
      </g>
     </g>
     <g id="text_11">
      <!-- −5.0 -->
      <g transform="translate(26.317187 238.807219) scale(0.1 -0.1)">
       <use xlink:href="#DejaVuSans-2212"/>
       <use xlink:href="#DejaVuSans-35" x="83.789062"/>
       <use xlink:href="#DejaVuSans-2e" x="147.412109"/>
       <use xlink:href="#DejaVuSans-30" x="179.199219"/>
      </g>
     </g>
    </g>
    <g id="ytick_4">
     <g id="line2d_12">
      <g>
       <use xlink:href="#m082ad4d23b" x="57.6" y="204.768" style="stroke: #000000; stroke-width: 0.8"/>
      </g>
     </g>
     <g id="text_12">
      <!-- −2.5 -->
      <g transform="translate(26.317187 208.567219) scale(0.1 -0.1)">
       <use xlink:href="#DejaVuSans-2212"/>
       <use xlink:href="#DejaVuSans-32" x="83.789062"/>
       <use xlink:href="#DejaVuSans-2e" x="147.412109"/>
       <use xlink:href="#DejaVuSans-35" x="179.199219"/>
      </g>
     </g>
    </g>
    <g id="ytick_5">
     <g id="line2d_13">
      <g>
       <use xlink:href="#m082ad4d23b" x="57.6" y="174.528" style="stroke: #000000; stroke-width: 0.8"/>
      </g>
     </g>
     <g id="text_13">
      <!-- 0.0 -->
      <g transform="translate(34.696875 178.327219) scale(0.1 -0.1)">
       <use xlink:href="#DejaVuSans-30"/>
       <use xlink:href="#DejaVuSans-2e" x="63.623047"/>
       <use xlink:href="#DejaVuSans-30" x="95.410156"/>
      </g>
     </g>
    </g>
    <g id="ytick_6">
     <g id="line2d_14">
      <g>
       <use xlink:href="#m082ad4d23b" x="57.6" y="144.288" style="stroke: #000000; stroke-width: 0.8"/>
      </g>
     </g>
     <g id="text_14">
      <!-- 2.5 -->
      <g transform="translate(34.696875 148.087219) scale(0.1 -0.1)">
       <use xlink:href="#DejaVuSans-32"/>
       <use xlink:href="#DejaVuSans-2e" x="63.623047"/>
       <use xlink:href="#DejaVuSans-35" x="95.410156"/>
      </g>
     </g>
    </g>
    <g id="ytick_7">
     <g id="line2d_15">
      <g>
       <use xlink:href="#m082ad4d23b" x="57.6" y="114.048" style="stroke: #000000; stroke-width: 0.8"/>
      </g>
     </g>
     <g id="text_15">
      <!-- 5.0 -->
      <g transform="translate(34.696875 117.847219) scale(0.1 -0.1)">
       <use xlink:href="#DejaVuSans-35"/>
       <use xlink:href="#DejaVuSans-2e" x="63.623047"/>
       <use xlink:href="#DejaVuSans-30" x="95.410156"/>
      </g>
     </g>
    </g>
    <g id="ytick_8">
     <g id="line2d_16">
      <g>
       <use xlink:href="#m082ad4d23b" x="57.6" y="83.808" style="stroke: #000000; stroke-width: 0.8"/>
      </g>
     </g>
     <g id="text_16">
      <!-- 7.5 -->
      <g transform="translate(34.696875 87.607219) scale(0.1 -0.1)">
       <use xlink:href="#DejaVuSans-37"/>
       <use xlink:href="#DejaVuSans-2e" x="63.623047"/>
       <use xlink:href="#DejaVuSans-35" x="95.410156"/>
      </g>
     </g>
    </g>
    <g id="ytick_9">
     <g id="line2d_17">
      <g>
       <use xlink:href="#m082ad4d23b" x="57.6" y="53.568" style="stroke: #000000; stroke-width: 0.8"/>
      </g>
     </g>
     <g id="text_17">
      <!-- 10.0 -->
      <g transform="translate(28.334375 57.367219) scale(0.1 -0.1)">
       <use xlink:href="#DejaVuSans-31"/>
       <use xlink:href="#DejaVuSans-30" x="63.623047"/>
       <use xlink:href="#DejaVuSans-2e" x="127.246094"/>
       <use xlink:href="#DejaVuSans-30" x="159.033203"/>
      </g>
     </g>
    </g>
   </g>
   <g id="line2d_18">
    <path d="M 73.832727 53.568 
L 76.254877 53.568 
L 76.427888 65.664 
L 77.033425 65.664 
L 77.206436 77.76 
L 77.984984 77.76 
L 78.2445 89.856 
L 78.763532 89.856 
L 78.936542 95.904 
L 79.023048 95.904 
L 79.369069 101.952 
L 80.234123 101.952 
L 80.407133 104.976 
L 80.753155 108 
L 81.704713 108 
L 81.877724 110.016 
L 81.964229 110.016 
L 82.396756 114.048 
L 86.202991 114.048 
L 86.376002 118.08 
L 86.808528 118.08 
L 87.068044 118.8864 
L 87.241055 120.096 
L 87.587077 120.096 
L 87.760087 122.112 
L 88.019603 122.112 
L 88.365625 124.128 
L 88.45213 124.128 
L 88.625141 126.144 
L 92.431376 126.144 
L 92.690892 128.5632 
L 92.777397 128.5632 
L 93.036913 130.176 
L 93.555945 130.176 
L 93.815461 130.9824 
L 93.988472 130.9824 
L 94.074977 131.159415 
L 94.247988 132.192 
L 95.891589 132.192 
L 96.0646 133.259294 
L 96.237611 133.4016 
L 96.410621 133.4016 
L 96.583632 134.208 
L 96.843148 134.208 
L 97.016159 135.216 
L 97.448685 135.216 
L 97.708201 135.552 
L 98.140728 135.936 
L 98.313739 136.224 
L 98.573255 136.224 
L 98.746266 136.728 
L 98.919276 136.728 
L 99.178792 137.232 
L 99.265298 137.528471 
L 99.438308 138.24 
L 109.818949 138.24 
L 110.078465 139.142687 
L 110.251476 140.256 
L 110.597497 140.3136 
L 110.943519 140.6592 
L 111.462551 140.763626 
L 111.808572 141.264 
L 112.241099 141.264 
L 112.414109 141.496615 
L 112.673625 141.696 
L 112.933141 142.216767 
L 113.192658 142.272 
L 115.095775 142.272 
L 115.18228 142.3872 
L 115.441796 143.0784 
L 116.133839 143.0784 
L 116.30685 143.385313 
L 116.566366 143.532 
L 116.739376 144.288 
L 120.372601 144.390508 
L 120.632117 144.658286 
L 121.410665 145.044 
L 121.670181 145.152 
L 122.016202 145.25568 
L 122.448729 145.4976 
L 122.62174 145.4976 
L 123.054266 146.304 
L 124.957384 146.304 
L 125.2169 146.7072 
L 125.303405 146.7072 
L 125.476416 146.88 
L 125.735932 146.976 
L 125.995448 147.1104 
L 126.168459 147.312 
L 127.206523 147.312 
L 127.379533 147.544615 
L 127.552544 147.648 
L 127.81206 147.744 
L 128.158082 147.9168 
L 128.93663 148.026764 
L 129.196146 148.201412 
L 129.369156 148.32 
L 130.061199 148.32 
L 130.320715 148.557176 
L 130.580231 148.608 
L 130.839747 148.686545 
L 133.261897 149.76 
L 133.694423 150.336 
L 159.38651 150.336 
L 159.646026 150.541017 
L 159.819036 150.617302 
L 160.078552 150.847099 
L 160.68409 151.266462 
L 161.289627 151.344 
L 161.462638 151.435636 
L 161.808659 151.490894 
L 162.241186 151.848 
L 162.500702 151.875491 
L 162.673713 151.985455 
L 164.317314 152.352 
L 165.095862 152.421517 
L 165.268873 152.7552 
L 166.393442 152.7552 
L 166.566453 152.928 
L 167.345001 153.182118 
L 167.604517 153.36 
L 169.680645 153.36 
L 169.940161 153.5616 
L 170.199677 153.656471 
L 170.545699 153.696 
L 172.967848 154.20672 
L 173.140859 154.368 
L 177.639137 154.466341 
L 179.196233 154.872 
L 179.282738 154.872 
L 179.542254 155.1744 
L 180.839834 155.273143 
L 181.185856 155.488 
L 181.531877 155.52 
L 181.704888 155.628 
L 183.088973 156.16 
L 183.261984 156.384 
L 196.843322 156.493964 
L 197.189344 156.702316 
L 197.967892 156.933818 
L 198.054397 156.933818 
L 198.227408 157.056 
L 198.74644 157.14 
L 199.178967 157.248 
L 199.784504 157.28 
L 200.130525 157.5936 
L 202.293159 157.665103 
L 202.46617 157.779692 
L 202.725686 157.824 
L 202.985202 157.896 
L 203.071707 157.896 
L 203.331223 158.112 
L 203.677244 158.182054 
L 203.93676 158.4 
L 211.203209 158.508973 
L 212.587295 158.976 
L 213.279337 158.976 
L 213.452348 159.133091 
L 213.711864 159.2064 
L 214.057885 159.408 
L 218.815679 159.408 
L 218.98869 159.585882 
L 219.853743 160.0128 
L 222.189387 160.0128 
L 222.362398 160.192 
L 223.054441 160.416 
L 224.092505 160.416 
L 224.352021 160.704 
L 225.044064 160.782545 
L 225.649601 160.92 
L 225.822612 160.98048 
L 226.082128 161.088 
L 226.255138 161.158737 
L 226.514654 161.2224 
L 226.947181 161.332364 
L 227.293203 161.568 
L 227.812235 161.94816 
L 227.985245 162.432 
L 363.885136 162.432 
L 364.058147 163.1232 
L 364.75019 163.362462 
L 365.009706 163.6416 
L 365.528738 164.2464 
L 365.701748 164.448 
L 365.874759 164.784 
L 366.739813 165.456 
L 366.912823 165.730909 
L 367.258845 166.0608 
L 367.431855 166.464 
L 367.518361 166.464 
L 367.777877 166.968 
L 367.950887 166.968 
L 368.210403 167.2704 
L 368.64293 167.2704 
L 368.815941 167.616 
L 369.248467 168.48 
L 369.680994 168.48 
L 369.854005 169.029818 
L 369.94051 169.029818 
L 370.200026 169.6896 
L 370.373037 169.6896 
L 370.546048 170.496 
L 371.23809 170.496 
L 371.411101 171.504 
L 371.584112 171.84 
L 371.670617 171.901091 
L 372.189649 173.3184 
L 372.449165 174.528 
L 374.438788 174.528 
L 374.611799 175.627636 
L 374.784809 175.872 
L 374.871315 176.256 
L 375.130831 177.984 
L 375.217336 177.984 
L 375.909379 180.576 
L 376.2554 180.576 
L 376.601421 182.592 
L 376.860937 182.592 
L 377.379969 186.624 
L 381.013194 186.624 
L 381.186204 189.0432 
L 381.705237 192.672 
L 381.878247 194.688 
L 382.137763 195.696 
L 382.224269 195.696 
L 382.397279 198.72 
L 382.656795 198.72 
L 382.829806 201.1392 
L 382.916311 201.1392 
L 383.175827 202.176 
L 383.262333 202.231742 
L 383.435343 202.752 
L 383.521849 202.752 
L 384.040881 206.784 
L 385.078945 206.784 
L 385.338461 208.8 
L 385.597977 208.906105 
L 385.770988 210.816 
L 385.857493 210.816 
L 386.030504 213.84 
L 386.117009 213.84 
L 386.376525 215.6544 
L 386.549536 216.864 
L 386.982062 216.864 
L 387.155073 219.888 
L 387.241578 219.888 
L 387.414589 222.912 
L 387.5876 222.912 
L 387.76061 225.936 
L 387.847116 225.936 
L 388.193137 228.96 
L 388.712169 228.96 
L 388.88518 230.976 
L 389.317707 235.008 
L 389.836739 235.008 
L 390.18276 241.056 
L 391.307329 241.056 
L 391.653351 244.557474 
L 391.739856 244.557474 
L 391.826361 245.088 
L 392.172383 251.136 
L 392.431899 251.136 
L 392.691415 255.168 
L 392.77792 255.744 
L 392.950931 259.2 
L 393.210447 259.2 
L 393.729479 267.264 
L 393.988995 278.208 
L 394.0755 278.58674 
L 394.248511 283.392 
L 394.421522 295.488 
L 398.487273 295.488 
L 398.487273 295.488 
" clip-path="url(#p52dbcee599)" style="fill: none; stroke: #1f77b4; stroke-width: 1.5; stroke-linecap: square"/>
   </g>
   <g id="patch_3">
    <path d="M 57.6 307.584 
L 57.6 41.472 
" style="fill: none; stroke: #000000; stroke-width: 0.8; stroke-linejoin: miter; stroke-linecap: square"/>
   </g>
   <g id="patch_4">
    <path d="M 414.72 307.584 
L 414.72 41.472 
" style="fill: none; stroke: #000000; stroke-width: 0.8; stroke-linejoin: miter; stroke-linecap: square"/>
   </g>
   <g id="patch_5">
    <path d="M 57.6 307.584 
L 414.72 307.584 
" style="fill: none; stroke: #000000; stroke-width: 0.8; stroke-linejoin: miter; stroke-linecap: square"/>
   </g>
   <g id="patch_6">
    <path d="M 57.6 41.472 
L 414.72 41.472 
" style="fill: none; stroke: #000000; stroke-width: 0.8; stroke-linejoin: miter; stroke-linecap: square"/>
   </g>
  </g>
 </g>
 <defs>
  <clipPath id="p52dbcee599">
   <rect x="57.6" y="41.472" width="357.12" height="266.112"/>
  </clipPath>
 </defs>
</svg>
