<?xml version="1.0" encoding="utf-8" standalone="no"?>
<!DOCTYPE svg PUBLIC "-//W3C//DTD SVG 1.1//EN"
  "http://www.w3.org/Graphics/SVG/1.1/DTD/svg11.dtd">
<svg xmlns:xlink="http://www.w3.org/1999/xlink" width="460.8pt" height="345.6pt" viewBox="0 0 460.8 345.6" xmlns="http://www.w3.org/2000/svg" version="1.1">
 <metadata>
  <rdf:RDF xmlns:dc="http://purl.org/dc/elements/1.1/" xmlns:cc="http://creativecommons.org/ns#" xmlns:rdf="http://www.w3.org/1999/02/22-rdf-syntax-ns#">
   <cc:Work>
    <dc:type rdf:resource="http://purl.org/dc/dcmitype/StillImage"/>
    <dc:date>2024-11-15T16:53:45.222514</dc:date>
    <dc:format>image/svg+xml</dc:format>
    <dc:creator>
     <cc:Agent>
      <dc:title>Matplotlib v3.9.2, https://matplotlib.org/</dc:title>
     </cc:Agent>
    </dc:creator>
   </cc:Work>
  </rdf:RDF>
 </metadata>
 <defs>
  <style type="text/css">*{stroke-linejoin: round; stroke-linecap: butt}</style>
 </defs>
 <g id="figure_1">
  <g id="patch_1">
   <path d="M 0 345.6 
L 460.8 345.6 
L 460.8 0 
L 0 0 
z
" style="fill: #ffffff"/>
  </g>
  <g id="axes_1">
   <g id="patch_2">
    <path d="M 57.6 307.584 
L 414.72 307.584 
L 414.72 41.472 
L 57.6 41.472 
z
" style="fill: #ffffff"/>
   </g>
   <g id="PathCollection_1">
    <defs>
     <path id="m9340e94d46" d="M 0 3 
C 0.795609 3 1.55874 2.683901 2.12132 2.12132 
C 2.683901 1.55874 3 0.795609 3 0 
C 3 -0.795609 2.683901 -1.55874 2.12132 -2.12132 
C 1.55874 -2.683901 0.795609 -3 0 -3 
C -0.795609 -3 -1.55874 -2.683901 -2.12132 -2.12132 
C -2.683901 -1.55874 -3 -0.795609 -3 0 
C -3 0.795609 -2.683901 1.55874 -2.12132 2.12132 
C -1.55874 2.683901 -0.795609 3 0 3 
z
" style="stroke: #1f77b4"/>
    </defs>
    <g clip-path="url(#pa5cbad1847)">
     <use xlink:href="#m9340e94d46" x="73.832727" y="53.568" style="fill: #1f77b4; stroke: #1f77b4"/>
     <use xlink:href="#m9340e94d46" x="77.112066" y="64.792235" style="fill: #1f77b4; stroke: #1f77b4"/>
     <use xlink:href="#m9340e94d46" x="80.391405" y="75.598003" style="fill: #1f77b4; stroke: #1f77b4"/>
     <use xlink:href="#m9340e94d46" x="83.670744" y="86.213699" style="fill: #1f77b4; stroke: #1f77b4"/>
     <use xlink:href="#m9340e94d46" x="86.950083" y="96.706385" style="fill: #1f77b4; stroke: #1f77b4"/>
     <use xlink:href="#m9340e94d46" x="90.229421" y="107.115914" style="fill: #1f77b4; stroke: #1f77b4"/>
     <use xlink:href="#m9340e94d46" x="93.50876" y="118.238215" style="fill: #1f77b4; stroke: #1f77b4"/>
     <use xlink:href="#m9340e94d46" x="96.788099" y="130.212775" style="fill: #1f77b4; stroke: #1f77b4"/>
     <use xlink:href="#m9340e94d46" x="100.067438" y="137.605672" style="fill: #1f77b4; stroke: #1f77b4"/>
     <use xlink:href="#m9340e94d46" x="103.346777" y="145.153002" style="fill: #1f77b4; stroke: #1f77b4"/>
     <use xlink:href="#m9340e94d46" x="106.626116" y="153.116115" style="fill: #1f77b4; stroke: #1f77b4"/>
     <use xlink:href="#m9340e94d46" x="109.905455" y="164.509346" style="fill: #1f77b4; stroke: #1f77b4"/>
     <use xlink:href="#m9340e94d46" x="113.184793" y="170.818139" style="fill: #1f77b4; stroke: #1f77b4"/>
     <use xlink:href="#m9340e94d46" x="116.464132" y="179.751159" style="fill: #1f77b4; stroke: #1f77b4"/>
     <use xlink:href="#m9340e94d46" x="119.743471" y="186.584951" style="fill: #1f77b4; stroke: #1f77b4"/>
     <use xlink:href="#m9340e94d46" x="123.02281" y="192.587176" style="fill: #1f77b4; stroke: #1f77b4"/>
     <use xlink:href="#m9340e94d46" x="126.302149" y="201.607567" style="fill: #1f77b4; stroke: #1f77b4"/>
     <use xlink:href="#m9340e94d46" x="129.581488" y="207.324684" style="fill: #1f77b4; stroke: #1f77b4"/>
     <use xlink:href="#m9340e94d46" x="132.860826" y="213.760321" style="fill: #1f77b4; stroke: #1f77b4"/>
     <use xlink:href="#m9340e94d46" x="136.140165" y="218.203646" style="fill: #1f77b4; stroke: #1f77b4"/>
     <use xlink:href="#m9340e94d46" x="139.419504" y="223.760198" style="fill: #1f77b4; stroke: #1f77b4"/>
     <use xlink:href="#m9340e94d46" x="142.698843" y="229.468884" style="fill: #1f77b4; stroke: #1f77b4"/>
     <use xlink:href="#m9340e94d46" x="145.978182" y="235.713299" style="fill: #1f77b4; stroke: #1f77b4"/>
     <use xlink:href="#m9340e94d46" x="149.257521" y="243.577161" style="fill: #1f77b4; stroke: #1f77b4"/>
     <use xlink:href="#m9340e94d46" x="152.53686" y="244.086064" style="fill: #1f77b4; stroke: #1f77b4"/>
     <use xlink:href="#m9340e94d46" x="155.816198" y="249.902433" style="fill: #1f77b4; stroke: #1f77b4"/>
     <use xlink:href="#m9340e94d46" x="159.095537" y="251.780164" style="fill: #1f77b4; stroke: #1f77b4"/>
     <use xlink:href="#m9340e94d46" x="162.374876" y="259.646708" style="fill: #1f77b4; stroke: #1f77b4"/>
     <use xlink:href="#m9340e94d46" x="165.654215" y="263.184891" style="fill: #1f77b4; stroke: #1f77b4"/>
     <use xlink:href="#m9340e94d46" x="168.933554" y="268.421078" style="fill: #1f77b4; stroke: #1f77b4"/>
     <use xlink:href="#m9340e94d46" x="172.212893" y="271.142639" style="fill: #1f77b4; stroke: #1f77b4"/>
     <use xlink:href="#m9340e94d46" x="175.492231" y="271.367967" style="fill: #1f77b4; stroke: #1f77b4"/>
     <use xlink:href="#m9340e94d46" x="178.77157" y="276.078773" style="fill: #1f77b4; stroke: #1f77b4"/>
     <use xlink:href="#m9340e94d46" x="182.050909" y="278.624057" style="fill: #1f77b4; stroke: #1f77b4"/>
     <use xlink:href="#m9340e94d46" x="185.330248" y="280.393723" style="fill: #1f77b4; stroke: #1f77b4"/>
     <use xlink:href="#m9340e94d46" x="188.609587" y="281.301932" style="fill: #1f77b4; stroke: #1f77b4"/>
     <use xlink:href="#m9340e94d46" x="191.888926" y="283.758694" style="fill: #1f77b4; stroke: #1f77b4"/>
     <use xlink:href="#m9340e94d46" x="195.168264" y="285.528743" style="fill: #1f77b4; stroke: #1f77b4"/>
     <use xlink:href="#m9340e94d46" x="198.447603" y="286.697535" style="fill: #1f77b4; stroke: #1f77b4"/>
     <use xlink:href="#m9340e94d46" x="201.726942" y="288.641562" style="fill: #1f77b4; stroke: #1f77b4"/>
     <use xlink:href="#m9340e94d46" x="205.006281" y="292.152536" style="fill: #1f77b4; stroke: #1f77b4"/>
     <use xlink:href="#m9340e94d46" x="208.28562" y="291.982774" style="fill: #1f77b4; stroke: #1f77b4"/>
     <use xlink:href="#m9340e94d46" x="211.564959" y="291.952117" style="fill: #1f77b4; stroke: #1f77b4"/>
     <use xlink:href="#m9340e94d46" x="214.844298" y="290.169805" style="fill: #1f77b4; stroke: #1f77b4"/>
     <use xlink:href="#m9340e94d46" x="218.123636" y="290.665296" style="fill: #1f77b4; stroke: #1f77b4"/>
     <use xlink:href="#m9340e94d46" x="221.402975" y="293.978917" style="fill: #1f77b4; stroke: #1f77b4"/>
     <use xlink:href="#m9340e94d46" x="224.682314" y="294.710466" style="fill: #1f77b4; stroke: #1f77b4"/>
     <use xlink:href="#m9340e94d46" x="227.961653" y="293.23089" style="fill: #1f77b4; stroke: #1f77b4"/>
     <use xlink:href="#m9340e94d46" x="231.240992" y="293.478828" style="fill: #1f77b4; stroke: #1f77b4"/>
     <use xlink:href="#m9340e94d46" x="234.520331" y="295.488" style="fill: #1f77b4; stroke: #1f77b4"/>
     <use xlink:href="#m9340e94d46" x="237.799669" y="293.318262" style="fill: #1f77b4; stroke: #1f77b4"/>
     <use xlink:href="#m9340e94d46" x="241.079008" y="292.516203" style="fill: #1f77b4; stroke: #1f77b4"/>
     <use xlink:href="#m9340e94d46" x="244.358347" y="291.082229" style="fill: #1f77b4; stroke: #1f77b4"/>
     <use xlink:href="#m9340e94d46" x="247.637686" y="290.574859" style="fill: #1f77b4; stroke: #1f77b4"/>
     <use xlink:href="#m9340e94d46" x="250.917025" y="288.361818" style="fill: #1f77b4; stroke: #1f77b4"/>
     <use xlink:href="#m9340e94d46" x="254.196364" y="288.503989" style="fill: #1f77b4; stroke: #1f77b4"/>
     <use xlink:href="#m9340e94d46" x="257.475702" y="287.800415" style="fill: #1f77b4; stroke: #1f77b4"/>
     <use xlink:href="#m9340e94d46" x="260.755041" y="287.417588" style="fill: #1f77b4; stroke: #1f77b4"/>
     <use xlink:href="#m9340e94d46" x="264.03438" y="286.69332" style="fill: #1f77b4; stroke: #1f77b4"/>
     <use xlink:href="#m9340e94d46" x="267.313719" y="283.713475" style="fill: #1f77b4; stroke: #1f77b4"/>
     <use xlink:href="#m9340e94d46" x="270.593058" y="282.740887" style="fill: #1f77b4; stroke: #1f77b4"/>
     <use xlink:href="#m9340e94d46" x="273.872397" y="278.712962" style="fill: #1f77b4; stroke: #1f77b4"/>
     <use xlink:href="#m9340e94d46" x="277.151736" y="277.126087" style="fill: #1f77b4; stroke: #1f77b4"/>
     <use xlink:href="#m9340e94d46" x="280.431074" y="275.712424" style="fill: #1f77b4; stroke: #1f77b4"/>
     <use xlink:href="#m9340e94d46" x="283.710413" y="272.737561" style="fill: #1f77b4; stroke: #1f77b4"/>
     <use xlink:href="#m9340e94d46" x="286.989752" y="271.110833" style="fill: #1f77b4; stroke: #1f77b4"/>
     <use xlink:href="#m9340e94d46" x="290.269091" y="268.711935" style="fill: #1f77b4; stroke: #1f77b4"/>
     <use xlink:href="#m9340e94d46" x="293.54843" y="268.105696" style="fill: #1f77b4; stroke: #1f77b4"/>
     <use xlink:href="#m9340e94d46" x="296.827769" y="264.471711" style="fill: #1f77b4; stroke: #1f77b4"/>
     <use xlink:href="#m9340e94d46" x="300.107107" y="261.967814" style="fill: #1f77b4; stroke: #1f77b4"/>
     <use xlink:href="#m9340e94d46" x="303.386446" y="257.680456" style="fill: #1f77b4; stroke: #1f77b4"/>
     <use xlink:href="#m9340e94d46" x="306.665785" y="255.96214" style="fill: #1f77b4; stroke: #1f77b4"/>
     <use xlink:href="#m9340e94d46" x="309.945124" y="252.420509" style="fill: #1f77b4; stroke: #1f77b4"/>
     <use xlink:href="#m9340e94d46" x="313.224463" y="250.10975" style="fill: #1f77b4; stroke: #1f77b4"/>
     <use xlink:href="#m9340e94d46" x="316.503802" y="246.507188" style="fill: #1f77b4; stroke: #1f77b4"/>
     <use xlink:href="#m9340e94d46" x="319.78314" y="243.17479" style="fill: #1f77b4; stroke: #1f77b4"/>
     <use xlink:href="#m9340e94d46" x="323.062479" y="240.559378" style="fill: #1f77b4; stroke: #1f77b4"/>
     <use xlink:href="#m9340e94d46" x="326.341818" y="238.516867" style="fill: #1f77b4; stroke: #1f77b4"/>
     <use xlink:href="#m9340e94d46" x="329.621157" y="233.925622" style="fill: #1f77b4; stroke: #1f77b4"/>
     <use xlink:href="#m9340e94d46" x="332.900496" y="230.297385" style="fill: #1f77b4; stroke: #1f77b4"/>
     <use xlink:href="#m9340e94d46" x="336.179835" y="227.690021" style="fill: #1f77b4; stroke: #1f77b4"/>
     <use xlink:href="#m9340e94d46" x="339.459174" y="223.572808" style="fill: #1f77b4; stroke: #1f77b4"/>
     <use xlink:href="#m9340e94d46" x="342.738512" y="221.139805" style="fill: #1f77b4; stroke: #1f77b4"/>
     <use xlink:href="#m9340e94d46" x="346.017851" y="217.150584" style="fill: #1f77b4; stroke: #1f77b4"/>
     <use xlink:href="#m9340e94d46" x="349.29719" y="213.924335" style="fill: #1f77b4; stroke: #1f77b4"/>
     <use xlink:href="#m9340e94d46" x="352.576529" y="209.831264" style="fill: #1f77b4; stroke: #1f77b4"/>
     <use xlink:href="#m9340e94d46" x="355.855868" y="206.326038" style="fill: #1f77b4; stroke: #1f77b4"/>
     <use xlink:href="#m9340e94d46" x="359.135207" y="202.280102" style="fill: #1f77b4; stroke: #1f77b4"/>
     <use xlink:href="#m9340e94d46" x="362.414545" y="199.387246" style="fill: #1f77b4; stroke: #1f77b4"/>
     <use xlink:href="#m9340e94d46" x="365.693884" y="195.971691" style="fill: #1f77b4; stroke: #1f77b4"/>
     <use xlink:href="#m9340e94d46" x="368.973223" y="191.604625" style="fill: #1f77b4; stroke: #1f77b4"/>
     <use xlink:href="#m9340e94d46" x="372.252562" y="188.977334" style="fill: #1f77b4; stroke: #1f77b4"/>
     <use xlink:href="#m9340e94d46" x="375.531901" y="184.73711" style="fill: #1f77b4; stroke: #1f77b4"/>
     <use xlink:href="#m9340e94d46" x="378.81124" y="179.757673" style="fill: #1f77b4; stroke: #1f77b4"/>
     <use xlink:href="#m9340e94d46" x="382.090579" y="175.830916" style="fill: #1f77b4; stroke: #1f77b4"/>
     <use xlink:href="#m9340e94d46" x="385.369917" y="173.221636" style="fill: #1f77b4; stroke: #1f77b4"/>
     <use xlink:href="#m9340e94d46" x="388.649256" y="169.189495" style="fill: #1f77b4; stroke: #1f77b4"/>
     <use xlink:href="#m9340e94d46" x="391.928595" y="164.063672" style="fill: #1f77b4; stroke: #1f77b4"/>
     <use xlink:href="#m9340e94d46" x="395.207934" y="161.641015" style="fill: #1f77b4; stroke: #1f77b4"/>
     <use xlink:href="#m9340e94d46" x="398.487273" y="157.33143" style="fill: #1f77b4; stroke: #1f77b4"/>
    </g>
   </g>
   <g id="matplotlib.axis_1">
    <g id="xtick_1">
     <g id="line2d_1">
      <defs>
       <path id="m6f8cc6bd86" d="M 0 0 
L 0 3.5 
" style="stroke: #000000; stroke-width: 0.8"/>
      </defs>
      <g>
       <use xlink:href="#m6f8cc6bd86" x="73.832727" y="307.584" style="stroke: #000000; stroke-width: 0.8"/>
      </g>
     </g>
     <g id="text_1">
      <!-- 0 -->
      <g transform="translate(70.651477 322.182437) scale(0.1 -0.1)">
       <defs>
        <path id="DejaVuSans-30" d="M 2034 4250 
Q 1547 4250 1301 3770 
Q 1056 3291 1056 2328 
Q 1056 1369 1301 889 
Q 1547 409 2034 409 
Q 2525 409 2770 889 
Q 3016 1369 3016 2328 
Q 3016 3291 2770 3770 
Q 2525 4250 2034 4250 
z
M 2034 4750 
Q 2819 4750 3233 4129 
Q 3647 3509 3647 2328 
Q 3647 1150 3233 529 
Q 2819 -91 2034 -91 
Q 1250 -91 836 529 
Q 422 1150 422 2328 
Q 422 3509 836 4129 
Q 1250 4750 2034 4750 
z
" transform="scale(0.015625)"/>
       </defs>
       <use xlink:href="#DejaVuSans-30"/>
      </g>
     </g>
    </g>
    <g id="xtick_2">
     <g id="line2d_2">
      <g>
       <use xlink:href="#m6f8cc6bd86" x="139.419504" y="307.584" style="stroke: #000000; stroke-width: 0.8"/>
      </g>
     </g>
     <g id="text_2">
      <!-- 20 -->
      <g transform="translate(133.057004 322.182437) scale(0.1 -0.1)">
       <defs>
        <path id="DejaVuSans-32" d="M 1228 531 
L 3431 531 
L 3431 0 
L 469 0 
L 469 531 
Q 828 903 1448 1529 
Q 2069 2156 2228 2338 
Q 2531 2678 2651 2914 
Q 2772 3150 2772 3378 
Q 2772 3750 2511 3984 
Q 2250 4219 1831 4219 
Q 1534 4219 1204 4116 
Q 875 4013 500 3803 
L 500 4441 
Q 881 4594 1212 4672 
Q 1544 4750 1819 4750 
Q 2544 4750 2975 4387 
Q 3406 4025 3406 3419 
Q 3406 3131 3298 2873 
Q 3191 2616 2906 2266 
Q 2828 2175 2409 1742 
Q 1991 1309 1228 531 
z
" transform="scale(0.015625)"/>
       </defs>
       <use xlink:href="#DejaVuSans-32"/>
       <use xlink:href="#DejaVuSans-30" x="63.623047"/>
      </g>
     </g>
    </g>
    <g id="xtick_3">
     <g id="line2d_3">
      <g>
       <use xlink:href="#m6f8cc6bd86" x="205.006281" y="307.584" style="stroke: #000000; stroke-width: 0.8"/>
      </g>
     </g>
     <g id="text_3">
      <!-- 40 -->
      <g transform="translate(198.643781 322.182437) scale(0.1 -0.1)">
       <defs>
        <path id="DejaVuSans-34" d="M 2419 4116 
L 825 1625 
L 2419 1625 
L 2419 4116 
z
M 2253 4666 
L 3047 4666 
L 3047 1625 
L 3713 1625 
L 3713 1100 
L 3047 1100 
L 3047 0 
L 2419 0 
L 2419 1100 
L 313 1100 
L 313 1709 
L 2253 4666 
z
" transform="scale(0.015625)"/>
       </defs>
       <use xlink:href="#DejaVuSans-34"/>
       <use xlink:href="#DejaVuSans-30" x="63.623047"/>
      </g>
     </g>
    </g>
    <g id="xtick_4">
     <g id="line2d_4">
      <g>
       <use xlink:href="#m6f8cc6bd86" x="270.593058" y="307.584" style="stroke: #000000; stroke-width: 0.8"/>
      </g>
     </g>
     <g id="text_4">
      <!-- 60 -->
      <g transform="translate(264.230558 322.182437) scale(0.1 -0.1)">
       <defs>
        <path id="DejaVuSans-36" d="M 2113 2584 
Q 1688 2584 1439 2293 
Q 1191 2003 1191 1497 
Q 1191 994 1439 701 
Q 1688 409 2113 409 
Q 2538 409 2786 701 
Q 3034 994 3034 1497 
Q 3034 2003 2786 2293 
Q 2538 2584 2113 2584 
z
M 3366 4563 
L 3366 3988 
Q 3128 4100 2886 4159 
Q 2644 4219 2406 4219 
Q 1781 4219 1451 3797 
Q 1122 3375 1075 2522 
Q 1259 2794 1537 2939 
Q 1816 3084 2150 3084 
Q 2853 3084 3261 2657 
Q 3669 2231 3669 1497 
Q 3669 778 3244 343 
Q 2819 -91 2113 -91 
Q 1303 -91 875 529 
Q 447 1150 447 2328 
Q 447 3434 972 4092 
Q 1497 4750 2381 4750 
Q 2619 4750 2861 4703 
Q 3103 4656 3366 4563 
z
" transform="scale(0.015625)"/>
       </defs>
       <use xlink:href="#DejaVuSans-36"/>
       <use xlink:href="#DejaVuSans-30" x="63.623047"/>
      </g>
     </g>
    </g>
    <g id="xtick_5">
     <g id="line2d_5">
      <g>
       <use xlink:href="#m6f8cc6bd86" x="336.179835" y="307.584" style="stroke: #000000; stroke-width: 0.8"/>
      </g>
     </g>
     <g id="text_5">
      <!-- 80 -->
      <g transform="translate(329.817335 322.182437) scale(0.1 -0.1)">
       <defs>
        <path id="DejaVuSans-38" d="M 2034 2216 
Q 1584 2216 1326 1975 
Q 1069 1734 1069 1313 
Q 1069 891 1326 650 
Q 1584 409 2034 409 
Q 2484 409 2743 651 
Q 3003 894 3003 1313 
Q 3003 1734 2745 1975 
Q 2488 2216 2034 2216 
z
M 1403 2484 
Q 997 2584 770 2862 
Q 544 3141 544 3541 
Q 544 4100 942 4425 
Q 1341 4750 2034 4750 
Q 2731 4750 3128 4425 
Q 3525 4100 3525 3541 
Q 3525 3141 3298 2862 
Q 3072 2584 2669 2484 
Q 3125 2378 3379 2068 
Q 3634 1759 3634 1313 
Q 3634 634 3220 271 
Q 2806 -91 2034 -91 
Q 1263 -91 848 271 
Q 434 634 434 1313 
Q 434 1759 690 2068 
Q 947 2378 1403 2484 
z
M 1172 3481 
Q 1172 3119 1398 2916 
Q 1625 2713 2034 2713 
Q 2441 2713 2670 2916 
Q 2900 3119 2900 3481 
Q 2900 3844 2670 4047 
Q 2441 4250 2034 4250 
Q 1625 4250 1398 4047 
Q 1172 3844 1172 3481 
z
" transform="scale(0.015625)"/>
       </defs>
       <use xlink:href="#DejaVuSans-38"/>
       <use xlink:href="#DejaVuSans-30" x="63.623047"/>
      </g>
     </g>
    </g>
    <g id="xtick_6">
     <g id="line2d_6">
      <g>
       <use xlink:href="#m6f8cc6bd86" x="401.766612" y="307.584" style="stroke: #000000; stroke-width: 0.8"/>
      </g>
     </g>
     <g id="text_6">
      <!-- 100 -->
      <g transform="translate(392.222862 322.182437) scale(0.1 -0.1)">
       <defs>
        <path id="DejaVuSans-31" d="M 794 531 
L 1825 531 
L 1825 4091 
L 703 3866 
L 703 4441 
L 1819 4666 
L 2450 4666 
L 2450 531 
L 3481 531 
L 3481 0 
L 794 0 
L 794 531 
z
" transform="scale(0.015625)"/>
       </defs>
       <use xlink:href="#DejaVuSans-31"/>
       <use xlink:href="#DejaVuSans-30" x="63.623047"/>
       <use xlink:href="#DejaVuSans-30" x="127.246094"/>
      </g>
     </g>
    </g>
   </g>
   <g id="matplotlib.axis_2">
    <g id="ytick_1">
     <g id="line2d_7">
      <defs>
       <path id="m97c6a762bd" d="M 0 0 
L -3.5 0 
" style="stroke: #000000; stroke-width: 0.8"/>
      </defs>
      <g>
       <use xlink:href="#m97c6a762bd" x="57.6" y="287.326384" style="stroke: #000000; stroke-width: 0.8"/>
      </g>
     </g>
     <g id="text_7">
      <!-- 40 -->
      <g transform="translate(37.875 291.125602) scale(0.1 -0.1)">
       <use xlink:href="#DejaVuSans-34"/>
       <use xlink:href="#DejaVuSans-30" x="63.623047"/>
      </g>
     </g>
    </g>
    <g id="ytick_2">
     <g id="line2d_8">
      <g>
       <use xlink:href="#m97c6a762bd" x="57.6" y="249.005337" style="stroke: #000000; stroke-width: 0.8"/>
      </g>
     </g>
     <g id="text_8">
      <!-- 50 -->
      <g transform="translate(37.875 252.804556) scale(0.1 -0.1)">
       <defs>
        <path id="DejaVuSans-35" d="M 691 4666 
L 3169 4666 
L 3169 4134 
L 1269 4134 
L 1269 2991 
Q 1406 3038 1543 3061 
Q 1681 3084 1819 3084 
Q 2600 3084 3056 2656 
Q 3513 2228 3513 1497 
Q 3513 744 3044 326 
Q 2575 -91 1722 -91 
Q 1428 -91 1123 -41 
Q 819 9 494 109 
L 494 744 
Q 775 591 1075 516 
Q 1375 441 1709 441 
Q 2250 441 2565 725 
Q 2881 1009 2881 1497 
Q 2881 1984 2565 2268 
Q 2250 2553 1709 2553 
Q 1456 2553 1204 2497 
Q 953 2441 691 2322 
L 691 4666 
z
" transform="scale(0.015625)"/>
       </defs>
       <use xlink:href="#DejaVuSans-35"/>
       <use xlink:href="#DejaVuSans-30" x="63.623047"/>
      </g>
     </g>
    </g>
    <g id="ytick_3">
     <g id="line2d_9">
      <g>
       <use xlink:href="#m97c6a762bd" x="57.6" y="210.684291" style="stroke: #000000; stroke-width: 0.8"/>
      </g>
     </g>
     <g id="text_9">
      <!-- 60 -->
      <g transform="translate(37.875 214.483509) scale(0.1 -0.1)">
       <use xlink:href="#DejaVuSans-36"/>
       <use xlink:href="#DejaVuSans-30" x="63.623047"/>
      </g>
     </g>
    </g>
    <g id="ytick_4">
     <g id="line2d_10">
      <g>
       <use xlink:href="#m97c6a762bd" x="57.6" y="172.363244" style="stroke: #000000; stroke-width: 0.8"/>
      </g>
     </g>
     <g id="text_10">
      <!-- 70 -->
      <g transform="translate(37.875 176.162463) scale(0.1 -0.1)">
       <defs>
        <path id="DejaVuSans-37" d="M 525 4666 
L 3525 4666 
L 3525 4397 
L 1831 0 
L 1172 0 
L 2766 4134 
L 525 4134 
L 525 4666 
z
" transform="scale(0.015625)"/>
       </defs>
       <use xlink:href="#DejaVuSans-37"/>
       <use xlink:href="#DejaVuSans-30" x="63.623047"/>
      </g>
     </g>
    </g>
    <g id="ytick_5">
     <g id="line2d_11">
      <g>
       <use xlink:href="#m97c6a762bd" x="57.6" y="134.042198" style="stroke: #000000; stroke-width: 0.8"/>
      </g>
     </g>
     <g id="text_11">
      <!-- 80 -->
      <g transform="translate(37.875 137.841416) scale(0.1 -0.1)">
       <use xlink:href="#DejaVuSans-38"/>
       <use xlink:href="#DejaVuSans-30" x="63.623047"/>
      </g>
     </g>
    </g>
    <g id="ytick_6">
     <g id="line2d_12">
      <g>
       <use xlink:href="#m97c6a762bd" x="57.6" y="95.721151" style="stroke: #000000; stroke-width: 0.8"/>
      </g>
     </g>
     <g id="text_12">
      <!-- 90 -->
      <g transform="translate(37.875 99.52037) scale(0.1 -0.1)">
       <defs>
        <path id="DejaVuSans-39" d="M 703 97 
L 703 672 
Q 941 559 1184 500 
Q 1428 441 1663 441 
Q 2288 441 2617 861 
Q 2947 1281 2994 2138 
Q 2813 1869 2534 1725 
Q 2256 1581 1919 1581 
Q 1219 1581 811 2004 
Q 403 2428 403 3163 
Q 403 3881 828 4315 
Q 1253 4750 1959 4750 
Q 2769 4750 3195 4129 
Q 3622 3509 3622 2328 
Q 3622 1225 3098 567 
Q 2575 -91 1691 -91 
Q 1453 -91 1209 -44 
Q 966 3 703 97 
z
M 1959 2075 
Q 2384 2075 2632 2365 
Q 2881 2656 2881 3163 
Q 2881 3666 2632 3958 
Q 2384 4250 1959 4250 
Q 1534 4250 1286 3958 
Q 1038 3666 1038 3163 
Q 1038 2656 1286 2365 
Q 1534 2075 1959 2075 
z
" transform="scale(0.015625)"/>
       </defs>
       <use xlink:href="#DejaVuSans-39"/>
       <use xlink:href="#DejaVuSans-30" x="63.623047"/>
      </g>
     </g>
    </g>
    <g id="ytick_7">
     <g id="line2d_13">
      <g>
       <use xlink:href="#m97c6a762bd" x="57.6" y="57.400105" style="stroke: #000000; stroke-width: 0.8"/>
      </g>
     </g>
     <g id="text_13">
      <!-- 100 -->
      <g transform="translate(31.5125 61.199323) scale(0.1 -0.1)">
       <use xlink:href="#DejaVuSans-31"/>
       <use xlink:href="#DejaVuSans-30" x="63.623047"/>
       <use xlink:href="#DejaVuSans-30" x="127.246094"/>
      </g>
     </g>
    </g>
   </g>
   <g id="patch_3">
    <path d="M 57.6 307.584 
L 57.6 41.472 
" style="fill: none; stroke: #000000; stroke-width: 0.8; stroke-linejoin: miter; stroke-linecap: square"/>
   </g>
   <g id="patch_4">
    <path d="M 414.72 307.584 
L 414.72 41.472 
" style="fill: none; stroke: #000000; stroke-width: 0.8; stroke-linejoin: miter; stroke-linecap: square"/>
   </g>
   <g id="patch_5">
    <path d="M 57.6 307.584 
L 414.72 307.584 
" style="fill: none; stroke: #000000; stroke-width: 0.8; stroke-linejoin: miter; stroke-linecap: square"/>
   </g>
   <g id="patch_6">
    <path d="M 57.6 41.472 
L 414.72 41.472 
" style="fill: none; stroke: #000000; stroke-width: 0.8; stroke-linejoin: miter; stroke-linecap: square"/>
   </g>
  </g>
 </g>
 <defs>
  <clipPath id="pa5cbad1847">
   <rect x="57.6" y="41.472" width="357.12" height="266.112"/>
  </clipPath>
 </defs>
</svg>
