<?xml version="1.0" encoding="utf-8"  standalone="no"?>
<svg 
 width="600" height="480"
 viewBox="0 0 600 480"
 xmlns="http://www.w3.org/2000/svg"
 xmlns:xlink="http://www.w3.org/1999/xlink"
>

<title>Gnuplot</title>
<desc>Produced by GNUPLOT 6.0 patchlevel 0 </desc>

<g id="gnuplot_canvas">

<rect x="0" y="0" width="600" height="480" fill="none"/>
<defs>

	<circle id='gpDot' r='0.5' stroke-width='0.5' stroke='currentColor'/>
	<path id='gpPt0' stroke-width='0.222' stroke='currentColor' d='M-1,0 h2 M0,-1 v2'/>
	<path id='gpPt1' stroke-width='0.222' stroke='currentColor' d='M-1,-1 L1,1 M1,-1 L-1,1'/>
	<path id='gpPt2' stroke-width='0.222' stroke='currentColor' d='M-1,0 L1,0 M0,-1 L0,1 M-1,-1 L1,1 M-1,1 L1,-1'/>
	<rect id='gpPt3' stroke-width='0.222' stroke='currentColor' x='-1' y='-1' width='2' height='2'/>
	<rect id='gpPt4' stroke-width='0.222' stroke='currentColor' fill='currentColor' x='-1' y='-1' width='2' height='2'/>
	<circle id='gpPt5' stroke-width='0.222' stroke='currentColor' cx='0' cy='0' r='1'/>
	<use xlink:href='#gpPt5' id='gpPt6' fill='currentColor' stroke='none'/>
	<path id='gpPt7' stroke-width='0.222' stroke='currentColor' d='M0,-1.33 L-1.33,0.67 L1.33,0.67 z'/>
	<use xlink:href='#gpPt7' id='gpPt8' fill='currentColor' stroke='none'/>
	<use xlink:href='#gpPt7' id='gpPt9' stroke='currentColor' transform='rotate(180)'/>
	<use xlink:href='#gpPt9' id='gpPt10' fill='currentColor' stroke='none'/>
	<use xlink:href='#gpPt3' id='gpPt11' stroke='currentColor' transform='rotate(45)'/>
	<use xlink:href='#gpPt11' id='gpPt12' fill='currentColor' stroke='none'/>
	<path id='gpPt13' stroke-width='0.222' stroke='currentColor' d='M0,1.330 L1.265,0.411 L0.782,-1.067 L-0.782,-1.076 L-1.265,0.411 z'/>
	<use xlink:href='#gpPt13' id='gpPt14' fill='currentColor' stroke='none'/>
	<filter id='textbox' filterUnits='objectBoundingBox' x='0' y='0' height='1' width='1'>
	  <feFlood flood-color='white' flood-opacity='1' result='bgnd'/>
	  <feComposite in='SourceGraphic' in2='bgnd' operator='atop'/>
	</filter>
	<filter id='greybox' filterUnits='objectBoundingBox' x='0' y='0' height='1' width='1'>
	  <feFlood flood-color='lightgrey' flood-opacity='1' result='grey'/>
	  <feComposite in='SourceGraphic' in2='grey' operator='atop'/>
	</filter>
</defs>
<g fill="none" color="white" stroke="currentColor" stroke-width="1.00" stroke-linecap="butt" stroke-linejoin="miter">
</g>
<g fill="none" color="black" stroke="currentColor" stroke-width="1.00" stroke-linecap="butt" stroke-linejoin="miter">
</g>
<g fill="none" color="black" stroke="black" stroke-width="0.50" stroke-linecap="butt" stroke-linejoin="miter">
</g>
<g fill="none" color="gray" stroke="currentColor" stroke-width="0.50" stroke-linecap="butt" stroke-linejoin="miter">
	<path stroke='gray' stroke-dasharray='2,4' class="gridline"  d='M46.14,444.00 L574.82,444.00  '/></g>
<g fill="none" color="gray" stroke="gray" stroke-width="1.00" stroke-linecap="butt" stroke-linejoin="miter">
</g>
<g fill="none" color="black" stroke="currentColor" stroke-width="1.00" stroke-linecap="butt" stroke-linejoin="miter">
	<path stroke='black'  d='M46.14,444.00 L55.14,444.00 M574.82,444.00 L565.82,444.00  '/>	<g transform="translate(37.75,447.90)" stroke="none" fill="black" font-family="Arial" font-size="12.00"  text-anchor="end">
		<text><tspan font-family="Arial" >-5</tspan></text>
	</g>
</g>
<g fill="none" color="black" stroke="currentColor" stroke-width="1.00" stroke-linecap="butt" stroke-linejoin="miter">
</g>
<g fill="none" color="black" stroke="black" stroke-width="0.50" stroke-linecap="butt" stroke-linejoin="miter">
</g>
<g fill="none" color="gray" stroke="currentColor" stroke-width="0.50" stroke-linecap="butt" stroke-linejoin="miter">
	<path stroke='gray' stroke-dasharray='2,4' class="gridline"  d='M46.14,390.75 L574.82,390.75  '/></g>
<g fill="none" color="gray" stroke="gray" stroke-width="1.00" stroke-linecap="butt" stroke-linejoin="miter">
</g>
<g fill="none" color="black" stroke="currentColor" stroke-width="1.00" stroke-linecap="butt" stroke-linejoin="miter">
	<path stroke='black'  d='M46.14,390.75 L55.14,390.75 M574.82,390.75 L565.82,390.75  '/>	<g transform="translate(37.75,394.65)" stroke="none" fill="black" font-family="Arial" font-size="12.00"  text-anchor="end">
		<text><tspan font-family="Arial" > 0</tspan></text>
	</g>
</g>
<g fill="none" color="black" stroke="currentColor" stroke-width="1.00" stroke-linecap="butt" stroke-linejoin="miter">
</g>
<g fill="none" color="black" stroke="black" stroke-width="0.50" stroke-linecap="butt" stroke-linejoin="miter">
</g>
<g fill="none" color="gray" stroke="currentColor" stroke-width="0.50" stroke-linecap="butt" stroke-linejoin="miter">
	<path stroke='gray' stroke-dasharray='2,4' class="gridline"  d='M46.14,337.50 L574.82,337.50  '/></g>
<g fill="none" color="gray" stroke="gray" stroke-width="1.00" stroke-linecap="butt" stroke-linejoin="miter">
</g>
<g fill="none" color="black" stroke="currentColor" stroke-width="1.00" stroke-linecap="butt" stroke-linejoin="miter">
	<path stroke='black'  d='M46.14,337.50 L55.14,337.50 M574.82,337.50 L565.82,337.50  '/>	<g transform="translate(37.75,341.40)" stroke="none" fill="black" font-family="Arial" font-size="12.00"  text-anchor="end">
		<text><tspan font-family="Arial" > 5</tspan></text>
	</g>
</g>
<g fill="none" color="black" stroke="currentColor" stroke-width="1.00" stroke-linecap="butt" stroke-linejoin="miter">
</g>
<g fill="none" color="black" stroke="black" stroke-width="0.50" stroke-linecap="butt" stroke-linejoin="miter">
</g>
<g fill="none" color="gray" stroke="currentColor" stroke-width="0.50" stroke-linecap="butt" stroke-linejoin="miter">
	<path stroke='gray' stroke-dasharray='2,4' class="gridline"  d='M46.14,284.25 L574.82,284.25  '/></g>
<g fill="none" color="gray" stroke="gray" stroke-width="1.00" stroke-linecap="butt" stroke-linejoin="miter">
</g>
<g fill="none" color="black" stroke="currentColor" stroke-width="1.00" stroke-linecap="butt" stroke-linejoin="miter">
	<path stroke='black'  d='M46.14,284.25 L55.14,284.25 M574.82,284.25 L565.82,284.25  '/>	<g transform="translate(37.75,288.15)" stroke="none" fill="black" font-family="Arial" font-size="12.00"  text-anchor="end">
		<text><tspan font-family="Arial" > 10</tspan></text>
	</g>
</g>
<g fill="none" color="black" stroke="currentColor" stroke-width="1.00" stroke-linecap="butt" stroke-linejoin="miter">
</g>
<g fill="none" color="black" stroke="black" stroke-width="0.50" stroke-linecap="butt" stroke-linejoin="miter">
</g>
<g fill="none" color="gray" stroke="currentColor" stroke-width="0.50" stroke-linecap="butt" stroke-linejoin="miter">
	<path stroke='gray' stroke-dasharray='2,4' class="gridline"  d='M46.14,231.00 L574.82,231.00  '/></g>
<g fill="none" color="gray" stroke="gray" stroke-width="1.00" stroke-linecap="butt" stroke-linejoin="miter">
</g>
<g fill="none" color="black" stroke="currentColor" stroke-width="1.00" stroke-linecap="butt" stroke-linejoin="miter">
	<path stroke='black'  d='M46.14,231.00 L55.14,231.00 M574.82,231.00 L565.82,231.00  '/>	<g transform="translate(37.75,234.90)" stroke="none" fill="black" font-family="Arial" font-size="12.00"  text-anchor="end">
		<text><tspan font-family="Arial" > 15</tspan></text>
	</g>
</g>
<g fill="none" color="black" stroke="currentColor" stroke-width="1.00" stroke-linecap="butt" stroke-linejoin="miter">
</g>
<g fill="none" color="black" stroke="black" stroke-width="0.50" stroke-linecap="butt" stroke-linejoin="miter">
</g>
<g fill="none" color="gray" stroke="currentColor" stroke-width="0.50" stroke-linecap="butt" stroke-linejoin="miter">
	<path stroke='gray' stroke-dasharray='2,4' class="gridline"  d='M46.14,177.76 L574.82,177.76  '/></g>
<g fill="none" color="gray" stroke="gray" stroke-width="1.00" stroke-linecap="butt" stroke-linejoin="miter">
</g>
<g fill="none" color="black" stroke="currentColor" stroke-width="1.00" stroke-linecap="butt" stroke-linejoin="miter">
	<path stroke='black'  d='M46.14,177.76 L55.14,177.76 M574.82,177.76 L565.82,177.76  '/>	<g transform="translate(37.75,181.66)" stroke="none" fill="black" font-family="Arial" font-size="12.00"  text-anchor="end">
		<text><tspan font-family="Arial" > 20</tspan></text>
	</g>
</g>
<g fill="none" color="black" stroke="currentColor" stroke-width="1.00" stroke-linecap="butt" stroke-linejoin="miter">
</g>
<g fill="none" color="black" stroke="black" stroke-width="0.50" stroke-linecap="butt" stroke-linejoin="miter">
</g>
<g fill="none" color="gray" stroke="currentColor" stroke-width="0.50" stroke-linecap="butt" stroke-linejoin="miter">
	<path stroke='gray' stroke-dasharray='2,4' class="gridline"  d='M46.14,124.51 L574.82,124.51  '/></g>
<g fill="none" color="gray" stroke="gray" stroke-width="1.00" stroke-linecap="butt" stroke-linejoin="miter">
</g>
<g fill="none" color="black" stroke="currentColor" stroke-width="1.00" stroke-linecap="butt" stroke-linejoin="miter">
	<path stroke='black'  d='M46.14,124.51 L55.14,124.51 M574.82,124.51 L565.82,124.51  '/>	<g transform="translate(37.75,128.41)" stroke="none" fill="black" font-family="Arial" font-size="12.00"  text-anchor="end">
		<text><tspan font-family="Arial" > 25</tspan></text>
	</g>
</g>
<g fill="none" color="black" stroke="currentColor" stroke-width="1.00" stroke-linecap="butt" stroke-linejoin="miter">
</g>
<g fill="none" color="black" stroke="black" stroke-width="0.50" stroke-linecap="butt" stroke-linejoin="miter">
</g>
<g fill="none" color="gray" stroke="currentColor" stroke-width="0.50" stroke-linecap="butt" stroke-linejoin="miter">
	<path stroke='gray' stroke-dasharray='2,4' class="gridline"  d='M46.14,71.26 L574.82,71.26  '/></g>
<g fill="none" color="gray" stroke="gray" stroke-width="1.00" stroke-linecap="butt" stroke-linejoin="miter">
</g>
<g fill="none" color="black" stroke="currentColor" stroke-width="1.00" stroke-linecap="butt" stroke-linejoin="miter">
	<path stroke='black'  d='M46.14,71.26 L55.14,71.26 M574.82,71.26 L565.82,71.26  '/>	<g transform="translate(37.75,75.16)" stroke="none" fill="black" font-family="Arial" font-size="12.00"  text-anchor="end">
		<text><tspan font-family="Arial" > 30</tspan></text>
	</g>
</g>
<g fill="none" color="black" stroke="currentColor" stroke-width="1.00" stroke-linecap="butt" stroke-linejoin="miter">
</g>
<g fill="none" color="black" stroke="black" stroke-width="0.50" stroke-linecap="butt" stroke-linejoin="miter">
</g>
<g fill="none" color="gray" stroke="currentColor" stroke-width="0.50" stroke-linecap="butt" stroke-linejoin="miter">
	<path stroke='gray' stroke-dasharray='2,4' class="gridline"  d='M46.14,18.01 L574.82,18.01  '/></g>
<g fill="none" color="gray" stroke="gray" stroke-width="1.00" stroke-linecap="butt" stroke-linejoin="miter">
</g>
<g fill="none" color="black" stroke="currentColor" stroke-width="1.00" stroke-linecap="butt" stroke-linejoin="miter">
	<path stroke='black'  d='M46.14,18.01 L55.14,18.01 M574.82,18.01 L565.82,18.01  '/>	<g transform="translate(37.75,21.91)" stroke="none" fill="black" font-family="Arial" font-size="12.00"  text-anchor="end">
		<text><tspan font-family="Arial" > 35</tspan></text>
	</g>
</g>
<g fill="none" color="black" stroke="currentColor" stroke-width="1.00" stroke-linecap="butt" stroke-linejoin="miter">
</g>
<g fill="none" color="black" stroke="black" stroke-width="0.50" stroke-linecap="butt" stroke-linejoin="miter">
</g>
<g fill="none" color="gray" stroke="currentColor" stroke-width="0.50" stroke-linecap="butt" stroke-linejoin="miter">
	<path stroke='gray' stroke-dasharray='2,4' class="gridline"  d='M46.14,444.00 L46.14,18.01  '/></g>
<g fill="none" color="gray" stroke="gray" stroke-width="1.00" stroke-linecap="butt" stroke-linejoin="miter">
</g>
<g fill="none" color="black" stroke="currentColor" stroke-width="1.00" stroke-linecap="butt" stroke-linejoin="miter">
	<path stroke='black'  d='M46.14,444.00 L46.14,435.00 M46.14,18.01 L46.14,27.01  '/>	<g transform="translate(46.14,465.90)" stroke="none" fill="black" font-family="Arial" font-size="12.00"  text-anchor="middle">
		<text><tspan font-family="Arial" >-6</tspan></text>
	</g>
</g>
<g fill="none" color="black" stroke="currentColor" stroke-width="1.00" stroke-linecap="butt" stroke-linejoin="miter">
</g>
<g fill="none" color="black" stroke="black" stroke-width="0.50" stroke-linecap="butt" stroke-linejoin="miter">
</g>
<g fill="none" color="gray" stroke="currentColor" stroke-width="0.50" stroke-linecap="butt" stroke-linejoin="miter">
	<path stroke='gray' stroke-dasharray='2,4' class="gridline"  d='M134.25,444.00 L134.25,18.01  '/></g>
<g fill="none" color="gray" stroke="gray" stroke-width="1.00" stroke-linecap="butt" stroke-linejoin="miter">
</g>
<g fill="none" color="black" stroke="currentColor" stroke-width="1.00" stroke-linecap="butt" stroke-linejoin="miter">
	<path stroke='black'  d='M134.25,444.00 L134.25,435.00 M134.25,18.01 L134.25,27.01  '/>	<g transform="translate(134.25,465.90)" stroke="none" fill="black" font-family="Arial" font-size="12.00"  text-anchor="middle">
		<text><tspan font-family="Arial" >-4</tspan></text>
	</g>
</g>
<g fill="none" color="black" stroke="currentColor" stroke-width="1.00" stroke-linecap="butt" stroke-linejoin="miter">
</g>
<g fill="none" color="black" stroke="black" stroke-width="0.50" stroke-linecap="butt" stroke-linejoin="miter">
</g>
<g fill="none" color="gray" stroke="currentColor" stroke-width="0.50" stroke-linecap="butt" stroke-linejoin="miter">
	<path stroke='gray' stroke-dasharray='2,4' class="gridline"  d='M222.37,444.00 L222.37,18.01  '/></g>
<g fill="none" color="gray" stroke="gray" stroke-width="1.00" stroke-linecap="butt" stroke-linejoin="miter">
</g>
<g fill="none" color="black" stroke="currentColor" stroke-width="1.00" stroke-linecap="butt" stroke-linejoin="miter">
	<path stroke='black'  d='M222.37,444.00 L222.37,435.00 M222.37,18.01 L222.37,27.01  '/>	<g transform="translate(222.37,465.90)" stroke="none" fill="black" font-family="Arial" font-size="12.00"  text-anchor="middle">
		<text><tspan font-family="Arial" >-2</tspan></text>
	</g>
</g>
<g fill="none" color="black" stroke="currentColor" stroke-width="1.00" stroke-linecap="butt" stroke-linejoin="miter">
</g>
<g fill="none" color="black" stroke="black" stroke-width="0.50" stroke-linecap="butt" stroke-linejoin="miter">
</g>
<g fill="none" color="gray" stroke="currentColor" stroke-width="0.50" stroke-linecap="butt" stroke-linejoin="miter">
	<path stroke='gray' stroke-dasharray='2,4' class="gridline"  d='M310.48,444.00 L310.48,63.01 M310.48,27.01 L310.48,18.01  '/></g>
<g fill="none" color="gray" stroke="gray" stroke-width="1.00" stroke-linecap="butt" stroke-linejoin="miter">
</g>
<g fill="none" color="black" stroke="currentColor" stroke-width="1.00" stroke-linecap="butt" stroke-linejoin="miter">
	<path stroke='black'  d='M310.48,444.00 L310.48,435.00 M310.48,18.01 L310.48,27.01  '/>	<g transform="translate(310.48,465.90)" stroke="none" fill="black" font-family="Arial" font-size="12.00"  text-anchor="middle">
		<text><tspan font-family="Arial" > 0</tspan></text>
	</g>
</g>
<g fill="none" color="black" stroke="currentColor" stroke-width="1.00" stroke-linecap="butt" stroke-linejoin="miter">
</g>
<g fill="none" color="black" stroke="black" stroke-width="0.50" stroke-linecap="butt" stroke-linejoin="miter">
</g>
<g fill="none" color="gray" stroke="currentColor" stroke-width="0.50" stroke-linecap="butt" stroke-linejoin="miter">
	<path stroke='gray' stroke-dasharray='2,4' class="gridline"  d='M398.59,444.00 L398.59,63.01 M398.59,27.01 L398.59,18.01  '/></g>
<g fill="none" color="gray" stroke="gray" stroke-width="1.00" stroke-linecap="butt" stroke-linejoin="miter">
</g>
<g fill="none" color="black" stroke="currentColor" stroke-width="1.00" stroke-linecap="butt" stroke-linejoin="miter">
	<path stroke='black'  d='M398.59,444.00 L398.59,435.00 M398.59,18.01 L398.59,27.01  '/>	<g transform="translate(398.59,465.90)" stroke="none" fill="black" font-family="Arial" font-size="12.00"  text-anchor="middle">
		<text><tspan font-family="Arial" > 2</tspan></text>
	</g>
</g>
<g fill="none" color="black" stroke="currentColor" stroke-width="1.00" stroke-linecap="butt" stroke-linejoin="miter">
</g>
<g fill="none" color="black" stroke="black" stroke-width="0.50" stroke-linecap="butt" stroke-linejoin="miter">
</g>
<g fill="none" color="gray" stroke="currentColor" stroke-width="0.50" stroke-linecap="butt" stroke-linejoin="miter">
	<path stroke='gray' stroke-dasharray='2,4' class="gridline"  d='M486.71,444.00 L486.71,63.01 M486.71,27.01 L486.71,18.01  '/></g>
<g fill="none" color="gray" stroke="gray" stroke-width="1.00" stroke-linecap="butt" stroke-linejoin="miter">
</g>
<g fill="none" color="black" stroke="currentColor" stroke-width="1.00" stroke-linecap="butt" stroke-linejoin="miter">
	<path stroke='black'  d='M486.71,444.00 L486.71,435.00 M486.71,18.01 L486.71,27.01  '/>	<g transform="translate(486.71,465.90)" stroke="none" fill="black" font-family="Arial" font-size="12.00"  text-anchor="middle">
		<text><tspan font-family="Arial" > 4</tspan></text>
	</g>
</g>
<g fill="none" color="black" stroke="currentColor" stroke-width="1.00" stroke-linecap="butt" stroke-linejoin="miter">
</g>
<g fill="none" color="black" stroke="black" stroke-width="0.50" stroke-linecap="butt" stroke-linejoin="miter">
</g>
<g fill="none" color="gray" stroke="currentColor" stroke-width="0.50" stroke-linecap="butt" stroke-linejoin="miter">
	<path stroke='gray' stroke-dasharray='2,4' class="gridline"  d='M574.82,444.00 L574.82,18.01  '/></g>
<g fill="none" color="gray" stroke="gray" stroke-width="1.00" stroke-linecap="butt" stroke-linejoin="miter">
</g>
<g fill="none" color="black" stroke="currentColor" stroke-width="1.00" stroke-linecap="butt" stroke-linejoin="miter">
	<path stroke='black'  d='M574.82,444.00 L574.82,435.00 M574.82,18.01 L574.82,27.01  '/>	<g transform="translate(574.82,465.90)" stroke="none" fill="black" font-family="Arial" font-size="12.00"  text-anchor="middle">
		<text><tspan font-family="Arial" > 6</tspan></text>
	</g>
</g>
<g fill="none" color="black" stroke="currentColor" stroke-width="1.00" stroke-linecap="butt" stroke-linejoin="miter">
</g>
<g fill="none" color="black" stroke="currentColor" stroke-width="1.00" stroke-linecap="butt" stroke-linejoin="miter">
	<path stroke='black'  d='M46.14,18.01 L46.14,444.00 L574.82,444.00 L574.82,18.01 L46.14,18.01 Z  '/></g>
<g fill="none" color="black" stroke="currentColor" stroke-width="1.00" stroke-linecap="butt" stroke-linejoin="miter">
</g>
	<g id="gnuplot_plot_1" ><title>"euler-method.dat" using 1:2</title>
<g fill="none" color="black" stroke="currentColor" stroke-width="1.00" stroke-linecap="butt" stroke-linejoin="miter">
	<g transform="translate(507.09,39.91)" stroke="none" fill="black" font-family="Arial" font-size="12.00"  text-anchor="end">
		<text>"euler-method.dat" using 1:2</text>
	</g>
</g>
<g fill="none" color="black" stroke="currentColor" stroke-width="1.00" stroke-linecap="butt" stroke-linejoin="miter">
	<path stroke='rgb(148,   0, 211)'  d='M515.48,36.01 L558.04,36.01 M90.20,18.01 L90.64,19.29 L91.08,20.56 L91.52,21.84 L91.96,23.11 L92.40,24.38
		L92.84,25.65 L93.28,26.91 L93.72,28.17 L94.16,29.44 L94.60,30.69 L95.04,31.95 L95.48,33.21 L95.92,34.46
		L96.36,35.71 L96.81,36.96 L97.25,38.20 L97.69,39.45 L98.13,40.69 L98.57,41.93 L99.01,43.16 L99.45,44.40
		L99.89,45.63 L100.33,46.86 L100.77,48.09 L101.21,49.32 L101.65,50.54 L102.09,51.77 L102.53,52.99 L102.97,54.21
		L103.41,55.42 L103.85,56.64 L104.29,57.85 L104.74,59.06 L105.18,60.27 L105.62,61.47 L106.06,62.68 L106.50,63.88
		L106.94,65.08 L107.38,66.27 L107.82,67.47 L108.26,68.66 L108.70,69.85 L109.14,71.04 L109.58,72.23 L110.02,73.41
		L110.46,74.59 L110.90,75.77 L111.34,76.95 L111.78,78.13 L112.23,79.30 L112.67,80.47 L113.11,81.64 L113.55,82.81
		L113.99,83.97 L114.43,85.14 L114.87,86.30 L115.31,87.45 L115.75,88.61 L116.19,89.77 L116.63,90.92 L117.07,92.07
		L117.51,93.22 L117.95,94.36 L118.39,95.51 L118.83,96.65 L119.27,97.79 L119.71,98.92 L120.16,100.06 L120.60,101.19
		L121.04,102.32 L121.48,103.45 L121.92,104.58 L122.36,105.70 L122.80,106.83 L123.24,107.95 L123.68,109.07 L124.12,110.18
		L124.56,111.30 L125.00,112.41 L125.44,113.52 L125.88,114.62 L126.32,115.73 L126.76,116.83 L127.20,117.93 L127.64,119.03
		L128.09,120.13 L128.53,121.23 L128.97,122.32 L129.41,123.41 L129.85,124.50 L130.29,125.58 L130.73,126.67 L131.17,127.75
		L131.61,128.83 L132.05,129.91 L132.49,130.98 L132.93,132.06 L133.37,133.13 L133.81,134.20 L134.25,135.26 L134.69,136.33
		L135.13,137.39 L135.58,138.45 L136.02,139.51 L136.46,140.57 L136.90,141.62 L137.34,142.67 L137.78,143.72 L138.22,144.77
		L138.66,145.82 L139.10,146.86 L139.54,147.90 L139.98,148.94 L140.42,149.98 L140.86,151.01 L141.30,152.05 L141.74,153.08
		L142.18,154.11 L142.62,155.13 L143.06,156.16 L143.51,157.18 L143.95,158.20 L144.39,159.22 L144.83,160.24 L145.27,161.25
		L145.71,162.26 L146.15,163.27 L146.59,164.28 L147.03,165.28 L147.47,166.29 L147.91,167.29 L148.35,168.29 L148.79,169.28
		L149.23,170.28 L149.67,171.27 L150.11,172.26 L150.55,173.25 L150.99,174.24 L151.44,175.22 L151.88,176.20 L152.32,177.18
		L152.76,178.16 L153.20,179.13 L153.64,180.11 L154.08,181.08 L154.52,182.05 L154.96,183.02 L155.40,183.98 L155.84,184.94
		L156.28,185.90 L156.72,186.86 L157.16,187.82 L157.60,188.77 L158.04,189.72 L158.48,190.67 L158.93,191.62 L159.37,192.57
		L159.81,193.51 L160.25,194.45 L160.69,195.39 L161.13,196.33 L161.57,197.26 L162.01,198.20 L162.45,199.13 L162.89,200.06
		L163.33,200.98 L163.77,201.91 L164.21,202.83 L164.65,203.75 L165.09,204.67 L165.53,205.58 L165.97,206.50 L166.41,207.41
		L166.86,208.32 L167.30,209.23 L167.74,210.13 L168.18,211.03 L168.62,211.94 L169.06,212.83 L169.50,213.73 L169.94,214.63
		L170.38,215.52 L170.82,216.41 L171.26,217.30 L171.70,218.18 L172.14,219.07 L172.58,219.95 L173.02,220.83 L173.46,221.71
		L173.90,222.58 L174.34,223.45 L174.79,224.33 L175.23,225.19 L175.67,226.06 L176.11,226.93 L176.55,227.79 L176.99,228.65
		L177.43,229.51 L177.87,230.36 L178.31,231.22 L178.75,232.07 L179.19,232.92 L179.63,233.77 L180.07,234.61 L180.51,235.46
		L180.95,236.30 L181.39,237.14 L181.83,237.97 L182.28,238.81 L182.72,239.64 L183.16,240.47 L183.60,241.30 L184.04,242.13
		L184.48,242.95 L184.92,243.77 L185.36,244.59 L185.80,245.41 L186.24,246.23 L186.68,247.04 L187.12,247.85 L187.56,248.66
		L188.00,249.47 L188.44,250.27 L188.88,251.08 L189.32,251.88 L189.76,252.68 L190.21,253.47 L190.65,254.27 L191.09,255.06
		L191.53,255.85 L191.97,256.64 L192.41,257.42 L192.85,258.21 L193.29,258.99 L193.73,259.77 L194.17,260.55 L194.61,261.32
		L195.05,262.10 L195.49,262.87 L195.93,263.64 L196.37,264.40 L196.81,265.17 L197.25,265.93 L197.69,266.69 L198.14,267.45
		L198.58,268.20 L199.02,268.96 L199.46,269.71 L199.90,270.46 L200.34,271.21 L200.78,271.95 L201.22,272.70 L201.66,273.44
		L202.10,274.18 L202.54,274.91 L202.98,275.65 L203.42,276.38 L203.86,277.11 L204.30,277.84 L204.74,278.57 L205.18,279.29
		L205.63,280.01 L206.07,280.73 L206.51,281.45 L206.95,282.17 L207.39,282.88 L207.83,283.59 L208.27,284.30 L208.71,285.01
		L209.15,285.71 L209.59,286.42 L210.03,287.12 L210.47,287.82 L210.91,288.51 L211.35,289.21 L211.79,289.90 L212.23,290.59
		L212.67,291.28 L213.11,291.96 L213.56,292.65 L214.00,293.33 L214.44,294.01 L214.88,294.68 L215.32,295.36 L215.76,296.03
		L216.20,296.70 L216.64,297.37 L217.08,298.04 L217.52,298.70 L217.96,299.37 L218.40,300.03 L218.84,300.68 L219.28,301.34
		L219.72,301.99 L220.16,302.65 L220.60,303.30 L221.04,303.94 L221.49,304.59 L221.93,305.23 L222.37,305.87 L222.81,306.51
		L223.25,307.15 L223.69,307.78 L224.13,308.42 L224.57,309.05 L225.01,309.67 L225.45,310.30 L225.89,310.92 L226.33,311.55
		L226.77,312.17 L227.21,312.78 L227.65,313.40 L228.09,314.01 L228.53,314.62 L228.98,315.23 L229.42,315.84 L229.86,316.45
		L230.30,317.05 L230.74,317.65 L231.18,318.25 L231.62,318.84 L232.06,319.44 L232.50,320.03 L232.94,320.62 L233.38,321.21
		L233.82,321.79 L234.26,322.38 L234.70,322.96 L235.14,323.54 L235.58,324.12 L236.02,324.69 L236.46,325.26 L236.91,325.83
		L237.35,326.40 L237.79,326.97 L238.23,327.53 L238.67,328.10 L239.11,328.66 L239.55,329.21 L239.99,329.77 L240.43,330.32
		L240.87,330.88 L241.31,331.43 L241.75,331.97 L242.19,332.52 L242.63,333.06 L243.07,333.60 L243.51,334.14 L243.95,334.68
		L244.40,335.21 L244.84,335.75 L245.28,336.28 L245.72,336.80 L246.16,337.33 L246.60,337.85 L247.04,338.38 L247.48,338.90
		L247.92,339.41 L248.36,339.93 L248.80,340.44 L249.24,340.95 L249.68,341.46 L250.12,341.97 L250.56,342.47 L251.00,342.98
		L251.44,343.48 L251.88,343.98 L252.33,344.47 L252.77,344.97 L253.21,345.46 L253.65,345.95 L254.09,346.44 L254.53,346.92
		L254.97,347.40 L255.41,347.89 L255.85,348.37 L256.29,348.84 L256.73,349.32 L257.17,349.79 L257.61,350.26 L258.05,350.73
		L258.49,351.20 L258.93,351.66 L259.37,352.12 L259.81,352.58 L260.26,353.04 L260.70,353.50 L261.14,353.95 L261.58,354.40
		L262.02,354.85 L262.46,355.30 L262.90,355.74 L263.34,356.19 L263.78,356.63 L264.22,357.07 L264.66,357.50 L265.10,357.94
		L265.54,358.37 L265.98,358.80 L266.42,359.23 L266.86,359.65 L267.30,360.08 L267.75,360.50 L268.19,360.92 L268.63,361.34
		L269.07,361.75 L269.51,362.17 L269.95,362.58 L270.39,362.99 L270.83,363.39 L271.27,363.80 L271.71,364.20 L272.15,364.60
		L272.59,365.00 L273.03,365.39 L273.47,365.79 L273.91,366.18 L274.35,366.57 L274.79,366.96 L275.23,367.34 L275.68,367.73
		L276.12,368.11 L276.56,368.49 L277.00,368.86 L277.44,369.24 L277.88,369.61 L278.32,369.98 L278.76,370.35 L279.20,370.72
		L279.64,371.08 L280.08,371.44 L280.52,371.80 L280.96,372.16 L281.40,372.52 L281.84,372.87 L282.28,373.22 L282.72,373.57
		L283.16,373.92 L283.61,374.26 L284.05,374.61 L284.49,374.95 L284.93,375.29 L285.37,375.62 L285.81,375.96 L286.25,376.29
		L286.69,376.62 L287.13,376.95 L287.57,377.27 L288.01,377.60 L288.45,377.92 L288.89,378.24 L289.33,378.56 L289.77,378.87
		L290.21,379.18 L290.65,379.49 L291.10,379.80 L291.54,380.11 L291.98,380.41 L292.42,380.72 L292.86,381.02 L293.30,381.32
		L293.74,381.61 L294.18,381.91 L294.62,382.20 L295.06,382.49 L295.50,382.77 L295.94,383.06 L296.38,383.34 L296.82,383.62
		L297.26,383.90 L297.70,384.18 L298.14,384.46 L298.58,384.73 L299.03,385.00 L299.47,385.27 L299.91,385.53 L300.35,385.80
		L300.79,386.06 L301.23,386.32 L301.67,386.58 L302.11,386.83 L302.55,387.09 L302.99,387.34 L303.43,387.59 L303.87,387.83
		L304.31,388.08 L304.75,388.32 L305.19,388.56 L305.63,388.80 L306.07,389.04 L306.51,389.27 L306.96,389.50 L307.40,389.73
		L307.84,389.96 L308.28,390.19 L308.72,390.41 L309.16,390.63 L309.60,390.85 L310.04,391.07 L310.48,391.28 L310.92,391.50
		L311.36,391.71 L311.80,391.92 L312.24,392.12 L312.68,392.33 L313.12,392.53 L313.56,392.73 L314.00,392.93 L314.45,393.12
		L314.89,393.32 L315.33,393.51 L315.77,393.70 L316.21,393.89 L316.65,394.07 L317.09,394.26 L317.53,394.44 L317.97,394.61
		L318.41,394.79 L318.85,394.97 L319.29,395.14 L319.73,395.31 L320.17,395.48 L320.61,395.64 L321.05,395.81 L321.49,395.97
		L321.93,396.13 L322.38,396.29 L322.82,396.44 L323.26,396.60 L323.70,396.75 L324.14,396.90 L324.58,397.04 L325.02,397.19
		L325.46,397.33 L325.90,397.47 L326.34,397.61 L326.78,397.75 L327.22,397.88 L327.66,398.01 L328.10,398.14 L328.54,398.27
		L328.98,398.40 L329.42,398.52 L329.86,398.64 L330.31,398.76 L330.75,398.88 L331.19,398.99 L331.63,399.10 L332.07,399.22
		L332.51,399.32 L332.95,399.43 L333.39,399.54 L333.83,399.64 L334.27,399.74 L334.71,399.84 L335.15,399.93 L335.59,400.03
		L336.03,400.12 L336.47,400.21 L336.91,400.29 L337.35,400.38 L337.80,400.46 L338.24,400.54 L338.68,400.62 L339.12,400.70
		L339.56,400.77 L340.00,400.85 L340.44,400.92 L340.88,400.98 L341.32,401.05 L341.76,401.11 L342.20,401.18 L342.64,401.23
		L343.08,401.29 L343.52,401.35 L343.96,401.40 L344.40,401.45 L344.84,401.50 L345.28,401.55 L345.73,401.59 L346.17,401.64
		L346.61,401.68 L347.05,401.71 L347.49,401.75 L347.93,401.78 L348.37,401.82 L348.81,401.85 L349.25,401.87 L349.69,401.90
		L350.13,401.92 L350.57,401.94 L351.01,401.96 L351.45,401.98 L351.89,402.00 L352.33,402.01 L352.77,402.02 L353.21,402.03
		L353.66,402.03 L354.10,402.04 L354.54,402.04 L354.98,402.04 L355.42,402.04 L355.86,402.03 L356.30,402.03 L356.74,402.02
		L357.18,402.01 L357.62,402.00 L358.06,401.98 L358.50,401.96 L358.94,401.94 L359.38,401.92 L359.82,401.90 L360.26,401.87
		L360.70,401.85 L361.15,401.82 L361.59,401.78 L362.03,401.75 L362.47,401.71 L362.91,401.68 L363.35,401.64 L363.79,401.59
		L364.23,401.55 L364.67,401.50 L365.11,401.45 L365.55,401.40 L365.99,401.35 L366.43,401.29 L366.87,401.23 L367.31,401.18
		L367.75,401.11 L368.19,401.05 L368.63,400.98 L369.08,400.92 L369.52,400.85 L369.96,400.77 L370.40,400.70 L370.84,400.62
		L371.28,400.54 L371.72,400.46 L372.16,400.38 L372.60,400.29 L373.04,400.21 L373.48,400.12 L373.92,400.03 L374.36,399.93
		L374.80,399.84 L375.24,399.74 L375.68,399.64 L376.12,399.54 L376.57,399.43 L377.01,399.32 L377.45,399.22 L377.89,399.10
		L378.33,398.99 L378.77,398.88 L379.21,398.76 L379.65,398.64 L380.09,398.52 L380.53,398.40 L380.97,398.27 L381.41,398.14
		L381.85,398.01 L382.29,397.88 L382.73,397.75 L383.17,397.61 L383.61,397.47 L384.05,397.33 L384.50,397.19 L384.94,397.04
		L385.38,396.90 L385.82,396.75 L386.26,396.60 L386.70,396.44 L387.14,396.29 L387.58,396.13 L388.02,395.97 L388.46,395.81
		L388.90,395.64 L389.34,395.48 L389.78,395.31 L390.22,395.14 L390.66,394.97 L391.10,394.79 L391.54,394.61 L391.98,394.44
		L392.43,394.26 L392.87,394.07 L393.31,393.89 L393.75,393.70 L394.19,393.51 L394.63,393.32 L395.07,393.12 L395.51,392.93
		L395.95,392.73 L396.39,392.53 L396.83,392.33 L397.27,392.12 L397.71,391.92 L398.15,391.71 L398.59,391.50 L399.03,391.28
		L399.47,391.07 L399.92,390.85 L400.36,390.63 L400.80,390.41 L401.24,390.19 L401.68,389.96 L402.12,389.73 L402.56,389.50
		L403.00,389.27 L403.44,389.04 L403.88,388.80 L404.32,388.56 L404.76,388.32 L405.20,388.08 L405.64,387.83 L406.08,387.59
		L406.52,387.34 L406.96,387.09 L407.40,386.83 L407.85,386.58 L408.29,386.32 L408.73,386.06 L409.17,385.80 L409.61,385.53
		L410.05,385.27 L410.49,385.00 L410.93,384.73 L411.37,384.46 L411.81,384.18 L412.25,383.90 L412.69,383.62 L413.13,383.34
		L413.57,383.06 L414.01,382.77 L414.45,382.49 L414.89,382.20 L415.33,381.91 L415.78,381.61 L416.22,381.32 L416.66,381.02
		L417.10,380.72 L417.54,380.41 L417.98,380.11 L418.42,379.80 L418.86,379.49 L419.30,379.18 L419.74,378.87 L420.18,378.56
		L420.62,378.24 L421.06,377.92 L421.50,377.60 L421.94,377.27 L422.38,376.95 L422.82,376.62 L423.27,376.29 L423.71,375.96
		L424.15,375.62 L424.59,375.29 L425.03,374.95 L425.47,374.61 L425.91,374.26 L426.35,373.92 L426.79,373.57 L427.23,373.22
		L427.67,372.87 L428.11,372.52 L428.55,372.16 L428.99,371.80 L429.43,371.44 L429.87,371.08 L430.31,370.72 L430.75,370.35
		L431.20,369.98 L431.64,369.61 L432.08,369.24 L432.52,368.86 L432.96,368.49 L433.40,368.11 L433.84,367.73 L434.28,367.34
		L434.72,366.96 L435.16,366.57 L435.60,366.18 L436.04,365.79 L436.48,365.39 L436.92,365.00 L437.36,364.60 L437.80,364.20
		L438.24,363.80 L438.68,363.39 L439.13,362.99 L439.57,362.58 L440.01,362.17 L440.45,361.75 L440.89,361.34 L441.33,360.92
		L441.77,360.50 L442.21,360.08 L442.65,359.65 L443.09,359.23 L443.53,358.80 L443.97,358.37 L444.41,357.94 L444.85,357.50
		L445.29,357.07 L445.73,356.63 L446.17,356.19 L446.62,355.74 L447.06,355.30 L447.50,354.85 L447.94,354.40 L448.38,353.95
		L448.82,353.50 L449.26,353.04 L449.70,352.58 L450.14,352.12 L450.58,351.66 L451.02,351.20 L451.46,350.73 L451.90,350.26
		L452.34,349.79 L452.78,349.32 L453.22,348.84 L453.66,348.37 L454.10,347.89 L454.55,347.40 L454.99,346.92 L455.43,346.44
		L455.87,345.95 L456.31,345.46 L456.75,344.97 L457.19,344.47 L457.63,343.98 L458.07,343.48 L458.51,342.98 L458.95,342.47
		L459.39,341.97 L459.83,341.46 L460.27,340.95 L460.71,340.44 L461.15,339.93 L461.59,339.41 L462.03,338.90 L462.48,338.38
		L462.92,337.85 L463.36,337.33 L463.80,336.80 L464.24,336.28 L464.68,335.75 L465.12,335.21 L465.56,334.68 L466.00,334.14
		L466.44,333.60 L466.88,333.06 L467.32,332.52 L467.76,331.97 L468.20,331.43 L468.64,330.88 L469.08,330.32 L469.52,329.77
		L469.97,329.21 L470.41,328.66 L470.85,328.10 L471.29,327.53 L471.73,326.97 L472.17,326.40 L472.61,325.83 L473.05,325.26
		L473.49,324.69 L473.93,324.12 L474.37,323.54 L474.81,322.96 L475.25,322.38 L475.69,321.79 L476.13,321.21 L476.57,320.62
		L477.01,320.03 L477.45,319.44 L477.90,318.84 L478.34,318.25 L478.78,317.65 L479.22,317.05 L479.66,316.45 L480.10,315.84
		L480.54,315.23 L480.98,314.62 L481.42,314.01 L481.86,313.40 L482.30,312.78 L482.74,312.17 L483.18,311.55 L483.62,310.92
		L484.06,310.30 L484.50,309.67 L484.94,309.05 L485.38,308.42 L485.83,307.78 L486.27,307.15 L486.71,306.51 L487.15,305.87
		L487.59,305.23 L488.03,304.59 L488.47,303.94 L488.91,303.30 L489.35,302.65 L489.79,301.99 L490.23,301.34 L490.67,300.68
		L491.11,300.03 L491.55,299.37 L491.99,298.70 L492.43,298.04 L492.87,297.37 L493.32,296.70 L493.76,296.03 L494.20,295.36
		L494.64,294.68 L495.08,294.01 L495.52,293.33 L495.96,292.65 L496.40,291.96 L496.84,291.28 L497.28,290.59 L497.72,289.90
		L498.16,289.21 L498.60,288.51 L499.04,287.82 L499.48,287.12 L499.92,286.42 L500.36,285.71 L500.80,285.01 L501.25,284.30
		L501.69,283.59 L502.13,282.88 L502.57,282.17 L503.01,281.45 L503.45,280.73 L503.89,280.01 L504.33,279.29 L504.77,278.57
		L505.21,277.84 L505.65,277.11 L506.09,276.38 L506.53,275.65 L506.97,274.91 L507.41,274.18 L507.85,273.44 L508.29,272.70
		L508.74,271.95 L509.18,271.21 L509.62,270.46 L510.06,269.71 L510.50,268.96 L510.94,268.20 L511.38,267.45 L511.82,266.69
		L512.26,265.93 L512.70,265.17 L513.14,264.40 L513.58,263.64 L514.02,262.87 L514.46,262.10 L514.90,261.32 L515.34,260.55
		L515.78,259.77 L516.22,258.99 L516.67,258.21 L517.11,257.42 L517.55,256.64 L517.99,255.85 L518.43,255.06 L518.87,254.27
		L519.31,253.47 L519.75,252.68 L520.19,251.88 L520.63,251.08 L521.07,250.27 L521.51,249.47 L521.95,248.66 L522.39,247.85
		L522.83,247.04 L523.27,246.23 L523.71,245.41 L524.15,244.59 L524.60,243.77 L525.04,242.95 L525.48,242.13 L525.92,241.30
		L526.36,240.47 L526.80,239.64 L527.24,238.81 L527.68,237.97 L528.12,237.14 L528.56,236.30 L529.00,235.46 L529.44,234.61
		L529.88,233.77 L530.32,232.92 L530.76,232.07  '/></g>
	</g>
	<g id="gnuplot_plot_2" ><title>"euler-method.dat" using 1:3</title>
<g fill="none" color="black" stroke="currentColor" stroke-width="1.00" stroke-linecap="butt" stroke-linejoin="miter">
	<g transform="translate(507.09,57.91)" stroke="none" fill="black" font-family="Arial" font-size="12.00"  text-anchor="end">
		<text>"euler-method.dat" using 1:3</text>
	</g>
</g>
<g fill="none" color="black" stroke="currentColor" stroke-width="1.00" stroke-linecap="butt" stroke-linejoin="miter">
	<path stroke='rgb(  0, 158, 115)'  d='M515.48,54.01 L558.04,54.01 M90.20,18.01 L90.64,19.29 L91.08,20.56 L91.52,21.83 L91.96,23.10 L92.40,24.37
		L92.84,25.64 L93.28,26.90 L93.72,28.17 L94.16,29.43 L94.60,30.68 L95.04,31.94 L95.48,33.19 L95.92,34.44
		L96.36,35.69 L96.81,36.94 L97.25,38.18 L97.69,39.43 L98.13,40.67 L98.57,41.91 L99.01,43.14 L99.45,44.38
		L99.89,45.61 L100.33,46.84 L100.77,48.07 L101.21,49.29 L101.65,50.52 L102.09,51.74 L102.53,52.96 L102.97,54.18
		L103.41,55.39 L103.85,56.60 L104.29,57.81 L104.74,59.02 L105.18,60.23 L105.62,61.43 L106.06,62.64 L106.50,63.84
		L106.94,65.04 L107.38,66.23 L107.82,67.42 L108.26,68.62 L108.70,69.81 L109.14,70.99 L109.58,72.18 L110.02,73.36
		L110.46,74.54 L110.90,75.72 L111.34,76.90 L111.78,78.07 L112.23,79.25 L112.67,80.42 L113.11,81.58 L113.55,82.75
		L113.99,83.91 L114.43,85.08 L114.87,86.24 L115.31,87.39 L115.75,88.55 L116.19,89.70 L116.63,90.85 L117.07,92.00
		L117.51,93.15 L117.95,94.30 L118.39,95.44 L118.83,96.58 L119.27,97.72 L119.71,98.85 L120.16,99.99 L120.60,101.12
		L121.04,102.25 L121.48,103.38 L121.92,104.50 L122.36,105.63 L122.80,106.75 L123.24,107.87 L123.68,108.98 L124.12,110.10
		L124.56,111.21 L125.00,112.32 L125.44,113.43 L125.88,114.54 L126.32,115.64 L126.76,116.74 L127.20,117.85 L127.64,118.94
		L128.09,120.04 L128.53,121.13 L128.97,122.22 L129.41,123.31 L129.85,124.40 L130.29,125.49 L130.73,126.57 L131.17,127.65
		L131.61,128.73 L132.05,129.81 L132.49,130.88 L132.93,131.95 L133.37,133.02 L133.81,134.09 L134.25,135.16 L134.69,136.22
		L135.13,137.28 L135.58,138.34 L136.02,139.40 L136.46,140.46 L136.90,141.51 L137.34,142.56 L137.78,143.61 L138.22,144.66
		L138.66,145.70 L139.10,146.74 L139.54,147.78 L139.98,148.82 L140.42,149.86 L140.86,150.89 L141.30,151.92 L141.74,152.95
		L142.18,153.98 L142.62,155.01 L143.06,156.03 L143.51,157.05 L143.95,158.07 L144.39,159.09 L144.83,160.10 L145.27,161.12
		L145.71,162.13 L146.15,163.14 L146.59,164.14 L147.03,165.15 L147.47,166.15 L147.91,167.15 L148.35,168.15 L148.79,169.14
		L149.23,170.14 L149.67,171.13 L150.11,172.12 L150.55,173.10 L150.99,174.09 L151.44,175.07 L151.88,176.05 L152.32,177.03
		L152.76,178.01 L153.20,178.98 L153.64,179.95 L154.08,180.92 L154.52,181.89 L154.96,182.86 L155.40,183.82 L155.84,184.78
		L156.28,185.74 L156.72,186.70 L157.16,187.66 L157.60,188.61 L158.04,189.56 L158.48,190.51 L158.93,191.46 L159.37,192.40
		L159.81,193.34 L160.25,194.28 L160.69,195.22 L161.13,196.16 L161.57,197.09 L162.01,198.02 L162.45,198.95 L162.89,199.88
		L163.33,200.81 L163.77,201.73 L164.21,202.65 L164.65,203.57 L165.09,204.49 L165.53,205.40 L165.97,206.31 L166.41,207.23
		L166.86,208.13 L167.30,209.04 L167.74,209.94 L168.18,210.85 L168.62,211.75 L169.06,212.64 L169.50,213.54 L169.94,214.43
		L170.38,215.32 L170.82,216.21 L171.26,217.10 L171.70,217.99 L172.14,218.87 L172.58,219.75 L173.02,220.63 L173.46,221.50
		L173.90,222.38 L174.34,223.25 L174.79,224.12 L175.23,224.99 L175.67,225.85 L176.11,226.72 L176.55,227.58 L176.99,228.44
		L177.43,229.30 L177.87,230.15 L178.31,231.00 L178.75,231.86 L179.19,232.70 L179.63,233.55 L180.07,234.40 L180.51,235.24
		L180.95,236.08 L181.39,236.92 L181.83,237.75 L182.28,238.59 L182.72,239.42 L183.16,240.25 L183.60,241.08 L184.04,241.90
		L184.48,242.72 L184.92,243.55 L185.36,244.36 L185.80,245.18 L186.24,246.00 L186.68,246.81 L187.12,247.62 L187.56,248.43
		L188.00,249.23 L188.44,250.04 L188.88,250.84 L189.32,251.64 L189.76,252.44 L190.21,253.23 L190.65,254.03 L191.09,254.82
		L191.53,255.61 L191.97,256.39 L192.41,257.18 L192.85,257.96 L193.29,258.74 L193.73,259.52 L194.17,260.30 L194.61,261.07
		L195.05,261.84 L195.49,262.61 L195.93,263.38 L196.37,264.15 L196.81,264.91 L197.25,265.67 L197.69,266.43 L198.14,267.19
		L198.58,267.94 L199.02,268.70 L199.46,269.45 L199.90,270.20 L200.34,270.94 L200.78,271.69 L201.22,272.43 L201.66,273.17
		L202.10,273.91 L202.54,274.64 L202.98,275.38 L203.42,276.11 L203.86,276.84 L204.30,277.56 L204.74,278.29 L205.18,279.01
		L205.63,279.73 L206.07,280.45 L206.51,281.17 L206.95,281.88 L207.39,282.60 L207.83,283.31 L208.27,284.02 L208.71,284.72
		L209.15,285.43 L209.59,286.13 L210.03,286.83 L210.47,287.52 L210.91,288.22 L211.35,288.91 L211.79,289.60 L212.23,290.29
		L212.67,290.98 L213.11,291.66 L213.56,292.35 L214.00,293.03 L214.44,293.71 L214.88,294.38 L215.32,295.06 L215.76,295.73
		L216.20,296.40 L216.64,297.07 L217.08,297.73 L217.52,298.40 L217.96,299.06 L218.40,299.72 L218.84,300.37 L219.28,301.03
		L219.72,301.68 L220.16,302.33 L220.60,302.98 L221.04,303.63 L221.49,304.27 L221.93,304.91 L222.37,305.55 L222.81,306.19
		L223.25,306.83 L223.69,307.46 L224.13,308.09 L224.57,308.72 L225.01,309.35 L225.45,309.97 L225.89,310.60 L226.33,311.22
		L226.77,311.84 L227.21,312.45 L227.65,313.07 L228.09,313.68 L228.53,314.29 L228.98,314.90 L229.42,315.50 L229.86,316.11
		L230.30,316.71 L230.74,317.31 L231.18,317.91 L231.62,318.50 L232.06,319.10 L232.50,319.69 L232.94,320.28 L233.38,320.86
		L233.82,321.45 L234.26,322.03 L234.70,322.61 L235.14,323.19 L235.58,323.76 L236.02,324.34 L236.46,324.91 L236.91,325.48
		L237.35,326.05 L237.79,326.61 L238.23,327.18 L238.67,327.74 L239.11,328.30 L239.55,328.85 L239.99,329.41 L240.43,329.96
		L240.87,330.51 L241.31,331.06 L241.75,331.61 L242.19,332.15 L242.63,332.69 L243.07,333.23 L243.51,333.77 L243.95,334.31
		L244.40,334.84 L244.84,335.37 L245.28,335.90 L245.72,336.43 L246.16,336.95 L246.60,337.48 L247.04,338.00 L247.48,338.52
		L247.92,339.03 L248.36,339.55 L248.80,340.06 L249.24,340.57 L249.68,341.08 L250.12,341.58 L250.56,342.09 L251.00,342.59
		L251.44,343.09 L251.88,343.58 L252.33,344.08 L252.77,344.57 L253.21,345.06 L253.65,345.55 L254.09,346.04 L254.53,346.52
		L254.97,347.01 L255.41,347.49 L255.85,347.96 L256.29,348.44 L256.73,348.91 L257.17,349.39 L257.61,349.86 L258.05,350.32
		L258.49,350.79 L258.93,351.25 L259.37,351.71 L259.81,352.17 L260.26,352.63 L260.70,353.08 L261.14,353.54 L261.58,353.99
		L262.02,354.44 L262.46,354.88 L262.90,355.33 L263.34,355.77 L263.78,356.21 L264.22,356.65 L264.66,357.08 L265.10,357.51
		L265.54,357.95 L265.98,358.37 L266.42,358.80 L266.86,359.23 L267.30,359.65 L267.75,360.07 L268.19,360.49 L268.63,360.91
		L269.07,361.32 L269.51,361.73 L269.95,362.14 L270.39,362.55 L270.83,362.96 L271.27,363.36 L271.71,363.76 L272.15,364.16
		L272.59,364.56 L273.03,364.95 L273.47,365.35 L273.91,365.74 L274.35,366.12 L274.79,366.51 L275.23,366.90 L275.68,367.28
		L276.12,367.66 L276.56,368.04 L277.00,368.41 L277.44,368.79 L277.88,369.16 L278.32,369.53 L278.76,369.89 L279.20,370.26
		L279.64,370.62 L280.08,370.98 L280.52,371.34 L280.96,371.70 L281.40,372.05 L281.84,372.41 L282.28,372.76 L282.72,373.11
		L283.16,373.45 L283.61,373.80 L284.05,374.14 L284.49,374.48 L284.93,374.81 L285.37,375.15 L285.81,375.48 L286.25,375.81
		L286.69,376.14 L287.13,376.47 L287.57,376.80 L288.01,377.12 L288.45,377.44 L288.89,377.76 L289.33,378.07 L289.77,378.39
		L290.21,378.70 L290.65,379.01 L291.10,379.32 L291.54,379.62 L291.98,379.93 L292.42,380.23 L292.86,380.53 L293.30,380.82
		L293.74,381.12 L294.18,381.41 L294.62,381.70 L295.06,381.99 L295.50,382.28 L295.94,382.56 L296.38,382.84 L296.82,383.12
		L297.26,383.40 L297.70,383.68 L298.14,383.95 L298.58,384.22 L299.03,384.49 L299.47,384.76 L299.91,385.03 L300.35,385.29
		L300.79,385.55 L301.23,385.81 L301.67,386.07 L302.11,386.32 L302.55,386.57 L302.99,386.82 L303.43,387.07 L303.87,387.32
		L304.31,387.56 L304.75,387.80 L305.19,388.04 L305.63,388.28 L306.07,388.51 L306.51,388.75 L306.96,388.98 L307.40,389.21
		L307.84,389.43 L308.28,389.66 L308.72,389.88 L309.16,390.10 L309.60,390.32 L310.04,390.54 L310.48,390.75 L310.92,390.96
		L311.36,391.17 L311.80,391.38 L312.24,391.59 L312.68,391.79 L313.12,391.99 L313.56,392.19 L314.00,392.39 L314.45,392.58
		L314.89,392.77 L315.33,392.97 L315.77,393.15 L316.21,393.34 L316.65,393.52 L317.09,393.71 L317.53,393.89 L317.97,394.06
		L318.41,394.24 L318.85,394.41 L319.29,394.59 L319.73,394.75 L320.17,394.92 L320.61,395.09 L321.05,395.25 L321.49,395.41
		L321.93,395.57 L322.38,395.73 L322.82,395.88 L323.26,396.03 L323.70,396.18 L324.14,396.33 L324.58,396.48 L325.02,396.62
		L325.46,396.76 L325.90,396.90 L326.34,397.04 L326.78,397.17 L327.22,397.31 L327.66,397.44 L328.10,397.57 L328.54,397.69
		L328.98,397.82 L329.42,397.94 L329.86,398.06 L330.31,398.18 L330.75,398.30 L331.19,398.41 L331.63,398.52 L332.07,398.63
		L332.51,398.74 L332.95,398.84 L333.39,398.95 L333.83,399.05 L334.27,399.15 L334.71,399.24 L335.15,399.34 L335.59,399.43
		L336.03,399.52 L336.47,399.61 L336.91,399.70 L337.35,399.78 L337.80,399.86 L338.24,399.94 L338.68,400.02 L339.12,400.10
		L339.56,400.17 L340.00,400.24 L340.44,400.31 L340.88,400.38 L341.32,400.44 L341.76,400.51 L342.20,400.57 L342.64,400.62
		L343.08,400.68 L343.52,400.74 L343.96,400.79 L344.40,400.84 L344.84,400.89 L345.28,400.93 L345.73,400.98 L346.17,401.02
		L346.61,401.06 L347.05,401.09 L347.49,401.13 L347.93,401.16 L348.37,401.19 L348.81,401.22 L349.25,401.25 L349.69,401.27
		L350.13,401.29 L350.57,401.31 L351.01,401.33 L351.45,401.35 L351.89,401.36 L352.33,401.37 L352.77,401.38 L353.21,401.39
		L353.66,401.40 L354.10,401.40 L354.54,401.40 L354.98,401.40 L355.42,401.40 L355.86,401.39 L356.30,401.38 L356.74,401.37
		L357.18,401.36 L357.62,401.35 L358.06,401.33 L358.50,401.31 L358.94,401.29 L359.38,401.27 L359.82,401.25 L360.26,401.22
		L360.70,401.19 L361.15,401.16 L361.59,401.13 L362.03,401.09 L362.47,401.06 L362.91,401.02 L363.35,400.98 L363.79,400.93
		L364.23,400.89 L364.67,400.84 L365.11,400.79 L365.55,400.74 L365.99,400.68 L366.43,400.62 L366.87,400.57 L367.31,400.51
		L367.75,400.44 L368.19,400.38 L368.63,400.31 L369.08,400.24 L369.52,400.17 L369.96,400.10 L370.40,400.02 L370.84,399.94
		L371.28,399.86 L371.72,399.78 L372.16,399.70 L372.60,399.61 L373.04,399.52 L373.48,399.43 L373.92,399.34 L374.36,399.24
		L374.80,399.15 L375.24,399.05 L375.68,398.95 L376.12,398.84 L376.57,398.74 L377.01,398.63 L377.45,398.52 L377.89,398.41
		L378.33,398.30 L378.77,398.18 L379.21,398.06 L379.65,397.94 L380.09,397.82 L380.53,397.69 L380.97,397.57 L381.41,397.44
		L381.85,397.31 L382.29,397.17 L382.73,397.04 L383.17,396.90 L383.61,396.76 L384.05,396.62 L384.50,396.48 L384.94,396.33
		L385.38,396.18 L385.82,396.03 L386.26,395.88 L386.70,395.73 L387.14,395.57 L387.58,395.41 L388.02,395.25 L388.46,395.09
		L388.90,394.92 L389.34,394.75 L389.78,394.59 L390.22,394.41 L390.66,394.24 L391.10,394.06 L391.54,393.89 L391.98,393.71
		L392.43,393.52 L392.87,393.34 L393.31,393.15 L393.75,392.97 L394.19,392.77 L394.63,392.58 L395.07,392.39 L395.51,392.19
		L395.95,391.99 L396.39,391.79 L396.83,391.59 L397.27,391.38 L397.71,391.17 L398.15,390.96 L398.59,390.75 L399.03,390.54
		L399.47,390.32 L399.92,390.10 L400.36,389.88 L400.80,389.66 L401.24,389.43 L401.68,389.21 L402.12,388.98 L402.56,388.75
		L403.00,388.51 L403.44,388.28 L403.88,388.04 L404.32,387.80 L404.76,387.56 L405.20,387.32 L405.64,387.07 L406.08,386.82
		L406.52,386.57 L406.96,386.32 L407.40,386.07 L407.85,385.81 L408.29,385.55 L408.73,385.29 L409.17,385.03 L409.61,384.76
		L410.05,384.49 L410.49,384.22 L410.93,383.95 L411.37,383.68 L411.81,383.40 L412.25,383.12 L412.69,382.84 L413.13,382.56
		L413.57,382.28 L414.01,381.99 L414.45,381.70 L414.89,381.41 L415.33,381.12 L415.78,380.82 L416.22,380.53 L416.66,380.23
		L417.10,379.93 L417.54,379.62 L417.98,379.32 L418.42,379.01 L418.86,378.70 L419.30,378.39 L419.74,378.07 L420.18,377.76
		L420.62,377.44 L421.06,377.12 L421.50,376.80 L421.94,376.47 L422.38,376.14 L422.82,375.81 L423.27,375.48 L423.71,375.15
		L424.15,374.81 L424.59,374.48 L425.03,374.14 L425.47,373.80 L425.91,373.45 L426.35,373.11 L426.79,372.76 L427.23,372.41
		L427.67,372.05 L428.11,371.70 L428.55,371.34 L428.99,370.98 L429.43,370.62 L429.87,370.26 L430.31,369.89 L430.75,369.53
		L431.20,369.16 L431.64,368.79 L432.08,368.41 L432.52,368.04 L432.96,367.66 L433.40,367.28 L433.84,366.90 L434.28,366.51
		L434.72,366.12 L435.16,365.74 L435.60,365.35 L436.04,364.95 L436.48,364.56 L436.92,364.16 L437.36,363.76 L437.80,363.36
		L438.24,362.96 L438.68,362.55 L439.13,362.14 L439.57,361.73 L440.01,361.32 L440.45,360.91 L440.89,360.49 L441.33,360.07
		L441.77,359.65 L442.21,359.23 L442.65,358.80 L443.09,358.37 L443.53,357.95 L443.97,357.51 L444.41,357.08 L444.85,356.65
		L445.29,356.21 L445.73,355.77 L446.17,355.33 L446.62,354.88 L447.06,354.44 L447.50,353.99 L447.94,353.54 L448.38,353.08
		L448.82,352.63 L449.26,352.17 L449.70,351.71 L450.14,351.25 L450.58,350.79 L451.02,350.32 L451.46,349.86 L451.90,349.39
		L452.34,348.91 L452.78,348.44 L453.22,347.96 L453.66,347.49 L454.10,347.01 L454.55,346.52 L454.99,346.04 L455.43,345.55
		L455.87,345.06 L456.31,344.57 L456.75,344.08 L457.19,343.58 L457.63,343.09 L458.07,342.59 L458.51,342.09 L458.95,341.58
		L459.39,341.08 L459.83,340.57 L460.27,340.06 L460.71,339.55 L461.15,339.03 L461.59,338.52 L462.03,338.00 L462.48,337.48
		L462.92,336.95 L463.36,336.43 L463.80,335.90 L464.24,335.37 L464.68,334.84 L465.12,334.31 L465.56,333.77 L466.00,333.23
		L466.44,332.69 L466.88,332.15 L467.32,331.61 L467.76,331.06 L468.20,330.51 L468.64,329.96 L469.08,329.41 L469.52,328.85
		L469.97,328.30 L470.41,327.74 L470.85,327.18 L471.29,326.61 L471.73,326.05 L472.17,325.48 L472.61,324.91 L473.05,324.34
		L473.49,323.76 L473.93,323.19 L474.37,322.61 L474.81,322.03 L475.25,321.45 L475.69,320.86 L476.13,320.28 L476.57,319.69
		L477.01,319.10 L477.45,318.50 L477.90,317.91 L478.34,317.31 L478.78,316.71 L479.22,316.11 L479.66,315.50 L480.10,314.90
		L480.54,314.29 L480.98,313.68 L481.42,313.07 L481.86,312.45 L482.30,311.84 L482.74,311.22 L483.18,310.60 L483.62,309.97
		L484.06,309.35 L484.50,308.72 L484.94,308.09 L485.38,307.46 L485.83,306.83 L486.27,306.19 L486.71,305.55 L487.15,304.91
		L487.59,304.27 L488.03,303.63 L488.47,302.98 L488.91,302.33 L489.35,301.68 L489.79,301.03 L490.23,300.37 L490.67,299.72
		L491.11,299.06 L491.55,298.40 L491.99,297.73 L492.43,297.07 L492.87,296.40 L493.32,295.73 L493.76,295.06 L494.20,294.38
		L494.64,293.71 L495.08,293.03 L495.52,292.35 L495.96,291.66 L496.40,290.98 L496.84,290.29 L497.28,289.60 L497.72,288.91
		L498.16,288.22 L498.60,287.52 L499.04,286.83 L499.48,286.13 L499.92,285.43 L500.36,284.72 L500.80,284.02 L501.25,283.31
		L501.69,282.60 L502.13,281.88 L502.57,281.17 L503.01,280.45 L503.45,279.73 L503.89,279.01 L504.33,278.29 L504.77,277.56
		L505.21,276.84 L505.65,276.11 L506.09,275.38 L506.53,274.64 L506.97,273.91 L507.41,273.17 L507.85,272.43 L508.29,271.69
		L508.74,270.94 L509.18,270.20 L509.62,269.45 L510.06,268.70 L510.50,267.94 L510.94,267.19 L511.38,266.43 L511.82,265.67
		L512.26,264.91 L512.70,264.15 L513.14,263.38 L513.58,262.61 L514.02,261.84 L514.46,261.07 L514.90,260.30 L515.34,259.52
		L515.78,258.74 L516.22,257.96 L516.67,257.18 L517.11,256.39 L517.55,255.61 L517.99,254.82 L518.43,254.03 L518.87,253.23
		L519.31,252.44 L519.75,251.64 L520.19,250.84 L520.63,250.04 L521.07,249.23 L521.51,248.43 L521.95,247.62 L522.39,246.81
		L522.83,246.00 L523.27,245.18 L523.71,244.36 L524.15,243.55 L524.60,242.72 L525.04,241.90 L525.48,241.08 L525.92,240.25
		L526.36,239.42 L526.80,238.59 L527.24,237.75 L527.68,236.92 L528.12,236.08 L528.56,235.24 L529.00,234.40 L529.44,233.55
		L529.88,232.70 L530.32,231.86 L530.76,231.00  '/></g>
	</g>
<g fill="none" color="white" stroke="rgb(  0, 158, 115)" stroke-width="2.00" stroke-linecap="butt" stroke-linejoin="miter">
</g>
<g fill="none" color="black" stroke="currentColor" stroke-width="2.00" stroke-linecap="butt" stroke-linejoin="miter">
</g>
<g fill="none" color="black" stroke="black" stroke-width="1.00" stroke-linecap="butt" stroke-linejoin="miter">
</g>
<g fill="none" color="black" stroke="currentColor" stroke-width="1.00" stroke-linecap="butt" stroke-linejoin="miter">
	<path stroke='black'  d='M46.14,18.01 L46.14,444.00 L574.82,444.00 L574.82,18.01 L46.14,18.01 Z  '/></g>
<g fill="none" color="black" stroke="currentColor" stroke-width="1.00" stroke-linecap="butt" stroke-linejoin="miter">
</g>
</g>
</svg>

