<?xml version="1.0" encoding="utf-8"  standalone="no"?>
<svg 
 width="600" height="480"
 viewBox="0 0 600 480"
 xmlns="http://www.w3.org/2000/svg"
 xmlns:xlink="http://www.w3.org/1999/xlink"
>

<title>Gnuplot</title>
<desc>Produced by GNUPLOT 5.4 patchlevel 2 </desc>

<g id="gnuplot_canvas">

<rect x="0" y="0" width="600" height="480" fill="none"/>
<defs>

	<circle id='gpDot' r='0.5' stroke-width='0.5' stroke='currentColor'/>
	<path id='gpPt0' stroke-width='0.222' stroke='currentColor' d='M-1,0 h2 M0,-1 v2'/>
	<path id='gpPt1' stroke-width='0.222' stroke='currentColor' d='M-1,-1 L1,1 M1,-1 L-1,1'/>
	<path id='gpPt2' stroke-width='0.222' stroke='currentColor' d='M-1,0 L1,0 M0,-1 L0,1 M-1,-1 L1,1 M-1,1 L1,-1'/>
	<rect id='gpPt3' stroke-width='0.222' stroke='currentColor' x='-1' y='-1' width='2' height='2'/>
	<rect id='gpPt4' stroke-width='0.222' stroke='currentColor' fill='currentColor' x='-1' y='-1' width='2' height='2'/>
	<circle id='gpPt5' stroke-width='0.222' stroke='currentColor' cx='0' cy='0' r='1'/>
	<use xlink:href='#gpPt5' id='gpPt6' fill='currentColor' stroke='none'/>
	<path id='gpPt7' stroke-width='0.222' stroke='currentColor' d='M0,-1.33 L-1.33,0.67 L1.33,0.67 z'/>
	<use xlink:href='#gpPt7' id='gpPt8' fill='currentColor' stroke='none'/>
	<use xlink:href='#gpPt7' id='gpPt9' stroke='currentColor' transform='rotate(180)'/>
	<use xlink:href='#gpPt9' id='gpPt10' fill='currentColor' stroke='none'/>
	<use xlink:href='#gpPt3' id='gpPt11' stroke='currentColor' transform='rotate(45)'/>
	<use xlink:href='#gpPt11' id='gpPt12' fill='currentColor' stroke='none'/>
	<path id='gpPt13' stroke-width='0.222' stroke='currentColor' d='M0,1.330 L1.265,0.411 L0.782,-1.067 L-0.782,-1.076 L-1.265,0.411 z'/>
	<use xlink:href='#gpPt13' id='gpPt14' fill='currentColor' stroke='none'/>
	<filter id='textbox' filterUnits='objectBoundingBox' x='0' y='0' height='1' width='1'>
	  <feFlood flood-color='white' flood-opacity='1' result='bgnd'/>
	  <feComposite in='SourceGraphic' in2='bgnd' operator='atop'/>
	</filter>
	<filter id='greybox' filterUnits='objectBoundingBox' x='0' y='0' height='1' width='1'>
	  <feFlood flood-color='lightgrey' flood-opacity='1' result='grey'/>
	  <feComposite in='SourceGraphic' in2='grey' operator='atop'/>
	</filter>
</defs>
<g fill="none" color="white" stroke="currentColor" stroke-width="1.00" stroke-linecap="butt" stroke-linejoin="miter">
</g>
<g fill="none" color="black" stroke="currentColor" stroke-width="1.00" stroke-linecap="butt" stroke-linejoin="miter">
</g>
<g fill="none" color="black" stroke="black" stroke-width="0.50" stroke-linecap="butt" stroke-linejoin="miter">
</g>
<g fill="none" color="gray" stroke="currentColor" stroke-width="0.50" stroke-linecap="butt" stroke-linejoin="miter">
	<path stroke='gray' stroke-dasharray='2,4' class="gridline"  d='M46.14,444.00 L574.82,444.00  '/></g>
<g fill="none" color="gray" stroke="gray" stroke-width="1.00" stroke-linecap="butt" stroke-linejoin="miter">
</g>
<g fill="none" color="black" stroke="currentColor" stroke-width="1.00" stroke-linecap="butt" stroke-linejoin="miter">
	<path stroke='black'  d='M46.14,444.00 L55.14,444.00 M574.82,444.00 L565.82,444.00  '/>	<g transform="translate(37.75,447.90)" stroke="none" fill="black" font-family="Arial" font-size="12.00"  text-anchor="end">
		<text><tspan font-family="Arial" >-10</tspan></text>
	</g>
</g>
<g fill="none" color="black" stroke="currentColor" stroke-width="1.00" stroke-linecap="butt" stroke-linejoin="miter">
</g>
<g fill="none" color="black" stroke="black" stroke-width="0.50" stroke-linecap="butt" stroke-linejoin="miter">
</g>
<g fill="none" color="gray" stroke="currentColor" stroke-width="0.50" stroke-linecap="butt" stroke-linejoin="miter">
	<path stroke='gray' stroke-dasharray='2,4' class="gridline"  d='M46.14,396.67 L574.82,396.67  '/></g>
<g fill="none" color="gray" stroke="gray" stroke-width="1.00" stroke-linecap="butt" stroke-linejoin="miter">
</g>
<g fill="none" color="black" stroke="currentColor" stroke-width="1.00" stroke-linecap="butt" stroke-linejoin="miter">
	<path stroke='black'  d='M46.14,396.67 L55.14,396.67 M574.82,396.67 L565.82,396.67  '/>	<g transform="translate(37.75,400.57)" stroke="none" fill="black" font-family="Arial" font-size="12.00"  text-anchor="end">
		<text><tspan font-family="Arial" >-5</tspan></text>
	</g>
</g>
<g fill="none" color="black" stroke="currentColor" stroke-width="1.00" stroke-linecap="butt" stroke-linejoin="miter">
</g>
<g fill="none" color="black" stroke="black" stroke-width="0.50" stroke-linecap="butt" stroke-linejoin="miter">
</g>
<g fill="none" color="gray" stroke="currentColor" stroke-width="0.50" stroke-linecap="butt" stroke-linejoin="miter">
	<path stroke='gray' stroke-dasharray='2,4' class="gridline"  d='M46.14,349.34 L574.82,349.34  '/></g>
<g fill="none" color="gray" stroke="gray" stroke-width="1.00" stroke-linecap="butt" stroke-linejoin="miter">
</g>
<g fill="none" color="black" stroke="currentColor" stroke-width="1.00" stroke-linecap="butt" stroke-linejoin="miter">
	<path stroke='black'  d='M46.14,349.34 L55.14,349.34 M574.82,349.34 L565.82,349.34  '/>	<g transform="translate(37.75,353.24)" stroke="none" fill="black" font-family="Arial" font-size="12.00"  text-anchor="end">
		<text><tspan font-family="Arial" > 0</tspan></text>
	</g>
</g>
<g fill="none" color="black" stroke="currentColor" stroke-width="1.00" stroke-linecap="butt" stroke-linejoin="miter">
</g>
<g fill="none" color="black" stroke="black" stroke-width="0.50" stroke-linecap="butt" stroke-linejoin="miter">
</g>
<g fill="none" color="gray" stroke="currentColor" stroke-width="0.50" stroke-linecap="butt" stroke-linejoin="miter">
	<path stroke='gray' stroke-dasharray='2,4' class="gridline"  d='M46.14,302.00 L574.82,302.00  '/></g>
<g fill="none" color="gray" stroke="gray" stroke-width="1.00" stroke-linecap="butt" stroke-linejoin="miter">
</g>
<g fill="none" color="black" stroke="currentColor" stroke-width="1.00" stroke-linecap="butt" stroke-linejoin="miter">
	<path stroke='black'  d='M46.14,302.00 L55.14,302.00 M574.82,302.00 L565.82,302.00  '/>	<g transform="translate(37.75,305.90)" stroke="none" fill="black" font-family="Arial" font-size="12.00"  text-anchor="end">
		<text><tspan font-family="Arial" > 5</tspan></text>
	</g>
</g>
<g fill="none" color="black" stroke="currentColor" stroke-width="1.00" stroke-linecap="butt" stroke-linejoin="miter">
</g>
<g fill="none" color="black" stroke="black" stroke-width="0.50" stroke-linecap="butt" stroke-linejoin="miter">
</g>
<g fill="none" color="gray" stroke="currentColor" stroke-width="0.50" stroke-linecap="butt" stroke-linejoin="miter">
	<path stroke='gray' stroke-dasharray='2,4' class="gridline"  d='M46.14,254.67 L574.82,254.67  '/></g>
<g fill="none" color="gray" stroke="gray" stroke-width="1.00" stroke-linecap="butt" stroke-linejoin="miter">
</g>
<g fill="none" color="black" stroke="currentColor" stroke-width="1.00" stroke-linecap="butt" stroke-linejoin="miter">
	<path stroke='black'  d='M46.14,254.67 L55.14,254.67 M574.82,254.67 L565.82,254.67  '/>	<g transform="translate(37.75,258.57)" stroke="none" fill="black" font-family="Arial" font-size="12.00"  text-anchor="end">
		<text><tspan font-family="Arial" > 10</tspan></text>
	</g>
</g>
<g fill="none" color="black" stroke="currentColor" stroke-width="1.00" stroke-linecap="butt" stroke-linejoin="miter">
</g>
<g fill="none" color="black" stroke="black" stroke-width="0.50" stroke-linecap="butt" stroke-linejoin="miter">
</g>
<g fill="none" color="gray" stroke="currentColor" stroke-width="0.50" stroke-linecap="butt" stroke-linejoin="miter">
	<path stroke='gray' stroke-dasharray='2,4' class="gridline"  d='M46.14,207.34 L574.82,207.34  '/></g>
<g fill="none" color="gray" stroke="gray" stroke-width="1.00" stroke-linecap="butt" stroke-linejoin="miter">
</g>
<g fill="none" color="black" stroke="currentColor" stroke-width="1.00" stroke-linecap="butt" stroke-linejoin="miter">
	<path stroke='black'  d='M46.14,207.34 L55.14,207.34 M574.82,207.34 L565.82,207.34  '/>	<g transform="translate(37.75,211.24)" stroke="none" fill="black" font-family="Arial" font-size="12.00"  text-anchor="end">
		<text><tspan font-family="Arial" > 15</tspan></text>
	</g>
</g>
<g fill="none" color="black" stroke="currentColor" stroke-width="1.00" stroke-linecap="butt" stroke-linejoin="miter">
</g>
<g fill="none" color="black" stroke="black" stroke-width="0.50" stroke-linecap="butt" stroke-linejoin="miter">
</g>
<g fill="none" color="gray" stroke="currentColor" stroke-width="0.50" stroke-linecap="butt" stroke-linejoin="miter">
	<path stroke='gray' stroke-dasharray='2,4' class="gridline"  d='M46.14,160.01 L574.82,160.01  '/></g>
<g fill="none" color="gray" stroke="gray" stroke-width="1.00" stroke-linecap="butt" stroke-linejoin="miter">
</g>
<g fill="none" color="black" stroke="currentColor" stroke-width="1.00" stroke-linecap="butt" stroke-linejoin="miter">
	<path stroke='black'  d='M46.14,160.01 L55.14,160.01 M574.82,160.01 L565.82,160.01  '/>	<g transform="translate(37.75,163.91)" stroke="none" fill="black" font-family="Arial" font-size="12.00"  text-anchor="end">
		<text><tspan font-family="Arial" > 20</tspan></text>
	</g>
</g>
<g fill="none" color="black" stroke="currentColor" stroke-width="1.00" stroke-linecap="butt" stroke-linejoin="miter">
</g>
<g fill="none" color="black" stroke="black" stroke-width="0.50" stroke-linecap="butt" stroke-linejoin="miter">
</g>
<g fill="none" color="gray" stroke="currentColor" stroke-width="0.50" stroke-linecap="butt" stroke-linejoin="miter">
	<path stroke='gray' stroke-dasharray='2,4' class="gridline"  d='M46.14,112.67 L574.82,112.67  '/></g>
<g fill="none" color="gray" stroke="gray" stroke-width="1.00" stroke-linecap="butt" stroke-linejoin="miter">
</g>
<g fill="none" color="black" stroke="currentColor" stroke-width="1.00" stroke-linecap="butt" stroke-linejoin="miter">
	<path stroke='black'  d='M46.14,112.67 L55.14,112.67 M574.82,112.67 L565.82,112.67  '/>	<g transform="translate(37.75,116.57)" stroke="none" fill="black" font-family="Arial" font-size="12.00"  text-anchor="end">
		<text><tspan font-family="Arial" > 25</tspan></text>
	</g>
</g>
<g fill="none" color="black" stroke="currentColor" stroke-width="1.00" stroke-linecap="butt" stroke-linejoin="miter">
</g>
<g fill="none" color="black" stroke="black" stroke-width="0.50" stroke-linecap="butt" stroke-linejoin="miter">
</g>
<g fill="none" color="gray" stroke="currentColor" stroke-width="0.50" stroke-linecap="butt" stroke-linejoin="miter">
	<path stroke='gray' stroke-dasharray='2,4' class="gridline"  d='M46.14,65.34 L121.15,65.34 M566.43,65.34 L574.82,65.34  '/></g>
<g fill="none" color="gray" stroke="gray" stroke-width="1.00" stroke-linecap="butt" stroke-linejoin="miter">
</g>
<g fill="none" color="black" stroke="currentColor" stroke-width="1.00" stroke-linecap="butt" stroke-linejoin="miter">
	<path stroke='black'  d='M46.14,65.34 L55.14,65.34 M574.82,65.34 L565.82,65.34  '/>	<g transform="translate(37.75,69.24)" stroke="none" fill="black" font-family="Arial" font-size="12.00"  text-anchor="end">
		<text><tspan font-family="Arial" > 30</tspan></text>
	</g>
</g>
<g fill="none" color="black" stroke="currentColor" stroke-width="1.00" stroke-linecap="butt" stroke-linejoin="miter">
</g>
<g fill="none" color="black" stroke="black" stroke-width="0.50" stroke-linecap="butt" stroke-linejoin="miter">
</g>
<g fill="none" color="gray" stroke="currentColor" stroke-width="0.50" stroke-linecap="butt" stroke-linejoin="miter">
	<path stroke='gray' stroke-dasharray='2,4' class="gridline"  d='M46.14,18.01 L574.82,18.01  '/></g>
<g fill="none" color="gray" stroke="gray" stroke-width="1.00" stroke-linecap="butt" stroke-linejoin="miter">
</g>
<g fill="none" color="black" stroke="currentColor" stroke-width="1.00" stroke-linecap="butt" stroke-linejoin="miter">
	<path stroke='black'  d='M46.14,18.01 L55.14,18.01 M574.82,18.01 L565.82,18.01  '/>	<g transform="translate(37.75,21.91)" stroke="none" fill="black" font-family="Arial" font-size="12.00"  text-anchor="end">
		<text><tspan font-family="Arial" > 35</tspan></text>
	</g>
</g>
<g fill="none" color="black" stroke="currentColor" stroke-width="1.00" stroke-linecap="butt" stroke-linejoin="miter">
</g>
<g fill="none" color="black" stroke="black" stroke-width="0.50" stroke-linecap="butt" stroke-linejoin="miter">
</g>
<g fill="none" color="gray" stroke="currentColor" stroke-width="0.50" stroke-linecap="butt" stroke-linejoin="miter">
	<path stroke='gray' stroke-dasharray='2,4' class="gridline"  d='M46.14,444.00 L46.14,18.01  '/></g>
<g fill="none" color="gray" stroke="gray" stroke-width="1.00" stroke-linecap="butt" stroke-linejoin="miter">
</g>
<g fill="none" color="black" stroke="currentColor" stroke-width="1.00" stroke-linecap="butt" stroke-linejoin="miter">
	<path stroke='black'  d='M46.14,444.00 L46.14,435.00 M46.14,18.01 L46.14,27.01  '/>	<g transform="translate(46.14,465.90)" stroke="none" fill="black" font-family="Arial" font-size="12.00"  text-anchor="middle">
		<text><tspan font-family="Arial" >-6</tspan></text>
	</g>
</g>
<g fill="none" color="black" stroke="currentColor" stroke-width="1.00" stroke-linecap="butt" stroke-linejoin="miter">
</g>
<g fill="none" color="black" stroke="black" stroke-width="0.50" stroke-linecap="butt" stroke-linejoin="miter">
</g>
<g fill="none" color="gray" stroke="currentColor" stroke-width="0.50" stroke-linecap="butt" stroke-linejoin="miter">
	<path stroke='gray' stroke-dasharray='2,4' class="gridline"  d='M134.25,444.00 L134.25,81.01 M134.25,27.01 L134.25,18.01  '/></g>
<g fill="none" color="gray" stroke="gray" stroke-width="1.00" stroke-linecap="butt" stroke-linejoin="miter">
</g>
<g fill="none" color="black" stroke="currentColor" stroke-width="1.00" stroke-linecap="butt" stroke-linejoin="miter">
	<path stroke='black'  d='M134.25,444.00 L134.25,435.00 M134.25,18.01 L134.25,27.01  '/>	<g transform="translate(134.25,465.90)" stroke="none" fill="black" font-family="Arial" font-size="12.00"  text-anchor="middle">
		<text><tspan font-family="Arial" >-4</tspan></text>
	</g>
</g>
<g fill="none" color="black" stroke="currentColor" stroke-width="1.00" stroke-linecap="butt" stroke-linejoin="miter">
</g>
<g fill="none" color="black" stroke="black" stroke-width="0.50" stroke-linecap="butt" stroke-linejoin="miter">
</g>
<g fill="none" color="gray" stroke="currentColor" stroke-width="0.50" stroke-linecap="butt" stroke-linejoin="miter">
	<path stroke='gray' stroke-dasharray='2,4' class="gridline"  d='M222.37,444.00 L222.37,81.01 M222.37,27.01 L222.37,18.01  '/></g>
<g fill="none" color="gray" stroke="gray" stroke-width="1.00" stroke-linecap="butt" stroke-linejoin="miter">
</g>
<g fill="none" color="black" stroke="currentColor" stroke-width="1.00" stroke-linecap="butt" stroke-linejoin="miter">
	<path stroke='black'  d='M222.37,444.00 L222.37,435.00 M222.37,18.01 L222.37,27.01  '/>	<g transform="translate(222.37,465.90)" stroke="none" fill="black" font-family="Arial" font-size="12.00"  text-anchor="middle">
		<text><tspan font-family="Arial" >-2</tspan></text>
	</g>
</g>
<g fill="none" color="black" stroke="currentColor" stroke-width="1.00" stroke-linecap="butt" stroke-linejoin="miter">
</g>
<g fill="none" color="black" stroke="black" stroke-width="0.50" stroke-linecap="butt" stroke-linejoin="miter">
</g>
<g fill="none" color="gray" stroke="currentColor" stroke-width="0.50" stroke-linecap="butt" stroke-linejoin="miter">
	<path stroke='gray' stroke-dasharray='2,4' class="gridline"  d='M310.48,444.00 L310.48,81.01 M310.48,27.01 L310.48,18.01  '/></g>
<g fill="none" color="gray" stroke="gray" stroke-width="1.00" stroke-linecap="butt" stroke-linejoin="miter">
</g>
<g fill="none" color="black" stroke="currentColor" stroke-width="1.00" stroke-linecap="butt" stroke-linejoin="miter">
	<path stroke='black'  d='M310.48,444.00 L310.48,435.00 M310.48,18.01 L310.48,27.01  '/>	<g transform="translate(310.48,465.90)" stroke="none" fill="black" font-family="Arial" font-size="12.00"  text-anchor="middle">
		<text><tspan font-family="Arial" > 0</tspan></text>
	</g>
</g>
<g fill="none" color="black" stroke="currentColor" stroke-width="1.00" stroke-linecap="butt" stroke-linejoin="miter">
</g>
<g fill="none" color="black" stroke="black" stroke-width="0.50" stroke-linecap="butt" stroke-linejoin="miter">
</g>
<g fill="none" color="gray" stroke="currentColor" stroke-width="0.50" stroke-linecap="butt" stroke-linejoin="miter">
	<path stroke='gray' stroke-dasharray='2,4' class="gridline"  d='M398.59,444.00 L398.59,81.01 M398.59,27.01 L398.59,18.01  '/></g>
<g fill="none" color="gray" stroke="gray" stroke-width="1.00" stroke-linecap="butt" stroke-linejoin="miter">
</g>
<g fill="none" color="black" stroke="currentColor" stroke-width="1.00" stroke-linecap="butt" stroke-linejoin="miter">
	<path stroke='black'  d='M398.59,444.00 L398.59,435.00 M398.59,18.01 L398.59,27.01  '/>	<g transform="translate(398.59,465.90)" stroke="none" fill="black" font-family="Arial" font-size="12.00"  text-anchor="middle">
		<text><tspan font-family="Arial" > 2</tspan></text>
	</g>
</g>
<g fill="none" color="black" stroke="currentColor" stroke-width="1.00" stroke-linecap="butt" stroke-linejoin="miter">
</g>
<g fill="none" color="black" stroke="black" stroke-width="0.50" stroke-linecap="butt" stroke-linejoin="miter">
</g>
<g fill="none" color="gray" stroke="currentColor" stroke-width="0.50" stroke-linecap="butt" stroke-linejoin="miter">
	<path stroke='gray' stroke-dasharray='2,4' class="gridline"  d='M486.71,444.00 L486.71,81.01 M486.71,27.01 L486.71,18.01  '/></g>
<g fill="none" color="gray" stroke="gray" stroke-width="1.00" stroke-linecap="butt" stroke-linejoin="miter">
</g>
<g fill="none" color="black" stroke="currentColor" stroke-width="1.00" stroke-linecap="butt" stroke-linejoin="miter">
	<path stroke='black'  d='M486.71,444.00 L486.71,435.00 M486.71,18.01 L486.71,27.01  '/>	<g transform="translate(486.71,465.90)" stroke="none" fill="black" font-family="Arial" font-size="12.00"  text-anchor="middle">
		<text><tspan font-family="Arial" > 4</tspan></text>
	</g>
</g>
<g fill="none" color="black" stroke="currentColor" stroke-width="1.00" stroke-linecap="butt" stroke-linejoin="miter">
</g>
<g fill="none" color="black" stroke="black" stroke-width="0.50" stroke-linecap="butt" stroke-linejoin="miter">
</g>
<g fill="none" color="gray" stroke="currentColor" stroke-width="0.50" stroke-linecap="butt" stroke-linejoin="miter">
	<path stroke='gray' stroke-dasharray='2,4' class="gridline"  d='M574.82,444.00 L574.82,18.01  '/></g>
<g fill="none" color="gray" stroke="gray" stroke-width="1.00" stroke-linecap="butt" stroke-linejoin="miter">
</g>
<g fill="none" color="black" stroke="currentColor" stroke-width="1.00" stroke-linecap="butt" stroke-linejoin="miter">
	<path stroke='black'  d='M574.82,444.00 L574.82,435.00 M574.82,18.01 L574.82,27.01  '/>	<g transform="translate(574.82,465.90)" stroke="none" fill="black" font-family="Arial" font-size="12.00"  text-anchor="middle">
		<text><tspan font-family="Arial" > 6</tspan></text>
	</g>
</g>
<g fill="none" color="black" stroke="currentColor" stroke-width="1.00" stroke-linecap="butt" stroke-linejoin="miter">
</g>
<g fill="none" color="black" stroke="currentColor" stroke-width="1.00" stroke-linecap="butt" stroke-linejoin="miter">
	<path stroke='black'  d='M46.14,18.01 L46.14,444.00 L574.82,444.00 L574.82,18.01 L46.14,18.01 Z  '/></g>
<g fill="none" color="black" stroke="currentColor" stroke-width="1.00" stroke-linecap="butt" stroke-linejoin="miter">
</g>
	<g id="gnuplot_plot_1" ><title>x*x - 2*x</title>
<g fill="none" color="black" stroke="currentColor" stroke-width="1.00" stroke-linecap="butt" stroke-linejoin="miter">
	<g transform="translate(507.09,39.91)" stroke="none" fill="black" font-family="Arial" font-size="12.00"  text-anchor="end">
		<text>x*x - 2*x</text>
	</g>
</g>
<g fill="none" color="black" stroke="currentColor" stroke-width="1.00" stroke-linecap="butt" stroke-linejoin="miter">
	<path stroke='rgb(148,   0, 211)'  d='M515.48,36.01 L558.04,36.01 M90.20,18.01 L94.65,29.39 L99.10,40.57 L103.55,51.56 L108.00,62.36 L112.45,72.97
		L116.90,83.38 L121.35,93.60 L125.80,103.62 L130.25,113.46 L134.70,123.10 L139.15,132.54 L143.60,141.80 L148.05,150.86
		L152.50,159.72 L156.95,168.40 L161.40,176.88 L165.85,185.16 L170.30,193.26 L174.75,201.16 L179.20,208.86 L183.65,216.38
		L188.10,223.70 L192.55,230.83 L197.00,237.76 L201.45,244.51 L205.90,251.05 L210.35,257.41 L214.80,263.57 L219.25,269.54
		L223.70,275.32 L228.15,280.90 L232.60,286.29 L237.05,291.49 L241.50,296.49 L245.95,301.30 L250.40,305.92 L254.85,310.34
		L259.30,314.57 L263.75,318.61 L268.20,322.45 L272.65,326.10 L277.10,329.56 L281.55,332.82 L286.00,335.90 L290.45,338.77
		L294.90,341.46 L299.35,343.95 L303.80,346.25 L308.25,348.36 L312.71,350.27 L317.16,351.99 L321.61,353.51 L326.06,354.85
		L330.51,355.99 L334.96,356.93 L339.41,357.69 L343.86,358.25 L348.31,358.61 L352.76,358.79 L357.21,358.77 L361.66,358.55
		L366.11,358.15 L370.56,357.55 L375.01,356.76 L379.46,355.77 L383.91,354.59 L388.36,353.22 L392.81,351.66 L397.26,349.90
		L401.71,347.95 L406.16,345.81 L410.61,343.47 L415.06,340.94 L419.51,338.21 L423.96,335.30 L428.41,332.19 L432.86,328.88
		L437.31,325.39 L441.76,321.70 L446.21,317.81 L450.66,313.74 L455.11,309.47 L459.56,305.01 L464.01,300.35 L468.46,295.50
		L472.91,290.46 L477.36,285.23 L481.81,279.80 L486.26,274.18 L490.71,268.36 L495.16,262.35 L499.61,256.15 L504.06,249.76
		L508.51,243.17 L512.96,236.39 L517.41,229.42 L521.86,222.25 L526.31,214.89 L530.76,207.34  '/></g>
	</g>
	<g id="gnuplot_plot_2" ><title>"euler-method-bad-approximation.dat" using 1:2</title>
<g fill="none" color="black" stroke="currentColor" stroke-width="1.00" stroke-linecap="butt" stroke-linejoin="miter">
	<g transform="translate(507.09,57.91)" stroke="none" fill="black" font-family="Arial" font-size="12.00"  text-anchor="end">
		<text>"euler-method-bad-approximation.dat" using 1:2</text>
	</g>
</g>
<g fill="none" color="black" stroke="currentColor" stroke-width="1.00" stroke-linecap="butt" stroke-linejoin="miter">
	<path stroke='rgb(  0, 158, 115)'  d='M515.48,54.01 L558.04,54.01 M90.20,18.01 L134.25,131.61 L178.31,226.27 L222.37,302.00 L266.42,358.80 L310.48,396.67
		L354.54,415.60 L398.59,415.60 L442.65,396.67 L486.71,358.80 L530.76,302.00  '/>	<use xlink:href='#gpPt1' transform='translate(90.20,18.01) scale(4.50)' color='rgb(  0, 158, 115)'/>
	<use xlink:href='#gpPt1' transform='translate(134.25,131.61) scale(4.50)' color='rgb(  0, 158, 115)'/>
	<use xlink:href='#gpPt1' transform='translate(178.31,226.27) scale(4.50)' color='rgb(  0, 158, 115)'/>
	<use xlink:href='#gpPt1' transform='translate(222.37,302.00) scale(4.50)' color='rgb(  0, 158, 115)'/>
	<use xlink:href='#gpPt1' transform='translate(266.42,358.80) scale(4.50)' color='rgb(  0, 158, 115)'/>
	<use xlink:href='#gpPt1' transform='translate(310.48,396.67) scale(4.50)' color='rgb(  0, 158, 115)'/>
	<use xlink:href='#gpPt1' transform='translate(354.54,415.60) scale(4.50)' color='rgb(  0, 158, 115)'/>
	<use xlink:href='#gpPt1' transform='translate(398.59,415.60) scale(4.50)' color='rgb(  0, 158, 115)'/>
	<use xlink:href='#gpPt1' transform='translate(442.65,396.67) scale(4.50)' color='rgb(  0, 158, 115)'/>
	<use xlink:href='#gpPt1' transform='translate(486.71,358.80) scale(4.50)' color='rgb(  0, 158, 115)'/>
	<use xlink:href='#gpPt1' transform='translate(530.76,302.00) scale(4.50)' color='rgb(  0, 158, 115)'/>
	<use xlink:href='#gpPt1' transform='translate(536.76,54.01) scale(4.50)' color='rgb(  0, 158, 115)'/>
</g>
	</g>
	<g id="gnuplot_plot_3" ><title>"euler-method.dat" using 1:2</title>
<g fill="none" color="black" stroke="currentColor" stroke-width="1.00" stroke-linecap="butt" stroke-linejoin="miter">
	<g transform="translate(507.09,75.91)" stroke="none" fill="black" font-family="Arial" font-size="12.00"  text-anchor="end">
		<text>"euler-method.dat" using 1:2</text>
	</g>
</g>
<g fill="none" color="black" stroke="currentColor" stroke-width="1.00" stroke-linecap="butt" stroke-linejoin="miter">
	<path stroke='rgb( 86, 180, 233)'  d='M515.48,72.01 L558.04,72.01 M90.20,18.01 L90.64,19.15 L91.08,20.28 L91.52,21.41 L91.96,22.54 L92.40,23.67
		L92.84,24.80 L93.28,25.92 L93.72,27.04 L94.16,28.17 L94.60,29.28 L95.04,30.40 L95.48,31.52 L95.92,32.63
		L96.36,33.74 L96.81,34.85 L97.25,35.96 L97.69,37.06 L98.13,38.17 L98.57,39.27 L99.01,40.37 L99.45,41.47
		L99.89,42.56 L100.33,43.66 L100.77,44.75 L101.21,45.84 L101.65,46.93 L102.09,48.02 L102.53,49.10 L102.97,50.18
		L103.41,51.27 L103.85,52.34 L104.29,53.42 L104.74,54.50 L105.18,55.57 L105.62,56.64 L106.06,57.71 L106.50,58.78
		L106.94,59.85 L107.38,60.91 L107.82,61.97 L108.26,63.03 L108.70,64.09 L109.14,65.15 L109.58,66.20 L110.02,67.25
		L110.46,68.31 L110.90,69.35 L111.34,70.40 L111.78,71.45 L112.23,72.49 L112.67,73.53 L113.11,74.57 L113.55,75.61
		L113.99,76.64 L114.43,77.68 L114.87,78.71 L115.31,79.74 L115.75,80.77 L116.19,81.79 L116.63,82.82 L117.07,83.84
		L117.51,84.86 L117.95,85.88 L118.39,86.90 L118.83,87.91 L119.27,88.92 L119.71,89.93 L120.16,90.94 L120.60,91.95
		L121.04,92.96 L121.48,93.96 L121.92,94.96 L122.36,95.96 L122.80,96.96 L123.24,97.95 L123.68,98.95 L124.12,99.94
		L124.56,100.93 L125.00,101.92 L125.44,102.91 L125.88,103.89 L126.32,104.87 L126.76,105.85 L127.20,106.83 L127.64,107.81
		L128.09,108.78 L128.53,109.76 L128.97,110.73 L129.41,111.70 L129.85,112.66 L130.29,113.63 L130.73,114.59 L131.17,115.56
		L131.61,116.52 L132.05,117.47 L132.49,118.43 L132.93,119.38 L133.37,120.34 L133.81,121.29 L134.25,122.24 L134.69,123.18
		L135.13,124.13 L135.58,125.07 L136.02,126.01 L136.46,126.95 L136.90,127.89 L137.34,128.82 L137.78,129.76 L138.22,130.69
		L138.66,131.62 L139.10,132.54 L139.54,133.47 L139.98,134.39 L140.42,135.32 L140.86,136.24 L141.30,137.15 L141.74,138.07
		L142.18,138.99 L142.62,139.90 L143.06,140.81 L143.51,141.72 L143.95,142.62 L144.39,143.53 L144.83,144.43 L145.27,145.33
		L145.71,146.23 L146.15,147.13 L146.59,148.03 L147.03,148.92 L147.47,149.81 L147.91,150.70 L148.35,151.59 L148.79,152.48
		L149.23,153.36 L149.67,154.24 L150.11,155.12 L150.55,156.00 L150.99,156.88 L151.44,157.75 L151.88,158.62 L152.32,159.50
		L152.76,160.36 L153.20,161.23 L153.64,162.10 L154.08,162.96 L154.52,163.82 L154.96,164.68 L155.40,165.54 L155.84,166.39
		L156.28,167.25 L156.72,168.10 L157.16,168.95 L157.60,169.80 L158.04,170.65 L158.48,171.49 L158.93,172.33 L159.37,173.17
		L159.81,174.01 L160.25,174.85 L160.69,175.68 L161.13,176.52 L161.57,177.35 L162.01,178.18 L162.45,179.00 L162.89,179.83
		L163.33,180.65 L163.77,181.47 L164.21,182.29 L164.65,183.11 L165.09,183.93 L165.53,184.74 L165.97,185.55 L166.41,186.37
		L166.86,187.17 L167.30,187.98 L167.74,188.78 L168.18,189.59 L168.62,190.39 L169.06,191.19 L169.50,191.98 L169.94,192.78
		L170.38,193.57 L170.82,194.36 L171.26,195.15 L171.70,195.94 L172.14,196.73 L172.58,197.51 L173.02,198.29 L173.46,199.07
		L173.90,199.85 L174.34,200.63 L174.79,201.40 L175.23,202.17 L175.67,202.94 L176.11,203.71 L176.55,204.48 L176.99,205.24
		L177.43,206.01 L177.87,206.77 L178.31,207.53 L178.75,208.29 L179.19,209.04 L179.63,209.79 L180.07,210.55 L180.51,211.30
		L180.95,212.04 L181.39,212.79 L181.83,213.53 L182.28,214.28 L182.72,215.02 L183.16,215.75 L183.60,216.49 L184.04,217.23
		L184.48,217.96 L184.92,218.69 L185.36,219.42 L185.80,220.15 L186.24,220.87 L186.68,221.59 L187.12,222.31 L187.56,223.03
		L188.00,223.75 L188.44,224.47 L188.88,225.18 L189.32,225.89 L189.76,226.60 L190.21,227.31 L190.65,228.02 L191.09,228.72
		L191.53,229.42 L191.97,230.12 L192.41,230.82 L192.85,231.52 L193.29,232.21 L193.73,232.91 L194.17,233.60 L194.61,234.29
		L195.05,234.98 L195.49,235.66 L195.93,236.34 L196.37,237.03 L196.81,237.71 L197.25,238.38 L197.69,239.06 L198.14,239.73
		L198.58,240.41 L199.02,241.08 L199.46,241.74 L199.90,242.41 L200.34,243.07 L200.78,243.74 L201.22,244.40 L201.66,245.06
		L202.10,245.71 L202.54,246.37 L202.98,247.02 L203.42,247.67 L203.86,248.32 L204.30,248.97 L204.74,249.62 L205.18,250.26
		L205.63,250.90 L206.07,251.54 L206.51,252.18 L206.95,252.82 L207.39,253.45 L207.83,254.08 L208.27,254.71 L208.71,255.34
		L209.15,255.97 L209.59,256.59 L210.03,257.22 L210.47,257.84 L210.91,258.46 L211.35,259.07 L211.79,259.69 L212.23,260.30
		L212.67,260.91 L213.11,261.52 L213.56,262.13 L214.00,262.74 L214.44,263.34 L214.88,263.94 L215.32,264.54 L215.76,265.14
		L216.20,265.74 L216.64,266.33 L217.08,266.92 L217.52,267.52 L217.96,268.10 L218.40,268.69 L218.84,269.28 L219.28,269.86
		L219.72,270.44 L220.16,271.02 L220.60,271.60 L221.04,272.17 L221.49,272.75 L221.93,273.32 L222.37,273.89 L222.81,274.46
		L223.25,275.02 L223.69,275.59 L224.13,276.15 L224.57,276.71 L225.01,277.27 L225.45,277.82 L225.89,278.38 L226.33,278.93
		L226.77,279.48 L227.21,280.03 L227.65,280.58 L228.09,281.12 L228.53,281.67 L228.98,282.21 L229.42,282.75 L229.86,283.29
		L230.30,283.82 L230.74,284.36 L231.18,284.89 L231.62,285.42 L232.06,285.95 L232.50,286.47 L232.94,287.00 L233.38,287.52
		L233.82,288.04 L234.26,288.56 L234.70,289.08 L235.14,289.59 L235.58,290.10 L236.02,290.62 L236.46,291.12 L236.91,291.63
		L237.35,292.14 L237.79,292.64 L238.23,293.14 L238.67,293.64 L239.11,294.14 L239.55,294.64 L239.99,295.13 L240.43,295.62
		L240.87,296.11 L241.31,296.60 L241.75,297.09 L242.19,297.57 L242.63,298.06 L243.07,298.54 L243.51,299.02 L243.95,299.49
		L244.40,299.97 L244.84,300.44 L245.28,300.91 L245.72,301.38 L246.16,301.85 L246.60,302.32 L247.04,302.78 L247.48,303.24
		L247.92,303.70 L248.36,304.16 L248.80,304.62 L249.24,305.07 L249.68,305.52 L250.12,305.97 L250.56,306.42 L251.00,306.87
		L251.44,307.31 L251.88,307.76 L252.33,308.20 L252.77,308.64 L253.21,309.07 L253.65,309.51 L254.09,309.94 L254.53,310.38
		L254.97,310.81 L255.41,311.23 L255.85,311.66 L256.29,312.08 L256.73,312.51 L257.17,312.93 L257.61,313.34 L258.05,313.76
		L258.49,314.18 L258.93,314.59 L259.37,315.00 L259.81,315.41 L260.26,315.81 L260.70,316.22 L261.14,316.62 L261.58,317.02
		L262.02,317.42 L262.46,317.82 L262.90,318.22 L263.34,318.61 L263.78,319.00 L264.22,319.39 L264.66,319.78 L265.10,320.17
		L265.54,320.55 L265.98,320.93 L266.42,321.31 L266.86,321.69 L267.30,322.07 L267.75,322.45 L268.19,322.82 L268.63,323.19
		L269.07,323.56 L269.51,323.93 L269.95,324.29 L270.39,324.65 L270.83,325.02 L271.27,325.38 L271.71,325.73 L272.15,326.09
		L272.59,326.44 L273.03,326.80 L273.47,327.15 L273.91,327.49 L274.35,327.84 L274.79,328.19 L275.23,328.53 L275.68,328.87
		L276.12,329.21 L276.56,329.55 L277.00,329.88 L277.44,330.21 L277.88,330.54 L278.32,330.87 L278.76,331.20 L279.20,331.53
		L279.64,331.85 L280.08,332.17 L280.52,332.49 L280.96,332.81 L281.40,333.13 L281.84,333.44 L282.28,333.75 L282.72,334.06
		L283.16,334.37 L283.61,334.68 L284.05,334.98 L284.49,335.29 L284.93,335.59 L285.37,335.89 L285.81,336.18 L286.25,336.48
		L286.69,336.77 L287.13,337.07 L287.57,337.35 L288.01,337.64 L288.45,337.93 L288.89,338.21 L289.33,338.49 L289.77,338.77
		L290.21,339.05 L290.65,339.33 L291.10,339.60 L291.54,339.88 L291.98,340.15 L292.42,340.42 L292.86,340.68 L293.30,340.95
		L293.74,341.21 L294.18,341.47 L294.62,341.73 L295.06,341.99 L295.50,342.25 L295.94,342.50 L296.38,342.75 L296.82,343.00
		L297.26,343.25 L297.70,343.49 L298.14,343.74 L298.58,343.98 L299.03,344.22 L299.47,344.46 L299.91,344.70 L300.35,344.93
		L300.79,345.16 L301.23,345.40 L301.67,345.62 L302.11,345.85 L302.55,346.08 L302.99,346.30 L303.43,346.52 L303.87,346.74
		L304.31,346.96 L304.75,347.18 L305.19,347.39 L305.63,347.60 L306.07,347.81 L306.51,348.02 L306.96,348.23 L307.40,348.43
		L307.84,348.63 L308.28,348.83 L308.72,349.03 L309.16,349.23 L309.60,349.42 L310.04,349.62 L310.48,349.81 L310.92,350.00
		L311.36,350.19 L311.80,350.37 L312.24,350.55 L312.68,350.74 L313.12,350.92 L313.56,351.09 L314.00,351.27 L314.45,351.44
		L314.89,351.62 L315.33,351.79 L315.77,351.96 L316.21,352.12 L316.65,352.29 L317.09,352.45 L317.53,352.61 L317.97,352.77
		L318.41,352.93 L318.85,353.08 L319.29,353.24 L319.73,353.39 L320.17,353.54 L320.61,353.68 L321.05,353.83 L321.49,353.97
		L321.93,354.12 L322.38,354.26 L322.82,354.39 L323.26,354.53 L323.70,354.67 L324.14,354.80 L324.58,354.93 L325.02,355.06
		L325.46,355.18 L325.90,355.31 L326.34,355.43 L326.78,355.55 L327.22,355.67 L327.66,355.79 L328.10,355.91 L328.54,356.02
		L328.98,356.13 L329.42,356.24 L329.86,356.35 L330.31,356.45 L330.75,356.56 L331.19,356.66 L331.63,356.76 L332.07,356.86
		L332.51,356.96 L332.95,357.05 L333.39,357.14 L333.83,357.23 L334.27,357.32 L334.71,357.41 L335.15,357.50 L335.59,357.58
		L336.03,357.66 L336.47,357.74 L336.91,357.82 L337.35,357.89 L337.80,357.97 L338.24,358.04 L338.68,358.11 L339.12,358.18
		L339.56,358.24 L340.00,358.31 L340.44,358.37 L340.88,358.43 L341.32,358.49 L341.76,358.55 L342.20,358.60 L342.64,358.65
		L343.08,358.71 L343.52,358.75 L343.96,358.80 L344.40,358.85 L344.84,358.89 L345.28,358.93 L345.73,358.97 L346.17,359.01
		L346.61,359.05 L347.05,359.08 L347.49,359.11 L347.93,359.14 L348.37,359.17 L348.81,359.20 L349.25,359.22 L349.69,359.25
		L350.13,359.27 L350.57,359.28 L351.01,359.30 L351.45,359.32 L351.89,359.33 L352.33,359.34 L352.77,359.35 L353.21,359.36
		L353.66,359.36 L354.10,359.37 L354.54,359.37 L354.98,359.37 L355.42,359.37 L355.86,359.36 L356.30,359.36 L356.74,359.35
		L357.18,359.34 L357.62,359.33 L358.06,359.32 L358.50,359.30 L358.94,359.28 L359.38,359.27 L359.82,359.25 L360.26,359.22
		L360.70,359.20 L361.15,359.17 L361.59,359.14 L362.03,359.11 L362.47,359.08 L362.91,359.05 L363.35,359.01 L363.79,358.97
		L364.23,358.93 L364.67,358.89 L365.11,358.85 L365.55,358.80 L365.99,358.75 L366.43,358.71 L366.87,358.65 L367.31,358.60
		L367.75,358.55 L368.19,358.49 L368.63,358.43 L369.08,358.37 L369.52,358.31 L369.96,358.24 L370.40,358.18 L370.84,358.11
		L371.28,358.04 L371.72,357.97 L372.16,357.89 L372.60,357.82 L373.04,357.74 L373.48,357.66 L373.92,357.58 L374.36,357.50
		L374.80,357.41 L375.24,357.32 L375.68,357.23 L376.12,357.14 L376.57,357.05 L377.01,356.96 L377.45,356.86 L377.89,356.76
		L378.33,356.66 L378.77,356.56 L379.21,356.45 L379.65,356.35 L380.09,356.24 L380.53,356.13 L380.97,356.02 L381.41,355.91
		L381.85,355.79 L382.29,355.67 L382.73,355.55 L383.17,355.43 L383.61,355.31 L384.05,355.18 L384.50,355.06 L384.94,354.93
		L385.38,354.80 L385.82,354.67 L386.26,354.53 L386.70,354.39 L387.14,354.26 L387.58,354.12 L388.02,353.97 L388.46,353.83
		L388.90,353.68 L389.34,353.54 L389.78,353.39 L390.22,353.24 L390.66,353.08 L391.10,352.93 L391.54,352.77 L391.98,352.61
		L392.43,352.45 L392.87,352.29 L393.31,352.12 L393.75,351.96 L394.19,351.79 L394.63,351.62 L395.07,351.44 L395.51,351.27
		L395.95,351.09 L396.39,350.92 L396.83,350.74 L397.27,350.55 L397.71,350.37 L398.15,350.19 L398.59,350.00 L399.03,349.81
		L399.47,349.62 L399.92,349.42 L400.36,349.23 L400.80,349.03 L401.24,348.83 L401.68,348.63 L402.12,348.43 L402.56,348.23
		L403.00,348.02 L403.44,347.81 L403.88,347.60 L404.32,347.39 L404.76,347.18 L405.20,346.96 L405.64,346.74 L406.08,346.52
		L406.52,346.30 L406.96,346.08 L407.40,345.85 L407.85,345.62 L408.29,345.40 L408.73,345.16 L409.17,344.93 L409.61,344.70
		L410.05,344.46 L410.49,344.22 L410.93,343.98 L411.37,343.74 L411.81,343.49 L412.25,343.25 L412.69,343.00 L413.13,342.75
		L413.57,342.50 L414.01,342.25 L414.45,341.99 L414.89,341.73 L415.33,341.47 L415.78,341.21 L416.22,340.95 L416.66,340.68
		L417.10,340.42 L417.54,340.15 L417.98,339.88 L418.42,339.60 L418.86,339.33 L419.30,339.05 L419.74,338.77 L420.18,338.49
		L420.62,338.21 L421.06,337.93 L421.50,337.64 L421.94,337.35 L422.38,337.07 L422.82,336.77 L423.27,336.48 L423.71,336.18
		L424.15,335.89 L424.59,335.59 L425.03,335.29 L425.47,334.98 L425.91,334.68 L426.35,334.37 L426.79,334.06 L427.23,333.75
		L427.67,333.44 L428.11,333.13 L428.55,332.81 L428.99,332.49 L429.43,332.17 L429.87,331.85 L430.31,331.53 L430.75,331.20
		L431.20,330.87 L431.64,330.54 L432.08,330.21 L432.52,329.88 L432.96,329.55 L433.40,329.21 L433.84,328.87 L434.28,328.53
		L434.72,328.19 L435.16,327.84 L435.60,327.49 L436.04,327.15 L436.48,326.80 L436.92,326.44 L437.36,326.09 L437.80,325.73
		L438.24,325.38 L438.68,325.02 L439.13,324.65 L439.57,324.29 L440.01,323.93 L440.45,323.56 L440.89,323.19 L441.33,322.82
		L441.77,322.45 L442.21,322.07 L442.65,321.69 L443.09,321.31 L443.53,320.93 L443.97,320.55 L444.41,320.17 L444.85,319.78
		L445.29,319.39 L445.73,319.00 L446.17,318.61 L446.62,318.22 L447.06,317.82 L447.50,317.42 L447.94,317.02 L448.38,316.62
		L448.82,316.22 L449.26,315.81 L449.70,315.41 L450.14,315.00 L450.58,314.59 L451.02,314.18 L451.46,313.76 L451.90,313.34
		L452.34,312.93 L452.78,312.51 L453.22,312.08 L453.66,311.66 L454.10,311.23 L454.55,310.81 L454.99,310.38 L455.43,309.94
		L455.87,309.51 L456.31,309.07 L456.75,308.64 L457.19,308.20 L457.63,307.76 L458.07,307.31 L458.51,306.87 L458.95,306.42
		L459.39,305.97 L459.83,305.52 L460.27,305.07 L460.71,304.62 L461.15,304.16 L461.59,303.70 L462.03,303.24 L462.48,302.78
		L462.92,302.32 L463.36,301.85 L463.80,301.38 L464.24,300.91 L464.68,300.44 L465.12,299.97 L465.56,299.49 L466.00,299.02
		L466.44,298.54 L466.88,298.06 L467.32,297.57 L467.76,297.09 L468.20,296.60 L468.64,296.11 L469.08,295.62 L469.52,295.13
		L469.97,294.64 L470.41,294.14 L470.85,293.64 L471.29,293.14 L471.73,292.64 L472.17,292.14 L472.61,291.63 L473.05,291.12
		L473.49,290.62 L473.93,290.10 L474.37,289.59 L474.81,289.08 L475.25,288.56 L475.69,288.04 L476.13,287.52 L476.57,287.00
		L477.01,286.47 L477.45,285.95 L477.90,285.42 L478.34,284.89 L478.78,284.36 L479.22,283.82 L479.66,283.29 L480.10,282.75
		L480.54,282.21 L480.98,281.67 L481.42,281.12 L481.86,280.58 L482.30,280.03 L482.74,279.48 L483.18,278.93 L483.62,278.38
		L484.06,277.82 L484.50,277.27 L484.94,276.71 L485.38,276.15 L485.83,275.59 L486.27,275.02 L486.71,274.46 L487.15,273.89
		L487.59,273.32 L488.03,272.75 L488.47,272.17 L488.91,271.60 L489.35,271.02 L489.79,270.44 L490.23,269.86 L490.67,269.28
		L491.11,268.69 L491.55,268.10 L491.99,267.52 L492.43,266.92 L492.87,266.33 L493.32,265.74 L493.76,265.14 L494.20,264.54
		L494.64,263.94 L495.08,263.34 L495.52,262.74 L495.96,262.13 L496.40,261.52 L496.84,260.91 L497.28,260.30 L497.72,259.69
		L498.16,259.07 L498.60,258.46 L499.04,257.84 L499.48,257.22 L499.92,256.59 L500.36,255.97 L500.80,255.34 L501.25,254.71
		L501.69,254.08 L502.13,253.45 L502.57,252.82 L503.01,252.18 L503.45,251.54 L503.89,250.90 L504.33,250.26 L504.77,249.62
		L505.21,248.97 L505.65,248.32 L506.09,247.67 L506.53,247.02 L506.97,246.37 L507.41,245.71 L507.85,245.06 L508.29,244.40
		L508.74,243.74 L509.18,243.07 L509.62,242.41 L510.06,241.74 L510.50,241.08 L510.94,240.41 L511.38,239.73 L511.82,239.06
		L512.26,238.38 L512.70,237.71 L513.14,237.03 L513.58,236.34 L514.02,235.66 L514.46,234.98 L514.90,234.29 L515.34,233.60
		L515.78,232.91 L516.22,232.21 L516.67,231.52 L517.11,230.82 L517.55,230.12 L517.99,229.42 L518.43,228.72 L518.87,228.02
		L519.31,227.31 L519.75,226.60 L520.19,225.89 L520.63,225.18 L521.07,224.47 L521.51,223.75 L521.95,223.03 L522.39,222.31
		L522.83,221.59 L523.27,220.87 L523.71,220.15 L524.15,219.42 L524.60,218.69 L525.04,217.96 L525.48,217.23 L525.92,216.49
		L526.36,215.75 L526.80,215.02 L527.24,214.28 L527.68,213.53 L528.12,212.79 L528.56,212.04 L529.00,211.30 L529.44,210.55
		L529.88,209.79 L530.32,209.04 L530.76,208.29  '/></g>
	</g>
<g fill="none" color="white" stroke="rgb( 86, 180, 233)" stroke-width="2.00" stroke-linecap="butt" stroke-linejoin="miter">
</g>
<g fill="none" color="black" stroke="currentColor" stroke-width="2.00" stroke-linecap="butt" stroke-linejoin="miter">
</g>
<g fill="none" color="black" stroke="black" stroke-width="1.00" stroke-linecap="butt" stroke-linejoin="miter">
</g>
<g fill="none" color="black" stroke="currentColor" stroke-width="1.00" stroke-linecap="butt" stroke-linejoin="miter">
	<path stroke='black'  d='M46.14,18.01 L46.14,444.00 L574.82,444.00 L574.82,18.01 L46.14,18.01 Z  '/></g>
<g fill="none" color="black" stroke="currentColor" stroke-width="1.00" stroke-linecap="butt" stroke-linejoin="miter">
</g>
</g>
</svg>

