<?xml version="1.0" encoding="UTF-8" standalone="no"?>
<svg
   xmlns:dc="http://purl.org/dc/elements/1.1/"
   xmlns:cc="http://creativecommons.org/ns#"
   xmlns:rdf="http://www.w3.org/1999/02/22-rdf-syntax-ns#"
   xmlns:svg="http://www.w3.org/2000/svg"
   xmlns="http://www.w3.org/2000/svg"
   xmlns:xlink="http://www.w3.org/1999/xlink"
   xmlns:sodipodi="http://sodipodi.sourceforge.net/DTD/sodipodi-0.dtd"
   xmlns:inkscape="http://www.inkscape.org/namespaces/inkscape"
   width="420"
   height="420"
   viewBox="0 0 420 420"
   id="svg3103"
   version="1.1"
   inkscape:version="0.48.4 r9939"
   sodipodi:docname="Integral_approximations.svg">
  <metadata
     id="metadata3219">
    <rdf:RDF>
      <cc:Work
         rdf:about="">
        <dc:format>image/svg+xml</dc:format>
        <dc:type
           rdf:resource="http://purl.org/dc/dcmitype/StillImage" />
      </cc:Work>
    </rdf:RDF>
  </metadata>
  <sodipodi:namedview
     pagecolor="#ffffff"
     bordercolor="#666666"
     borderopacity="1"
     objecttolerance="10"
     gridtolerance="10"
     guidetolerance="10"
     inkscape:pageopacity="0"
     inkscape:pageshadow="2"
     inkscape:window-width="931"
     inkscape:window-height="761"
     id="namedview3217"
     showgrid="false"
     inkscape:zoom="0.56190477"
     inkscape:cx="419.93663"
     inkscape:cy="330.57151"
     inkscape:window-x="0"
     inkscape:window-y="0"
     inkscape:window-maximized="0"
     inkscape:current-layer="g3205" />
  <!-- Produced by GNUPLOT 4.2 patchlevel 0, then edited by hand -->
  <title
     id="title3105">Integral approximations</title>
  <desc
     id="desc3107">Plot of approximations to integral of sqrt(x) from 0 to 1, with 5 right samples (above) and 12 left samples (below)</desc>
  <!-- Also illustrates upper and lower Darboux sums -->
  <defs
     id="defs3109">
    <circle
       id="gpDot"
       r="1" />
    <path
       id="gpPt0"
       style="stroke-width:0.222"
       d="M-1,0 h2 M0,-1 v2" />
    <path
       id="gpPt1"
       style="stroke-width:0.222"
       d="M-1,-1 L1,1 M1,-1 L-1,1" />
    <path
       id="gpPt2"
       style="stroke-width:0.222"
       d="M-1,0 L1,0 M0,-1 L0,1 M-1,-1 L1,1 M-1,1 L1,-1" />
    <rect
       id="gpPt3"
       style="stroke-width:0.222"
       x="-1"
       y="-1"
       width="2"
       height="2" />
    <use
       xlink:href="#gpPt3"
       id="gpPt4"
       style="fill:currentColor; stroke:none" />
    <circle
       id="gpPt5"
       style="stroke-width:0.222"
       cx="0"
       cy="0"
       r="1" />
    <use
       xlink:href="#gpPt5"
       id="gpPt6"
       style="fill:currentColor; stroke:none" />
    <path
       id="gpPt7"
       style="stroke-width:0.222"
       d="M0,-1.33 L-1.33,0.67 L1.33,0.67 z" />
    <use
       xlink:href="#gpPt7"
       id="gpPt8"
       style="fill:currentColor; stroke:none" />
    <use
       xlink:href="#gpPt7"
       id="gpPt9"
       transform="rotate(180)" />
    <use
       xlink:href="#gpPt9"
       id="gpPt10"
       style="fill:currentColor; stroke:none" />
    <use
       xlink:href="#gpPt3"
       id="gpPt11"
       transform="rotate(45)" />
    <use
       xlink:href="#gpPt11"
       id="gpPt12"
       style="fill:currentColor; stroke:none" />
  </defs>
  <g
     style="fill:none; color:black; stroke:currentColor; stroke-width:1.00; stroke-linecap:butt; stroke-linejoin:miter"
     id="g3125">
    <path
       d="M58.8,368.1 L49.8,368.1 M394.4,368.1 L403.4,368.1 "
       id="path3127" />
    <g
       transform="translate(41.5,372.6)"
       style="stroke:none; fill:black; font-family:Bitstream Vera Sans; font-size:20.00; text-anchor:end"
       id="g3129">
      <text
         id="text3131"> 0</text>
    </g>
    <path
       d="M58.8,301.0 L49.8,301.0 M394.4,301.0 L403.4,301.0 "
       id="path3133" />
    <g
       transform="translate(41.5,305.5)"
       style="stroke:none; fill:black; font-family:Bitstream Vera Sans; font-size:20.00; text-anchor:end"
       id="g3135">
      <text
         id="text3137"> 0.2</text>
    </g>
    <path
       d="M58.8,233.9 L49.8,233.9 M394.4,233.9 L403.4,233.9 "
       id="path3139" />
    <g
       transform="translate(41.5,238.4)"
       style="stroke:none; fill:black; font-family:Bitstream Vera Sans; font-size:20.00; text-anchor:end"
       id="g3141">
      <text
         id="text3143"> 0.4</text>
    </g>
    <path
       d="M58.8,166.7 L49.8,166.7 M394.4,166.7 L403.4,166.7 "
       id="path3145" />
    <g
       transform="translate(41.5,171.2)"
       style="stroke:none; fill:black; font-family:Bitstream Vera Sans; font-size:20.00; text-anchor:end"
       id="g3147">
      <text
         id="text3149"> 0.6</text>
    </g>
    <path
       d="M58.8,99.6 L49.8,99.6 M394.4,99.6 L403.4,99.6 "
       id="path3151" />
    <g
       transform="translate(41.5,104.1)"
       style="stroke:none; fill:black; font-family:Bitstream Vera Sans; font-size:20.00; text-anchor:end"
       id="g3153">
      <text
         id="text3155"> 0.8</text>
    </g>
    <path
       d="M58.8,32.5 L49.8,32.5 M394.4,32.5 L403.4,32.5 "
       id="path3157" />
    <g
       transform="translate(41.5,37.0)"
       style="stroke:none; fill:black; font-family:Bitstream Vera Sans; font-size:20.00; text-anchor:end"
       id="g3159">
      <text
         id="text3161"> 1</text>
    </g>
    <path
       d="M58.8,368.1 L58.8,377.1 M58.8,32.5 L58.8,23.5 "
       id="path3163" />
    <g
       transform="translate(58.8,399.6)"
       style="stroke:none; fill:black; font-family:Bitstream Vera Sans; font-size:20.00; text-anchor:middle"
       id="g3165">
      <text
         id="text3167"> 0</text>
    </g>
    <path
       d="M125.9,368.1 L125.9,377.1 M125.9,32.5 L125.9,23.5 "
       id="path3169" />
    <g
       transform="translate(125.9,399.6)"
       style="stroke:none; fill:black; font-family:Bitstream Vera Sans; font-size:20.00; text-anchor:middle"
       id="g3171">
      <text
         id="text3173"> 0.2</text>
    </g>
    <path
       d="M193.0,368.1 L193.0,377.1 M193.0,32.5 L193.0,23.5 "
       id="path3175" />
    <g
       transform="translate(193.0,399.6)"
       style="stroke:none; fill:black; font-family:Bitstream Vera Sans; font-size:20.00; text-anchor:middle"
       id="g3177">
      <text
         id="text3179"> 0.4</text>
    </g>
    <path
       d="M260.2,368.1 L260.2,377.1 M260.2,32.5 L260.2,23.5 "
       id="path3181" />
    <g
       transform="translate(260.2,399.6)"
       style="stroke:none; fill:black; font-family:Bitstream Vera Sans; font-size:20.00; text-anchor:middle"
       id="g3183">
      <text
         id="text3185"> 0.6</text>
    </g>
    <path
       d="M327.3,368.1 L327.3,377.1 M327.3,32.5 L327.3,23.5 "
       id="path3187" />
    <g
       transform="translate(327.3,399.6)"
       style="stroke:none; fill:black; font-family:Bitstream Vera Sans; font-size:20.00; text-anchor:middle"
       id="g3189">
      <text
         id="text3191"> 0.8</text>
    </g>
    <path
       d="M394.4,368.1 L394.4,377.1 M394.4,32.5 L394.4,23.5 "
       id="path3193" />
    <g
       transform="translate(394.4,399.6)"
       style="stroke:none; fill:black; font-family:Bitstream Vera Sans; font-size:20.00; text-anchor:middle"
       id="g3195">
      <text
         id="text3197"> 1</text>
    </g>
    <path
       d="M58.8,32.5 L58.8,368.1 L394.4,368.1 L394.4,32.5 L58.8,32.5 Z "
       id="path3199" />
  </g>
  <g
     style="fill:currentColor; color:#fec200; stroke:black; stroke-width:2.00; stroke-linecap:butt; stroke-linejoin:miter"
     id="g3201">
    <path
       d="    M 58.8000, 368.1000 H 125.9200 V 218.0200 H 58.8000 Z    M 125.9200, 368.1000 H 193.0400 V 155.8500 H 125.9200 Z    M 193.0400, 368.1000 H 260.1600 V 108.1500 H 193.0400 Z    M 260.1600, 368.1000 H 327.2800 V 67.9300 H 260.1600 Z    M 327.2800, 368.1000 H 394.4000 V 32.5000 H 327.2800 Z    "
       id="path3203" />
  </g>
  <g
     style="fill:currentColor; color:#009246; stroke:black; stroke-width:2.00; stroke-linecap:butt; stroke-linejoin:miter"
     id="g3205">
    <path
       d="    M 58.8000, 368.1000 H 86.7670 V 368.1000 H 58.8000 Z    M 86.7670, 368.1000 H 114.7300 V 271.2200 H 86.7670 Z    M 114.7300, 368.1000 H 142.7000 V 231.0900 H 114.7300 Z    M 142.7000, 368.1000 H 170.6700 V 200.3000 H 142.7000 Z    M 170.6700, 368.1000 H 198.6300 V 174.3400 H 170.6700 Z    M 198.6300, 368.1000 H 226.6000 V 151.4700 H 198.6300 Z    M 226.6000, 368.1000 H 254.5700 V 130.7900 H 226.6000 Z    M 254.5700, 368.1000 H 282.5300 V 111.7800 H 254.5700 Z    M 282.5300, 368.1000 H 310.5000 V 94.0840 H 282.5300 Z    M 310.5000, 368.1000 H 338.4700 V 77.4620 H 310.5000 Z    M 338.4700, 368.1000 H 366.4300 V 61.7410 H 338.4700 Z    M 366.4300, 368.1000 H 394.4000 V 46.7870 H 366.4300 Z    "
       id="path3207" />
    <rect
       style="opacity:0.90979997;fill:#009246;fill-opacity:1;stroke:#000000;stroke-width:2.49999976;stroke-linecap:round;stroke-linejoin:round;stroke-miterlimit:4;stroke-opacity:1;stroke-dasharray:none;stroke-dashoffset:0"
       id="rect3221"
       width="26.25"
       height="0.50048071"
       x="60.508476"
       y="-367.29495"
       transform="scale(1,-1)" />
  </g>
  <g
     style="fill:none; color:black; stroke:currentColor; stroke-width:4.00; stroke-linecap:butt; stroke-linejoin:miter"
     id="g3209">
    <path
       d="M58.8,368.1 Q58.8,200.3 394.4,32.5"
       id="path3211" />
  </g>
  <g
     style="fill:none; color:black; stroke:currentColor; stroke-width:1.00; stroke-linecap:butt; stroke-linejoin:miter"
     id="g3213">
    <path
       d="M58.8,32.5 L58.8,368.1 L394.4,368.1 L394.4,32.5 L58.8,32.5 Z "
       id="path3215" />
  </g>
</svg>
