<?xml version="1.0" encoding="utf-8" standalone="no"?>
<!DOCTYPE svg PUBLIC "-//W3C//DTD SVG 1.1//EN"
  "http://www.w3.org/Graphics/SVG/1.1/DTD/svg11.dtd">
<svg xmlns:xlink="http://www.w3.org/1999/xlink" width="460.8pt" height="345.6pt" viewBox="0 0 460.8 345.6" xmlns="http://www.w3.org/2000/svg" version="1.1">
 <metadata>
  <rdf:RDF xmlns:dc="http://purl.org/dc/elements/1.1/" xmlns:cc="http://creativecommons.org/ns#" xmlns:rdf="http://www.w3.org/1999/02/22-rdf-syntax-ns#">
   <cc:Work>
    <dc:type rdf:resource="http://purl.org/dc/dcmitype/StillImage"/>
    <dc:date>2024-11-27T13:40:53.656022</dc:date>
    <dc:format>image/svg+xml</dc:format>
    <dc:creator>
     <cc:Agent>
      <dc:title>Matplotlib v3.9.2, https://matplotlib.org/</dc:title>
     </cc:Agent>
    </dc:creator>
   </cc:Work>
  </rdf:RDF>
 </metadata>
 <defs>
  <style type="text/css">*{stroke-linejoin: round; stroke-linecap: butt}</style>
 </defs>
 <g id="figure_1">
  <g id="patch_1">
   <path d="M 0 345.6 
L 460.8 345.6 
L 460.8 0 
L 0 0 
z
" style="fill: #ffffff"/>
  </g>
  <g id="axes_1">
   <g id="patch_2">
    <path d="M 57.6 307.584 
L 414.72 307.584 
L 414.72 41.472 
L 57.6 41.472 
z
" style="fill: #ffffff"/>
   </g>
   <g id="matplotlib.axis_1">
    <g id="xtick_1">
     <g id="line2d_1">
      <defs>
       <path id="m52bbcdf0ef" d="M 0 0 
L 0 3.5 
" style="stroke: #000000; stroke-width: 0.8"/>
      </defs>
      <g>
       <use xlink:href="#m52bbcdf0ef" x="73.832727" y="307.584" style="stroke: #000000; stroke-width: 0.8"/>
      </g>
     </g>
     <g id="text_1">
      <!-- 0 -->
      <g transform="translate(70.651477 322.182437) scale(0.1 -0.1)">
       <defs>
        <path id="DejaVuSans-30" d="M 2034 4250 
Q 1547 4250 1301 3770 
Q 1056 3291 1056 2328 
Q 1056 1369 1301 889 
Q 1547 409 2034 409 
Q 2525 409 2770 889 
Q 3016 1369 3016 2328 
Q 3016 3291 2770 3770 
Q 2525 4250 2034 4250 
z
M 2034 4750 
Q 2819 4750 3233 4129 
Q 3647 3509 3647 2328 
Q 3647 1150 3233 529 
Q 2819 -91 2034 -91 
Q 1250 -91 836 529 
Q 422 1150 422 2328 
Q 422 3509 836 4129 
Q 1250 4750 2034 4750 
z
" transform="scale(0.015625)"/>
       </defs>
       <use xlink:href="#DejaVuSans-30"/>
      </g>
     </g>
    </g>
    <g id="xtick_2">
     <g id="line2d_2">
      <g>
       <use xlink:href="#m52bbcdf0ef" x="117.12" y="307.584" style="stroke: #000000; stroke-width: 0.8"/>
      </g>
     </g>
     <g id="text_2">
      <!-- 2 -->
      <g transform="translate(113.93875 322.182437) scale(0.1 -0.1)">
       <defs>
        <path id="DejaVuSans-32" d="M 1228 531 
L 3431 531 
L 3431 0 
L 469 0 
L 469 531 
Q 828 903 1448 1529 
Q 2069 2156 2228 2338 
Q 2531 2678 2651 2914 
Q 2772 3150 2772 3378 
Q 2772 3750 2511 3984 
Q 2250 4219 1831 4219 
Q 1534 4219 1204 4116 
Q 875 4013 500 3803 
L 500 4441 
Q 881 4594 1212 4672 
Q 1544 4750 1819 4750 
Q 2544 4750 2975 4387 
Q 3406 4025 3406 3419 
Q 3406 3131 3298 2873 
Q 3191 2616 2906 2266 
Q 2828 2175 2409 1742 
Q 1991 1309 1228 531 
z
" transform="scale(0.015625)"/>
       </defs>
       <use xlink:href="#DejaVuSans-32"/>
      </g>
     </g>
    </g>
    <g id="xtick_3">
     <g id="line2d_3">
      <g>
       <use xlink:href="#m52bbcdf0ef" x="160.407273" y="307.584" style="stroke: #000000; stroke-width: 0.8"/>
      </g>
     </g>
     <g id="text_3">
      <!-- 4 -->
      <g transform="translate(157.226023 322.182437) scale(0.1 -0.1)">
       <defs>
        <path id="DejaVuSans-34" d="M 2419 4116 
L 825 1625 
L 2419 1625 
L 2419 4116 
z
M 2253 4666 
L 3047 4666 
L 3047 1625 
L 3713 1625 
L 3713 1100 
L 3047 1100 
L 3047 0 
L 2419 0 
L 2419 1100 
L 313 1100 
L 313 1709 
L 2253 4666 
z
" transform="scale(0.015625)"/>
       </defs>
       <use xlink:href="#DejaVuSans-34"/>
      </g>
     </g>
    </g>
    <g id="xtick_4">
     <g id="line2d_4">
      <g>
       <use xlink:href="#m52bbcdf0ef" x="203.694545" y="307.584" style="stroke: #000000; stroke-width: 0.8"/>
      </g>
     </g>
     <g id="text_4">
      <!-- 6 -->
      <g transform="translate(200.513295 322.182437) scale(0.1 -0.1)">
       <defs>
        <path id="DejaVuSans-36" d="M 2113 2584 
Q 1688 2584 1439 2293 
Q 1191 2003 1191 1497 
Q 1191 994 1439 701 
Q 1688 409 2113 409 
Q 2538 409 2786 701 
Q 3034 994 3034 1497 
Q 3034 2003 2786 2293 
Q 2538 2584 2113 2584 
z
M 3366 4563 
L 3366 3988 
Q 3128 4100 2886 4159 
Q 2644 4219 2406 4219 
Q 1781 4219 1451 3797 
Q 1122 3375 1075 2522 
Q 1259 2794 1537 2939 
Q 1816 3084 2150 3084 
Q 2853 3084 3261 2657 
Q 3669 2231 3669 1497 
Q 3669 778 3244 343 
Q 2819 -91 2113 -91 
Q 1303 -91 875 529 
Q 447 1150 447 2328 
Q 447 3434 972 4092 
Q 1497 4750 2381 4750 
Q 2619 4750 2861 4703 
Q 3103 4656 3366 4563 
z
" transform="scale(0.015625)"/>
       </defs>
       <use xlink:href="#DejaVuSans-36"/>
      </g>
     </g>
    </g>
    <g id="xtick_5">
     <g id="line2d_5">
      <g>
       <use xlink:href="#m52bbcdf0ef" x="246.981818" y="307.584" style="stroke: #000000; stroke-width: 0.8"/>
      </g>
     </g>
     <g id="text_5">
      <!-- 8 -->
      <g transform="translate(243.800568 322.182437) scale(0.1 -0.1)">
       <defs>
        <path id="DejaVuSans-38" d="M 2034 2216 
Q 1584 2216 1326 1975 
Q 1069 1734 1069 1313 
Q 1069 891 1326 650 
Q 1584 409 2034 409 
Q 2484 409 2743 651 
Q 3003 894 3003 1313 
Q 3003 1734 2745 1975 
Q 2488 2216 2034 2216 
z
M 1403 2484 
Q 997 2584 770 2862 
Q 544 3141 544 3541 
Q 544 4100 942 4425 
Q 1341 4750 2034 4750 
Q 2731 4750 3128 4425 
Q 3525 4100 3525 3541 
Q 3525 3141 3298 2862 
Q 3072 2584 2669 2484 
Q 3125 2378 3379 2068 
Q 3634 1759 3634 1313 
Q 3634 634 3220 271 
Q 2806 -91 2034 -91 
Q 1263 -91 848 271 
Q 434 634 434 1313 
Q 434 1759 690 2068 
Q 947 2378 1403 2484 
z
M 1172 3481 
Q 1172 3119 1398 2916 
Q 1625 2713 2034 2713 
Q 2441 2713 2670 2916 
Q 2900 3119 2900 3481 
Q 2900 3844 2670 4047 
Q 2441 4250 2034 4250 
Q 1625 4250 1398 4047 
Q 1172 3844 1172 3481 
z
" transform="scale(0.015625)"/>
       </defs>
       <use xlink:href="#DejaVuSans-38"/>
      </g>
     </g>
    </g>
    <g id="xtick_6">
     <g id="line2d_6">
      <g>
       <use xlink:href="#m52bbcdf0ef" x="290.269091" y="307.584" style="stroke: #000000; stroke-width: 0.8"/>
      </g>
     </g>
     <g id="text_6">
      <!-- 10 -->
      <g transform="translate(283.906591 322.182437) scale(0.1 -0.1)">
       <defs>
        <path id="DejaVuSans-31" d="M 794 531 
L 1825 531 
L 1825 4091 
L 703 3866 
L 703 4441 
L 1819 4666 
L 2450 4666 
L 2450 531 
L 3481 531 
L 3481 0 
L 794 0 
L 794 531 
z
" transform="scale(0.015625)"/>
       </defs>
       <use xlink:href="#DejaVuSans-31"/>
       <use xlink:href="#DejaVuSans-30" x="63.623047"/>
      </g>
     </g>
    </g>
    <g id="xtick_7">
     <g id="line2d_7">
      <g>
       <use xlink:href="#m52bbcdf0ef" x="333.556364" y="307.584" style="stroke: #000000; stroke-width: 0.8"/>
      </g>
     </g>
     <g id="text_7">
      <!-- 12 -->
      <g transform="translate(327.193864 322.182437) scale(0.1 -0.1)">
       <use xlink:href="#DejaVuSans-31"/>
       <use xlink:href="#DejaVuSans-32" x="63.623047"/>
      </g>
     </g>
    </g>
    <g id="xtick_8">
     <g id="line2d_8">
      <g>
       <use xlink:href="#m52bbcdf0ef" x="376.843636" y="307.584" style="stroke: #000000; stroke-width: 0.8"/>
      </g>
     </g>
     <g id="text_8">
      <!-- 14 -->
      <g transform="translate(370.481136 322.182437) scale(0.1 -0.1)">
       <use xlink:href="#DejaVuSans-31"/>
       <use xlink:href="#DejaVuSans-34" x="63.623047"/>
      </g>
     </g>
    </g>
   </g>
   <g id="matplotlib.axis_2">
    <g id="ytick_1">
     <g id="line2d_9">
      <defs>
       <path id="mc8c125fc7a" d="M 0 0 
L -3.5 0 
" style="stroke: #000000; stroke-width: 0.8"/>
      </defs>
      <g>
       <use xlink:href="#mc8c125fc7a" x="57.6" y="301.068361" style="stroke: #000000; stroke-width: 0.8"/>
      </g>
     </g>
     <g id="text_9">
      <!-- 0 -->
      <g transform="translate(44.2375 304.86758) scale(0.1 -0.1)">
       <use xlink:href="#DejaVuSans-30"/>
      </g>
     </g>
    </g>
    <g id="ytick_2">
     <g id="line2d_10">
      <g>
       <use xlink:href="#mc8c125fc7a" x="57.6" y="245.264749" style="stroke: #000000; stroke-width: 0.8"/>
      </g>
     </g>
     <g id="text_10">
      <!-- 1 -->
      <g transform="translate(44.2375 249.063968) scale(0.1 -0.1)">
       <use xlink:href="#DejaVuSans-31"/>
      </g>
     </g>
    </g>
    <g id="ytick_3">
     <g id="line2d_11">
      <g>
       <use xlink:href="#mc8c125fc7a" x="57.6" y="189.461137" style="stroke: #000000; stroke-width: 0.8"/>
      </g>
     </g>
     <g id="text_11">
      <!-- 2 -->
      <g transform="translate(44.2375 193.260355) scale(0.1 -0.1)">
       <use xlink:href="#DejaVuSans-32"/>
      </g>
     </g>
    </g>
    <g id="ytick_4">
     <g id="line2d_12">
      <g>
       <use xlink:href="#mc8c125fc7a" x="57.6" y="133.657524" style="stroke: #000000; stroke-width: 0.8"/>
      </g>
     </g>
     <g id="text_12">
      <!-- 3 -->
      <g transform="translate(44.2375 137.456743) scale(0.1 -0.1)">
       <defs>
        <path id="DejaVuSans-33" d="M 2597 2516 
Q 3050 2419 3304 2112 
Q 3559 1806 3559 1356 
Q 3559 666 3084 287 
Q 2609 -91 1734 -91 
Q 1441 -91 1130 -33 
Q 819 25 488 141 
L 488 750 
Q 750 597 1062 519 
Q 1375 441 1716 441 
Q 2309 441 2620 675 
Q 2931 909 2931 1356 
Q 2931 1769 2642 2001 
Q 2353 2234 1838 2234 
L 1294 2234 
L 1294 2753 
L 1863 2753 
Q 2328 2753 2575 2939 
Q 2822 3125 2822 3475 
Q 2822 3834 2567 4026 
Q 2313 4219 1838 4219 
Q 1578 4219 1281 4162 
Q 984 4106 628 3988 
L 628 4550 
Q 988 4650 1302 4700 
Q 1616 4750 1894 4750 
Q 2613 4750 3031 4423 
Q 3450 4097 3450 3541 
Q 3450 3153 3228 2886 
Q 3006 2619 2597 2516 
z
" transform="scale(0.015625)"/>
       </defs>
       <use xlink:href="#DejaVuSans-33"/>
      </g>
     </g>
    </g>
    <g id="ytick_5">
     <g id="line2d_13">
      <g>
       <use xlink:href="#mc8c125fc7a" x="57.6" y="77.853912" style="stroke: #000000; stroke-width: 0.8"/>
      </g>
     </g>
     <g id="text_13">
      <!-- 4 -->
      <g transform="translate(44.2375 81.653131) scale(0.1 -0.1)">
       <use xlink:href="#DejaVuSans-34"/>
      </g>
     </g>
    </g>
   </g>
   <g id="line2d_14">
    <path d="M 73.832727 295.488 
L 75.997091 294.165584 
L 77.945018 292.711659 
L 79.892945 290.956851 
L 81.624436 289.098388 
L 83.355927 286.911652 
L 85.087418 284.34631 
L 86.818909 281.347728 
L 88.5504 277.858097 
L 90.281891 273.818295 
L 92.013382 269.170682 
L 93.744873 263.862973 
L 95.476364 257.853257 
L 97.424291 250.22239 
L 99.372218 241.671241 
L 101.536582 231.153082 
L 104.133818 217.342594 
L 108.246109 193.999391 
L 111.709091 174.763383 
L 113.873455 163.875455 
L 115.604945 156.175797 
L 117.12 150.353142 
L 118.418618 146.1332 
L 119.717236 142.685187 
L 120.799418 140.432515 
L 121.665164 139.049414 
L 122.530909 138.04518 
L 123.396655 137.423 
L 124.045964 137.207649 
L 124.695273 137.207189 
L 125.344582 137.420441 
L 125.993891 137.845591 
L 126.859636 138.737816 
L 127.725382 139.995101 
L 128.807564 142.066281 
L 129.889745 144.672869 
L 131.188364 148.472871 
L 132.486982 152.959934 
L 134.002036 158.989199 
L 135.733527 166.80526 
L 137.897891 177.716948 
L 140.711564 193.220178 
L 147.637527 232.019571 
L 149.801891 242.610071 
L 151.533382 250.093026 
L 153.048436 255.808461 
L 154.563491 260.694493 
L 155.862109 264.209077 
L 157.160727 267.108699 
L 158.459345 269.41305 
L 159.541527 270.898919 
L 160.623709 272.009875 
L 161.705891 272.765121 
L 162.571636 273.125418 
L 163.437382 273.277903 
L 164.303127 273.229573 
L 165.168873 272.985992 
L 166.251055 272.412912 
L 167.333236 271.545236 
L 168.415418 270.383427 
L 169.4976 268.924272 
L 170.796218 266.771311 
L 172.094836 264.163614 
L 173.393455 261.079299 
L 174.908509 256.844499 
L 176.423564 251.882913 
L 177.938618 246.151857 
L 179.453673 239.614214 
L 181.185164 231.12235 
L 182.916655 221.532883 
L 184.864582 209.472321 
L 187.028945 194.639395 
L 189.842618 173.604652 
L 197.850764 112.307649 
L 200.015127 98.021995 
L 201.963055 86.710455 
L 203.694545 78.031292 
L 205.2096 71.549287 
L 206.508218 66.827171 
L 207.806836 62.865918 
L 209.105455 59.646863 
L 210.187636 57.51285 
L 211.269818 55.85896 
L 212.135564 54.868858 
L 213.001309 54.163912 
L 213.867055 53.733986 
L 214.7328 53.56901 
L 215.598545 53.659096 
L 216.464291 53.994638 
L 217.330036 54.566381 
L 218.412218 55.599756 
L 219.4944 56.971992 
L 220.793018 59.044422 
L 222.091636 61.55808 
L 223.606691 65.017947 
L 225.121745 69.013577 
L 226.853236 74.19528 
L 228.801164 80.75418 
L 230.965527 88.870028 
L 233.346327 98.692226 
L 236.16 111.314353 
L 239.622982 127.951318 
L 249.146182 174.44042 
L 251.743418 185.677389 
L 253.907782 194.079035 
L 255.855709 200.7431 
L 257.5872 205.869564 
L 259.102255 209.696143 
L 260.400873 212.466078 
L 261.699491 214.753924 
L 262.998109 216.553464 
L 264.080291 217.678194 
L 265.162473 218.462318 
L 266.028218 218.845367 
L 266.893964 219.012641 
L 267.759709 218.965759 
L 268.625455 218.706636 
L 269.4912 218.237456 
L 270.573382 217.359298 
L 271.655564 216.161966 
L 272.737745 214.651302 
L 274.036364 212.434156 
L 275.334982 209.788131 
L 276.850036 206.179231 
L 278.581527 201.401982 
L 280.313018 195.978944 
L 282.477382 188.39191 
L 284.858182 179.186788 
L 288.104727 165.64235 
L 295.247127 135.478681 
L 297.844364 125.677615 
L 300.008727 118.39583 
L 301.956655 112.656787 
L 303.688145 108.26378 
L 305.2032 104.992694 
L 306.718255 102.267175 
L 308.016873 100.366693 
L 309.315491 98.865096 
L 310.397673 97.913783 
L 311.479855 97.229592 
L 312.562036 96.806051 
L 313.644218 96.635737 
L 314.7264 96.71045 
L 315.808582 97.021356 
L 316.890764 97.559112 
L 318.189382 98.490111 
L 319.488 99.716262 
L 321.003055 101.495796 
L 322.518109 103.62329 
L 324.2496 106.442343 
L 326.197527 110.05334 
L 328.361891 114.533213 
L 330.959127 120.43058 
L 334.422109 128.903018 
L 343.945309 152.59931 
L 346.758982 158.813591 
L 349.139782 163.51908 
L 351.087709 166.917409 
L 353.035636 169.859578 
L 354.767127 172.061474 
L 356.282182 173.652046 
L 357.797236 174.918355 
L 359.095855 175.740599 
L 360.394473 176.317563 
L 361.693091 176.648892 
L 362.991709 176.736004 
L 364.290327 176.582052 
L 365.588945 176.191887 
L 366.887564 175.572005 
L 368.402618 174.569376 
L 369.917673 173.280719 
L 371.649164 171.481345 
L 373.380655 169.363927 
L 375.328582 166.646265 
L 377.709382 162.922292 
L 380.739491 157.71245 
L 386.799709 146.66821 
L 390.479127 140.245051 
L 393.076364 136.113311 
L 395.457164 132.732362 
L 397.621527 130.057456 
L 398.487273 129.10348 
L 398.487273 129.10348 
" clip-path="url(#p0c54f25759)" style="fill: none; stroke: #1f77b4; stroke-width: 1.5; stroke-linecap: square"/>
   </g>
   <g id="line2d_15">
    <path d="M 73.832727 256.425471 
L 79.0272 257.708881 
L 83.355927 258.550014 
L 86.818909 259.009596 
L 89.849018 259.202633 
L 92.662691 259.1565 
L 95.043491 258.905652 
L 97.207855 258.472594 
L 99.372218 257.806831 
L 101.320145 256.974231 
L 103.268073 255.884938 
L 104.999564 254.670454 
L 106.731055 253.193926 
L 108.462545 251.424069 
L 110.194036 249.327659 
L 111.925527 246.869773 
L 113.657018 244.014065 
L 115.388509 240.723088 
L 117.12 236.958667 
L 118.851491 232.682328 
L 120.582982 227.855829 
L 122.530909 221.721964 
L 124.478836 214.794169 
L 126.426764 207.02698 
L 128.374691 198.382791 
L 130.539055 187.718865 
L 132.703418 175.931757 
L 135.084218 161.707984 
L 137.681455 144.841109 
L 141.360873 119.285046 
L 145.256727 92.450172 
L 146.988218 81.838665 
L 148.286836 74.969839 
L 149.369018 70.233486 
L 150.234764 67.246197 
L 151.100509 65.095005 
L 151.749818 64.097653 
L 152.182691 63.751001 
L 152.615564 63.673227 
L 153.048436 63.875383 
L 153.481309 64.367197 
L 153.914182 65.156832 
L 154.563491 66.913049 
L 155.2128 69.365824 
L 156.078545 73.719353 
L 156.944291 79.277243 
L 158.026473 87.797538 
L 159.325091 100.002067 
L 161.056582 118.688644 
L 166.683927 181.572286 
L 168.415418 197.716456 
L 169.930473 210.019639 
L 171.445527 220.65759 
L 172.960582 229.756799 
L 174.475636 237.48406 
L 175.990691 244.015633 
L 177.505745 249.519384 
L 179.0208 254.146011 
L 180.535855 258.025929 
L 182.050909 261.269336 
L 183.565964 263.96787 
L 185.081018 266.196898 
L 186.596073 268.017906 
L 188.111127 269.480751 
L 189.626182 270.625643 
L 191.141236 271.48483 
L 192.656291 272.084021 
L 194.171345 272.443534 
L 195.6864 272.579241 
L 197.201455 272.503317 
L 198.716509 272.224846 
L 200.448 271.666757 
L 202.179491 270.858567 
L 203.910982 269.803103 
L 205.642473 268.500388 
L 207.5904 266.736215 
L 209.538327 264.649453 
L 211.486255 262.230763 
L 213.434182 259.468619 
L 215.598545 255.980833 
L 217.762909 252.033897 
L 219.927273 247.60916 
L 222.091636 242.690168 
L 224.472436 236.694311 
L 226.853236 230.080495 
L 229.450473 222.173685 
L 232.264145 212.846412 
L 235.510691 201.255948 
L 241.138036 180.099278 
L 244.601018 167.562895 
L 246.765382 160.504782 
L 248.496873 155.558446 
L 250.011927 151.898598 
L 251.310545 149.357105 
L 252.392727 147.716345 
L 253.258473 146.744575 
L 254.124218 146.09501 
L 254.773527 145.828295 
L 255.422836 145.756204 
L 256.072145 145.882527 
L 256.721455 146.209726 
L 257.5872 146.960031 
L 258.452945 148.067334 
L 259.318691 149.524865 
L 260.400873 151.820784 
L 261.699491 155.224798 
L 262.998109 159.260889 
L 264.7296 165.454037 
L 266.893964 174.121849 
L 274.902109 207.157919 
L 277.066473 214.751751 
L 279.0144 220.818837 
L 280.962327 226.134855 
L 282.693818 230.239029 
L 284.425309 233.782164 
L 286.1568 236.794853 
L 287.671855 239.022562 
L 289.186909 240.893482 
L 290.701964 242.43027 
L 292.217018 243.654365 
L 293.732073 244.585631 
L 295.247127 245.242206 
L 296.762182 245.640468 
L 298.277236 245.795094 
L 299.792291 245.71917 
L 301.307345 245.424345 
L 302.8224 244.921004 
L 304.553891 244.102323 
L 306.285382 243.035904 
L 308.233309 241.554176 
L 310.181236 239.788379 
L 312.3456 237.511057 
L 314.7264 234.646502 
L 317.1072 231.434432 
L 319.920873 227.237991 
L 322.950982 222.310393 
L 326.846836 215.529726 
L 335.504291 200.285632 
L 338.101527 196.214567 
L 340.265891 193.198939 
L 342.213818 190.857714 
L 343.945309 189.125129 
L 345.460364 187.909963 
L 346.975418 186.998349 
L 348.274036 186.471339 
L 349.572655 186.186771 
L 350.871273 186.148249 
L 352.169891 186.355628 
L 353.468509 186.804877 
L 354.767127 187.488078 
L 356.282182 188.565065 
L 357.797236 189.91998 
L 359.528727 191.770026 
L 361.476655 194.173483 
L 364.073891 197.772542 
L 368.186182 203.943928 
L 372.947782 210.991961 
L 375.761455 214.776615 
L 378.358691 217.891354 
L 380.523055 220.166396 
L 382.687418 222.129258 
L 384.635345 223.621257 
L 386.583273 224.851721 
L 388.5312 225.823337 
L 390.479127 226.541781 
L 392.427055 227.014963 
L 394.374982 227.252455 
L 396.322909 227.265081 
L 398.270836 227.064629 
L 398.487273 227.029744 
L 398.487273 227.029744 
" clip-path="url(#p0c54f25759)" style="fill: none; stroke: #ff7f0e; stroke-width: 1.5; stroke-linecap: square"/>
   </g>
   <g id="line2d_16">
    <path d="M 73.832727 284.327278 
L 87.035345 285.357121 
L 100.4544 286.355722 
L 106.947491 286.615483 
L 111.709091 286.597495 
L 115.604945 286.377104 
L 119.067927 285.95979 
L 122.098036 285.361817 
L 124.695273 284.620515 
L 127.076073 283.701071 
L 129.240436 282.612101 
L 131.188364 281.373473 
L 132.919855 280.018506 
L 134.651345 278.371191 
L 136.1664 276.640036 
L 137.681455 274.584016 
L 139.196509 272.140508 
L 140.711564 269.235285 
L 142.226618 265.781838 
L 143.741673 261.682001 
L 145.256727 256.828999 
L 146.771782 251.114627 
L 148.286836 244.442696 
L 149.801891 236.751032 
L 151.533382 226.720883 
L 153.481309 214.08504 
L 158.675782 179.483642 
L 159.9744 172.623601 
L 161.056582 167.998026 
L 161.922327 165.107451 
L 162.788073 162.975123 
L 163.437382 161.877705 
L 164.086691 161.202806 
L 164.519564 160.98052 
L 164.952436 160.933536 
L 165.385309 161.054814 
L 166.034618 161.534705 
L 166.683927 162.345724 
L 167.549673 163.887115 
L 168.631855 166.443542 
L 169.930473 170.237679 
L 171.661964 176.143235 
L 174.475636 186.732538 
L 178.804364 202.928483 
L 181.4016 211.784477 
L 183.7824 219.151796 
L 186.1632 225.785653 
L 188.327564 231.20536 
L 190.491927 236.082021 
L 192.656291 240.458611 
L 194.820655 244.378345 
L 196.985018 247.882109 
L 199.365818 251.30021 
L 201.746618 254.303966 
L 204.127418 256.931153 
L 206.508218 259.213546 
L 208.889018 261.177194 
L 211.269818 262.842683 
L 213.650618 264.225339 
L 216.031418 265.335332 
L 218.195782 266.112114 
L 220.360145 266.667686 
L 222.524509 266.99817 
L 224.688873 267.095605 
L 226.6368 266.9739 
L 228.584727 266.641106 
L 230.532655 266.081467 
L 232.480582 265.275611 
L 234.212073 264.333984 
L 235.943564 263.160897 
L 237.675055 261.73553 
L 239.406545 260.035391 
L 241.138036 258.037121 
L 242.869527 255.717813 
L 244.601018 253.057009 
L 246.548945 249.636824 
L 248.496873 245.757946 
L 250.661236 240.929977 
L 253.258473 234.516908 
L 257.5872 223.038023 
L 260.400873 215.85816 
L 262.3488 211.447174 
L 263.863855 208.496903 
L 265.162473 206.374045 
L 266.461091 204.667304 
L 267.543273 203.580436 
L 268.625455 202.804653 
L 269.707636 202.338029 
L 270.573382 202.18172 
L 271.439127 202.21071 
L 272.521309 202.493394 
L 273.603491 203.029759 
L 274.902109 203.974037 
L 276.200727 205.203818 
L 277.715782 206.938223 
L 279.663709 209.533703 
L 282.260945 213.414549 
L 293.082764 230.084255 
L 295.896436 233.821963 
L 298.493673 236.937245 
L 301.090909 239.716174 
L 303.688145 242.154455 
L 306.068945 244.091355 
L 308.449745 245.746106 
L 310.830545 247.122268 
L 313.211345 248.223052 
L 315.375709 248.986755 
L 317.540073 249.525641 
L 319.704436 249.839672 
L 321.8688 249.927983 
L 324.033164 249.789071 
L 326.197527 249.421137 
L 328.361891 248.822578 
L 330.526255 247.992672 
L 332.690618 246.932475 
L 335.071418 245.505084 
L 337.452218 243.815076 
L 340.049455 241.695275 
L 343.079564 238.911673 
L 346.975418 234.994311 
L 353.684945 228.197611 
L 356.498618 225.705354 
L 358.662982 224.063008 
L 360.610909 222.835905 
L 362.558836 221.874832 
L 364.290327 221.257355 
L 366.021818 220.867277 
L 367.753309 220.70198 
L 369.4848 220.752713 
L 371.432727 221.050457 
L 373.380655 221.577832 
L 375.545018 222.395972 
L 378.142255 223.638483 
L 381.172364 225.347706 
L 385.933964 228.330303 
L 392.859927 232.648164 
L 396.755782 234.801911 
L 398.487273 235.662297 
L 398.487273 235.662297 
" clip-path="url(#p0c54f25759)" style="fill: none; stroke: #2ca02c; stroke-width: 1.5; stroke-linecap: square"/>
   </g>
   <g id="patch_3">
    <path d="M 57.6 307.584 
L 57.6 41.472 
" style="fill: none; stroke: #000000; stroke-width: 0.8; stroke-linejoin: miter; stroke-linecap: square"/>
   </g>
   <g id="patch_4">
    <path d="M 414.72 307.584 
L 414.72 41.472 
" style="fill: none; stroke: #000000; stroke-width: 0.8; stroke-linejoin: miter; stroke-linecap: square"/>
   </g>
   <g id="patch_5">
    <path d="M 57.6 307.584 
L 414.72 307.584 
" style="fill: none; stroke: #000000; stroke-width: 0.8; stroke-linejoin: miter; stroke-linecap: square"/>
   </g>
   <g id="patch_6">
    <path d="M 57.6 41.472 
L 414.72 41.472 
" style="fill: none; stroke: #000000; stroke-width: 0.8; stroke-linejoin: miter; stroke-linecap: square"/>
   </g>
  </g>
 </g>
 <defs>
  <clipPath id="p0c54f25759">
   <rect x="57.6" y="41.472" width="357.12" height="266.112"/>
  </clipPath>
 </defs>
</svg>
