<?xml version="1.0" encoding="utf-8" standalone="no"?>
<!DOCTYPE svg PUBLIC "-//W3C//DTD SVG 1.1//EN"
  "http://www.w3.org/Graphics/SVG/1.1/DTD/svg11.dtd">
<svg xmlns:xlink="http://www.w3.org/1999/xlink" width="460.8pt" height="345.6pt" viewBox="0 0 460.8 345.6" xmlns="http://www.w3.org/2000/svg" version="1.1">
 <metadata>
  <rdf:RDF xmlns:dc="http://purl.org/dc/elements/1.1/" xmlns:cc="http://creativecommons.org/ns#" xmlns:rdf="http://www.w3.org/1999/02/22-rdf-syntax-ns#">
   <cc:Work>
    <dc:type rdf:resource="http://purl.org/dc/dcmitype/StillImage"/>
    <dc:date>2024-11-24T12:43:33.838264</dc:date>
    <dc:format>image/svg+xml</dc:format>
    <dc:creator>
     <cc:Agent>
      <dc:title>Matplotlib v3.9.2, https://matplotlib.org/</dc:title>
     </cc:Agent>
    </dc:creator>
   </cc:Work>
  </rdf:RDF>
 </metadata>
 <defs>
  <style type="text/css">*{stroke-linejoin: round; stroke-linecap: butt}</style>
 </defs>
 <g id="figure_1">
  <g id="patch_1">
   <path d="M 0 345.6 
L 460.8 345.6 
L 460.8 0 
L 0 0 
z
" style="fill: #ffffff"/>
  </g>
  <g id="axes_1">
   <g id="patch_2">
    <path d="M 57.6 307.584 
L 414.72 307.584 
L 414.72 41.472 
L 57.6 41.472 
z
" style="fill: #ffffff"/>
   </g>
   <g id="matplotlib.axis_1">
    <g id="xtick_1">
     <g id="line2d_1">
      <defs>
       <path id="m0bfe79b770" d="M 0 0 
L 0 3.5 
" style="stroke: #000000; stroke-width: 0.8"/>
      </defs>
      <g>
       <use xlink:href="#m0bfe79b770" x="73.832727" y="307.584" style="stroke: #000000; stroke-width: 0.8"/>
      </g>
     </g>
     <g id="text_1">
      <!-- 0 -->
      <g transform="translate(70.651477 322.182437) scale(0.1 -0.1)">
       <defs>
        <path id="DejaVuSans-30" d="M 2034 4250 
Q 1547 4250 1301 3770 
Q 1056 3291 1056 2328 
Q 1056 1369 1301 889 
Q 1547 409 2034 409 
Q 2525 409 2770 889 
Q 3016 1369 3016 2328 
Q 3016 3291 2770 3770 
Q 2525 4250 2034 4250 
z
M 2034 4750 
Q 2819 4750 3233 4129 
Q 3647 3509 3647 2328 
Q 3647 1150 3233 529 
Q 2819 -91 2034 -91 
Q 1250 -91 836 529 
Q 422 1150 422 2328 
Q 422 3509 836 4129 
Q 1250 4750 2034 4750 
z
" transform="scale(0.015625)"/>
       </defs>
       <use xlink:href="#DejaVuSans-30"/>
      </g>
     </g>
    </g>
    <g id="xtick_2">
     <g id="line2d_2">
      <g>
       <use xlink:href="#m0bfe79b770" x="117.12" y="307.584" style="stroke: #000000; stroke-width: 0.8"/>
      </g>
     </g>
     <g id="text_2">
      <!-- 2 -->
      <g transform="translate(113.93875 322.182437) scale(0.1 -0.1)">
       <defs>
        <path id="DejaVuSans-32" d="M 1228 531 
L 3431 531 
L 3431 0 
L 469 0 
L 469 531 
Q 828 903 1448 1529 
Q 2069 2156 2228 2338 
Q 2531 2678 2651 2914 
Q 2772 3150 2772 3378 
Q 2772 3750 2511 3984 
Q 2250 4219 1831 4219 
Q 1534 4219 1204 4116 
Q 875 4013 500 3803 
L 500 4441 
Q 881 4594 1212 4672 
Q 1544 4750 1819 4750 
Q 2544 4750 2975 4387 
Q 3406 4025 3406 3419 
Q 3406 3131 3298 2873 
Q 3191 2616 2906 2266 
Q 2828 2175 2409 1742 
Q 1991 1309 1228 531 
z
" transform="scale(0.015625)"/>
       </defs>
       <use xlink:href="#DejaVuSans-32"/>
      </g>
     </g>
    </g>
    <g id="xtick_3">
     <g id="line2d_3">
      <g>
       <use xlink:href="#m0bfe79b770" x="160.407273" y="307.584" style="stroke: #000000; stroke-width: 0.8"/>
      </g>
     </g>
     <g id="text_3">
      <!-- 4 -->
      <g transform="translate(157.226023 322.182437) scale(0.1 -0.1)">
       <defs>
        <path id="DejaVuSans-34" d="M 2419 4116 
L 825 1625 
L 2419 1625 
L 2419 4116 
z
M 2253 4666 
L 3047 4666 
L 3047 1625 
L 3713 1625 
L 3713 1100 
L 3047 1100 
L 3047 0 
L 2419 0 
L 2419 1100 
L 313 1100 
L 313 1709 
L 2253 4666 
z
" transform="scale(0.015625)"/>
       </defs>
       <use xlink:href="#DejaVuSans-34"/>
      </g>
     </g>
    </g>
    <g id="xtick_4">
     <g id="line2d_4">
      <g>
       <use xlink:href="#m0bfe79b770" x="203.694545" y="307.584" style="stroke: #000000; stroke-width: 0.8"/>
      </g>
     </g>
     <g id="text_4">
      <!-- 6 -->
      <g transform="translate(200.513295 322.182437) scale(0.1 -0.1)">
       <defs>
        <path id="DejaVuSans-36" d="M 2113 2584 
Q 1688 2584 1439 2293 
Q 1191 2003 1191 1497 
Q 1191 994 1439 701 
Q 1688 409 2113 409 
Q 2538 409 2786 701 
Q 3034 994 3034 1497 
Q 3034 2003 2786 2293 
Q 2538 2584 2113 2584 
z
M 3366 4563 
L 3366 3988 
Q 3128 4100 2886 4159 
Q 2644 4219 2406 4219 
Q 1781 4219 1451 3797 
Q 1122 3375 1075 2522 
Q 1259 2794 1537 2939 
Q 1816 3084 2150 3084 
Q 2853 3084 3261 2657 
Q 3669 2231 3669 1497 
Q 3669 778 3244 343 
Q 2819 -91 2113 -91 
Q 1303 -91 875 529 
Q 447 1150 447 2328 
Q 447 3434 972 4092 
Q 1497 4750 2381 4750 
Q 2619 4750 2861 4703 
Q 3103 4656 3366 4563 
z
" transform="scale(0.015625)"/>
       </defs>
       <use xlink:href="#DejaVuSans-36"/>
      </g>
     </g>
    </g>
    <g id="xtick_5">
     <g id="line2d_5">
      <g>
       <use xlink:href="#m0bfe79b770" x="246.981818" y="307.584" style="stroke: #000000; stroke-width: 0.8"/>
      </g>
     </g>
     <g id="text_5">
      <!-- 8 -->
      <g transform="translate(243.800568 322.182437) scale(0.1 -0.1)">
       <defs>
        <path id="DejaVuSans-38" d="M 2034 2216 
Q 1584 2216 1326 1975 
Q 1069 1734 1069 1313 
Q 1069 891 1326 650 
Q 1584 409 2034 409 
Q 2484 409 2743 651 
Q 3003 894 3003 1313 
Q 3003 1734 2745 1975 
Q 2488 2216 2034 2216 
z
M 1403 2484 
Q 997 2584 770 2862 
Q 544 3141 544 3541 
Q 544 4100 942 4425 
Q 1341 4750 2034 4750 
Q 2731 4750 3128 4425 
Q 3525 4100 3525 3541 
Q 3525 3141 3298 2862 
Q 3072 2584 2669 2484 
Q 3125 2378 3379 2068 
Q 3634 1759 3634 1313 
Q 3634 634 3220 271 
Q 2806 -91 2034 -91 
Q 1263 -91 848 271 
Q 434 634 434 1313 
Q 434 1759 690 2068 
Q 947 2378 1403 2484 
z
M 1172 3481 
Q 1172 3119 1398 2916 
Q 1625 2713 2034 2713 
Q 2441 2713 2670 2916 
Q 2900 3119 2900 3481 
Q 2900 3844 2670 4047 
Q 2441 4250 2034 4250 
Q 1625 4250 1398 4047 
Q 1172 3844 1172 3481 
z
" transform="scale(0.015625)"/>
       </defs>
       <use xlink:href="#DejaVuSans-38"/>
      </g>
     </g>
    </g>
    <g id="xtick_6">
     <g id="line2d_6">
      <g>
       <use xlink:href="#m0bfe79b770" x="290.269091" y="307.584" style="stroke: #000000; stroke-width: 0.8"/>
      </g>
     </g>
     <g id="text_6">
      <!-- 10 -->
      <g transform="translate(283.906591 322.182437) scale(0.1 -0.1)">
       <defs>
        <path id="DejaVuSans-31" d="M 794 531 
L 1825 531 
L 1825 4091 
L 703 3866 
L 703 4441 
L 1819 4666 
L 2450 4666 
L 2450 531 
L 3481 531 
L 3481 0 
L 794 0 
L 794 531 
z
" transform="scale(0.015625)"/>
       </defs>
       <use xlink:href="#DejaVuSans-31"/>
       <use xlink:href="#DejaVuSans-30" x="63.623047"/>
      </g>
     </g>
    </g>
    <g id="xtick_7">
     <g id="line2d_7">
      <g>
       <use xlink:href="#m0bfe79b770" x="333.556364" y="307.584" style="stroke: #000000; stroke-width: 0.8"/>
      </g>
     </g>
     <g id="text_7">
      <!-- 12 -->
      <g transform="translate(327.193864 322.182437) scale(0.1 -0.1)">
       <use xlink:href="#DejaVuSans-31"/>
       <use xlink:href="#DejaVuSans-32" x="63.623047"/>
      </g>
     </g>
    </g>
    <g id="xtick_8">
     <g id="line2d_8">
      <g>
       <use xlink:href="#m0bfe79b770" x="376.843636" y="307.584" style="stroke: #000000; stroke-width: 0.8"/>
      </g>
     </g>
     <g id="text_8">
      <!-- 14 -->
      <g transform="translate(370.481136 322.182437) scale(0.1 -0.1)">
       <use xlink:href="#DejaVuSans-31"/>
       <use xlink:href="#DejaVuSans-34" x="63.623047"/>
      </g>
     </g>
    </g>
   </g>
   <g id="matplotlib.axis_2">
    <g id="ytick_1">
     <g id="line2d_9">
      <defs>
       <path id="mddf4a61898" d="M 0 0 
L -3.5 0 
" style="stroke: #000000; stroke-width: 0.8"/>
      </defs>
      <g>
       <use xlink:href="#mddf4a61898" x="57.6" y="306.856421" style="stroke: #000000; stroke-width: 0.8"/>
      </g>
     </g>
     <g id="text_9">
      <!-- 0.0 -->
      <g transform="translate(34.696875 310.65564) scale(0.1 -0.1)">
       <defs>
        <path id="DejaVuSans-2e" d="M 684 794 
L 1344 794 
L 1344 0 
L 684 0 
L 684 794 
z
" transform="scale(0.015625)"/>
       </defs>
       <use xlink:href="#DejaVuSans-30"/>
       <use xlink:href="#DejaVuSans-2e" x="63.623047"/>
       <use xlink:href="#DejaVuSans-30" x="95.410156"/>
      </g>
     </g>
    </g>
    <g id="ytick_2">
     <g id="line2d_10">
      <g>
       <use xlink:href="#mddf4a61898" x="57.6" y="250.014316" style="stroke: #000000; stroke-width: 0.8"/>
      </g>
     </g>
     <g id="text_10">
      <!-- 0.5 -->
      <g transform="translate(34.696875 253.813535) scale(0.1 -0.1)">
       <defs>
        <path id="DejaVuSans-35" d="M 691 4666 
L 3169 4666 
L 3169 4134 
L 1269 4134 
L 1269 2991 
Q 1406 3038 1543 3061 
Q 1681 3084 1819 3084 
Q 2600 3084 3056 2656 
Q 3513 2228 3513 1497 
Q 3513 744 3044 326 
Q 2575 -91 1722 -91 
Q 1428 -91 1123 -41 
Q 819 9 494 109 
L 494 744 
Q 775 591 1075 516 
Q 1375 441 1709 441 
Q 2250 441 2565 725 
Q 2881 1009 2881 1497 
Q 2881 1984 2565 2268 
Q 2250 2553 1709 2553 
Q 1456 2553 1204 2497 
Q 953 2441 691 2322 
L 691 4666 
z
" transform="scale(0.015625)"/>
       </defs>
       <use xlink:href="#DejaVuSans-30"/>
       <use xlink:href="#DejaVuSans-2e" x="63.623047"/>
       <use xlink:href="#DejaVuSans-35" x="95.410156"/>
      </g>
     </g>
    </g>
    <g id="ytick_3">
     <g id="line2d_11">
      <g>
       <use xlink:href="#mddf4a61898" x="57.6" y="193.172211" style="stroke: #000000; stroke-width: 0.8"/>
      </g>
     </g>
     <g id="text_11">
      <!-- 1.0 -->
      <g transform="translate(34.696875 196.971429) scale(0.1 -0.1)">
       <use xlink:href="#DejaVuSans-31"/>
       <use xlink:href="#DejaVuSans-2e" x="63.623047"/>
       <use xlink:href="#DejaVuSans-30" x="95.410156"/>
      </g>
     </g>
    </g>
    <g id="ytick_4">
     <g id="line2d_12">
      <g>
       <use xlink:href="#mddf4a61898" x="57.6" y="136.330105" style="stroke: #000000; stroke-width: 0.8"/>
      </g>
     </g>
     <g id="text_12">
      <!-- 1.5 -->
      <g transform="translate(34.696875 140.129324) scale(0.1 -0.1)">
       <use xlink:href="#DejaVuSans-31"/>
       <use xlink:href="#DejaVuSans-2e" x="63.623047"/>
       <use xlink:href="#DejaVuSans-35" x="95.410156"/>
      </g>
     </g>
    </g>
    <g id="ytick_5">
     <g id="line2d_13">
      <g>
       <use xlink:href="#mddf4a61898" x="57.6" y="79.488" style="stroke: #000000; stroke-width: 0.8"/>
      </g>
     </g>
     <g id="text_13">
      <!-- 2.0 -->
      <g transform="translate(34.696875 83.287219) scale(0.1 -0.1)">
       <use xlink:href="#DejaVuSans-32"/>
       <use xlink:href="#DejaVuSans-2e" x="63.623047"/>
       <use xlink:href="#DejaVuSans-30" x="95.410156"/>
      </g>
     </g>
    </g>
   </g>
   <g id="line2d_14">
    <path d="M 73.832727 295.488 
L 79.892945 289.235368 
L 84.005236 287.189053 
L 132.486982 287.189053 
L 195.469964 254.220632 
L 209.9712 254.220632 
L 271.222691 286.279579 
L 323.167418 286.279579 
L 381.3888 255.812211 
L 396.972218 255.812211 
L 398.487273 256.608 
L 398.487273 256.608 
" clip-path="url(#p58459b7625)" style="fill: none; stroke: #1f77b4; stroke-width: 1.5; stroke-linecap: square"/>
   </g>
   <g id="line2d_15">
    <path d="M 73.832727 215.909053 
L 79.676509 152.359579 
L 81.191564 139.626947 
L 82.706618 129.168 
L 84.221673 120.982737 
L 85.303855 116.208 
L 86.818909 110.978526 
L 87.684655 108.591158 
L 88.5504 106.544842 
L 90.281891 103.134316 
L 92.446255 99.837474 
L 102.402327 89.492211 
L 102.8352 89.151158 
L 103.700945 88.355368 
L 104.133818 88.014316 
L 104.999564 87.218526 
L 105.432436 86.877474 
L 106.298182 86.081684 
L 106.731055 85.740632 
L 107.5968 84.944842 
L 108.029673 84.603789 
L 108.895418 83.808 
L 109.328291 83.466947 
L 110.194036 82.671158 
L 110.626909 82.330105 
L 111.492655 81.534316 
L 111.925527 81.193263 
L 112.791273 80.397474 
L 113.224145 80.056421 
L 114.089891 79.260632 
L 114.7392 78.805895 
L 115.821382 77.782737 
L 116.254255 77.441684 
L 117.12 76.645895 
L 117.552873 76.304842 
L 118.418618 75.509053 
L 118.851491 75.168 
L 119.717236 74.372211 
L 120.150109 74.031158 
L 121.015855 73.235368 
L 121.448727 72.894316 
L 122.314473 72.098526 
L 122.747345 71.757474 
L 123.613091 70.961684 
L 124.045964 70.620632 
L 124.695273 70.052211 
L 125.128145 69.711158 
L 125.993891 68.915368 
L 126.426764 68.574316 
L 127.292509 67.778526 
L 127.725382 67.437474 
L 128.591127 66.641684 
L 129.024 66.300632 
L 129.889745 65.504842 
L 130.322618 65.163789 
L 131.188364 64.368 
L 131.837673 63.913263 
L 132.703418 63.117474 
L 151.100509 53.568 
L 160.840145 53.568 
L 182.050909 64.822737 
L 216.897164 101.315368 
L 240.488727 113.593263 
L 253.042036 113.593263 
L 289.186909 94.494316 
L 290.052655 93.698526 
L 290.485527 93.357474 
L 291.567709 92.334316 
L 292.000582 91.993263 
L 292.866327 91.197474 
L 293.2992 90.856421 
L 294.164945 90.060632 
L 294.597818 89.719579 
L 295.463564 88.923789 
L 295.896436 88.582737 
L 296.762182 87.786947 
L 297.195055 87.445895 
L 298.0608 86.650105 
L 298.493673 86.309053 
L 299.359418 85.513263 
L 299.792291 85.172211 
L 300.658036 84.376421 
L 301.090909 84.035368 
L 301.956655 83.239579 
L 302.389527 82.898526 
L 303.255273 82.102737 
L 303.688145 81.761684 
L 304.553891 80.965895 
L 304.986764 80.624842 
L 305.852509 79.829053 
L 306.285382 79.488 
L 306.934691 78.919579 
L 307.367564 78.578526 
L 308.233309 77.782737 
L 308.666182 77.441684 
L 309.531927 76.645895 
L 309.9648 76.304842 
L 310.830545 75.509053 
L 311.263418 75.168 
L 312.129164 74.372211 
L 312.562036 74.031158 
L 313.427782 73.235368 
L 313.860655 72.894316 
L 314.7264 72.098526 
L 315.159273 71.757474 
L 316.025018 70.961684 
L 316.457891 70.620632 
L 317.1072 70.052211 
L 317.540073 69.711158 
L 318.405818 68.915368 
L 318.838691 68.574316 
L 319.704436 67.778526 
L 320.137309 67.437474 
L 321.003055 66.641684 
L 321.435927 66.300632 
L 322.301673 65.504842 
L 322.734545 65.163789 
L 323.383855 64.595368 
L 339.833018 56.069053 
L 349.789091 56.069053 
L 370.783418 67.210105 
L 398.487273 96.313263 
L 398.487273 96.313263 
" clip-path="url(#p58459b7625)" style="fill: none; stroke: #ff7f0e; stroke-width: 1.5; stroke-linecap: square"/>
   </g>
   <g id="line2d_16">
    <path d="M 73.832727 272.751158 
L 75.131345 262.519579 
L 76.6464 248.877474 
L 80.325818 214.999579 
L 81.624436 204.881684 
L 82.706618 197.605895 
L 84.005236 190.557474 
L 85.087418 185.896421 
L 86.1696 182.258526 
L 87.035345 179.871158 
L 88.333964 177.370105 
L 89.199709 176.119579 
L 90.714764 174.641684 
L 92.879127 173.618526 
L 97.207855 173.618526 
L 146.338909 199.311158 
L 146.555345 199.311158 
L 147.421091 199.652211 
L 147.637527 199.652211 
L 148.719709 200.106947 
L 148.936145 200.106947 
L 150.018327 200.561684 
L 150.234764 200.561684 
L 151.100509 200.902737 
L 172.311273 200.902737 
L 173.177018 200.561684 
L 173.393455 200.561684 
L 174.475636 200.106947 
L 174.692073 200.106947 
L 175.774255 199.652211 
L 175.990691 199.652211 
L 177.289309 199.083789 
L 177.505745 199.083789 
L 178.587927 198.629053 
L 178.804364 198.629053 
L 179.886545 198.174316 
L 180.102982 198.174316 
L 181.185164 197.719579 
L 181.4016 197.719579 
L 202.179491 186.692211 
L 202.8288 186.123789 
L 203.694545 185.555368 
L 204.127418 185.214316 
L 204.776727 184.759579 
L 205.2096 184.418526 
L 205.858909 183.963789 
L 206.291782 183.622737 
L 206.941091 183.168 
L 207.373964 182.826947 
L 208.023273 182.372211 
L 208.456145 182.031158 
L 209.321891 181.462737 
L 209.9712 180.894316 
L 210.836945 180.325895 
L 211.269818 179.984842 
L 211.919127 179.530105 
L 212.352 179.189053 
L 213.217745 178.620632 
L 213.867055 178.052211 
L 214.7328 177.483789 
L 215.165673 177.142737 
L 216.031418 176.574316 
L 216.680727 176.005895 
L 236.592873 165.660632 
L 236.809309 165.660632 
L 237.891491 165.205895 
L 238.107927 165.205895 
L 239.190109 164.751158 
L 239.406545 164.751158 
L 240.488727 164.296421 
L 261.483055 164.296421 
L 262.3488 164.637474 
L 262.565236 164.637474 
L 263.430982 164.978526 
L 263.647418 164.978526 
L 264.7296 165.433263 
L 264.946036 165.433263 
L 266.028218 165.888 
L 266.244655 165.888 
L 267.326836 166.342737 
L 267.543273 166.342737 
L 268.625455 166.797474 
L 268.841891 166.797474 
L 269.924073 167.252211 
L 270.140509 167.252211 
L 271.222691 167.706947 
L 271.439127 167.706947 
L 272.521309 168.161684 
L 272.737745 168.161684 
L 273.603491 168.502737 
L 273.819927 168.502737 
L 274.902109 168.957474 
L 275.118545 168.957474 
L 276.200727 169.412211 
L 276.417164 169.412211 
L 277.499345 169.866947 
L 277.715782 169.866947 
L 278.797964 170.321684 
L 279.0144 170.321684 
L 280.096582 170.776421 
L 280.313018 170.776421 
L 281.3952 171.231158 
L 281.611636 171.231158 
L 282.477382 171.572211 
L 282.693818 171.572211 
L 283.776 172.026947 
L 283.992436 172.026947 
L 285.074618 172.481684 
L 285.291055 172.481684 
L 286.373236 172.936421 
L 286.589673 172.936421 
L 287.671855 173.391158 
L 287.888291 173.391158 
L 332.907055 196.923789 
L 333.123491 196.923789 
L 334.205673 197.378526 
L 334.422109 197.378526 
L 335.287855 197.719579 
L 335.504291 197.719579 
L 336.586473 198.174316 
L 336.802909 198.174316 
L 337.885091 198.629053 
L 338.101527 198.629053 
L 339.183709 199.083789 
L 339.400145 199.083789 
L 340.049455 199.311158 
L 361.043782 199.311158 
L 362.125964 198.856421 
L 362.3424 198.856421 
L 363.424582 198.401684 
L 363.641018 198.401684 
L 364.7232 197.946947 
L 364.939636 197.946947 
L 366.238255 197.378526 
L 366.454691 197.378526 
L 367.536873 196.923789 
L 367.753309 196.923789 
L 368.835491 196.469053 
L 369.051927 196.469053 
L 370.134109 196.014316 
L 370.350545 196.014316 
L 390.479127 185.328 
L 391.128436 184.759579 
L 392.210618 184.077474 
L 392.859927 183.509053 
L 393.725673 182.940632 
L 394.158545 182.599579 
L 394.807855 182.144842 
L 395.240727 181.803789 
L 395.890036 181.349053 
L 396.322909 181.008 
L 397.188655 180.439579 
L 397.837964 179.871158 
L 398.487273 179.416421 
L 398.487273 179.416421 
" clip-path="url(#p58459b7625)" style="fill: none; stroke: #2ca02c; stroke-width: 1.5; stroke-linecap: square"/>
   </g>
   <g id="patch_3">
    <path d="M 57.6 307.584 
L 57.6 41.472 
" style="fill: none; stroke: #000000; stroke-width: 0.8; stroke-linejoin: miter; stroke-linecap: square"/>
   </g>
   <g id="patch_4">
    <path d="M 414.72 307.584 
L 414.72 41.472 
" style="fill: none; stroke: #000000; stroke-width: 0.8; stroke-linejoin: miter; stroke-linecap: square"/>
   </g>
   <g id="patch_5">
    <path d="M 57.6 307.584 
L 414.72 307.584 
" style="fill: none; stroke: #000000; stroke-width: 0.8; stroke-linejoin: miter; stroke-linecap: square"/>
   </g>
   <g id="patch_6">
    <path d="M 57.6 41.472 
L 414.72 41.472 
" style="fill: none; stroke: #000000; stroke-width: 0.8; stroke-linejoin: miter; stroke-linecap: square"/>
   </g>
  </g>
 </g>
 <defs>
  <clipPath id="p58459b7625">
   <rect x="57.6" y="41.472" width="357.12" height="266.112"/>
  </clipPath>
 </defs>
</svg>
